<svg viewBox="0 0 105 25" fill="none" xmlns="http://www.w3.org/2000/svg">
<path
    d="M42.8707 15.9546L42.8545 9.32505L39.5228 14.7865H38.3422L35.0267 9.46711V15.9546H32.5684V4.90535H34.7356L38.9729 11.7717L43.1456 4.90535H45.2966L45.329 15.9546H42.8707ZM55.9238 16.144C54.7484 16.144 53.6863 15.8967 52.7376 15.4021C51.7996 14.9076 51.061 14.2288 50.5219 13.3659C49.9935 12.4925 49.7294 11.5139 49.7294 10.43C49.7294 9.34609 49.9935 8.37271 50.5219 7.50981C51.061 6.6364 51.7996 5.95239 52.7376 5.45781C53.6863 4.96323 54.7484 4.71593 55.9238 4.71593C57.0989 4.71593 58.1557 4.96323 59.0937 5.45781C60.0317 5.95239 60.7702 6.6364 61.3094 7.50981C61.8485 8.37271 62.1181 9.34609 62.1181 10.43C62.1181 11.5139 61.8485 12.4925 61.3094 13.3659C60.7702 14.2288 60.0317 14.9076 59.0937 15.4021C58.1557 15.8967 57.0989 16.144 55.9238 16.144ZM55.9238 13.9657C56.5922 13.9657 57.1959 13.8184 57.7352 13.5238C58.2742 13.2186 58.6947 12.7977 58.9967 12.261C59.3093 11.7243 59.4657 11.114 59.4657 10.43C59.4657 9.74598 59.3093 9.13563 58.9967 8.59895C58.6947 8.06228 58.2742 7.64662 57.7352 7.35197C57.1959 7.0468 56.5922 6.89421 55.9238 6.89421C55.2551 6.89421 54.6514 7.0468 54.1124 7.35197C53.5731 7.64662 53.1473 8.06228 52.8347 8.59895C52.5327 9.13563 52.3818 9.74598 52.3818 10.43C52.3818 11.114 52.5327 11.7243 52.8347 12.261C53.1473 12.7977 53.5731 13.2186 54.1124 13.5238C54.6514 13.8184 55.2551 13.9657 55.9238 13.9657ZM76.8962 4.90535V15.9546H74.7451L69.1007 9.24612V15.9546H66.513V4.90535H68.6802L74.3085 11.6138V4.90535H76.8962ZM90.7667 13.9026V15.9546H82.0008V4.90535H90.5564V6.95735H84.6047V9.35662H89.861V11.3455H84.6047V13.9026H90.7667ZM100.601 12.04V15.9546H97.9809V12.0084L93.5979 4.90535H96.3797L99.4041 9.81437L102.428 4.90535H105L100.601 12.04Z"
    fill="#186AB4"
  />
<path
    d="M37.6267 18.7402V23.9399H37.0863V19.7802L34.9933 23.2788H34.7269L32.6339 19.8025V23.9399H32.0936V18.7402H32.5578L34.8715 22.5954L37.1624 18.7402H37.6267ZM43.4648 22.5508H40.4966L39.8573 23.9399H39.2712L41.7067 18.7402H42.2623L44.6978 23.9399H44.1041L43.4648 22.5508ZM43.2593 22.1052L41.9807 19.3122L40.7021 22.1052H43.2593ZM49.9782 23.9399L48.7605 22.2686C48.6235 22.2834 48.4814 22.2909 48.3343 22.2909H46.9034V23.9399H46.3402V18.7402H48.3343C49.0141 18.7402 49.5469 18.8986 49.9326 19.2156C50.3183 19.5326 50.511 19.9683 50.511 20.523C50.511 20.9291 50.4045 21.2732 50.1914 21.5555C49.9834 21.8327 49.6839 22.0333 49.2933 22.1572L50.5947 23.9399H49.9782ZM48.3191 21.8229C48.8467 21.8229 49.2501 21.7091 49.5292 21.4812C49.8083 21.2533 49.9478 20.9339 49.9478 20.523C49.9478 20.102 49.8083 19.7802 49.5292 19.5573C49.2501 19.3295 48.8467 19.2156 48.3191 19.2156H46.9034V21.8229H48.3191ZM54.2529 21.4961L53.1646 22.5731V23.9399H52.6013V18.7402H53.1646V21.8823L56.2926 18.7402H56.9396L54.6335 21.0949L57.0994 23.9399H56.4296L54.2529 21.4961ZM62.5408 23.4645V23.9399H58.7734V18.7402H62.4266V19.2156H59.3366V21.0652H62.0918V21.5332H59.3366V23.4645H62.5408ZM65.6609 19.2156H63.7886V18.7402H68.0964V19.2156H66.2241V23.9399H65.6609V19.2156ZM71.1444 23.9845C70.7486 23.9845 70.3681 23.9226 70.0027 23.7988C69.6424 23.6749 69.3634 23.5115 69.1655 23.3085L69.3862 22.8851C69.579 23.0732 69.8353 23.2268 70.155 23.3456C70.4746 23.4595 70.8044 23.5165 71.1444 23.5165C71.6212 23.5165 71.9789 23.4324 72.2175 23.2639C72.4559 23.0907 72.5752 22.8678 72.5752 22.5954C72.5752 22.3874 72.5092 22.2216 72.3773 22.0977C72.2504 21.9739 72.0931 21.8799 71.9055 21.8155C71.7177 21.7462 71.4564 21.6719 71.1215 21.5926C70.7206 21.4936 70.401 21.3995 70.1626 21.3104C69.924 21.2162 69.7185 21.0751 69.5461 20.887C69.3786 20.6988 69.2949 20.4437 69.2949 20.1219C69.2949 19.8595 69.3659 19.6218 69.508 19.4088C69.65 19.1909 69.8682 19.0175 70.1626 18.8888C70.4567 18.7601 70.822 18.6957 71.2585 18.6957C71.563 18.6957 71.8598 18.7378 72.149 18.822C72.4432 18.9013 72.697 19.0127 72.9101 19.1562L72.7198 19.5945C72.4964 19.4509 72.258 19.3443 72.0044 19.2751C71.7506 19.2008 71.5021 19.1636 71.2585 19.1636C70.7916 19.1636 70.439 19.2528 70.2006 19.4311C69.9672 19.6043 69.8505 19.8298 69.8505 20.107C69.8505 20.315 69.9139 20.4834 70.0408 20.6121C70.1726 20.736 70.3349 20.8325 70.5279 20.9018C70.7258 20.9663 70.9895 21.0379 71.3194 21.1172C71.7101 21.2114 72.0246 21.3053 72.2632 21.3995C72.5067 21.4886 72.7122 21.6273 72.8797 21.8155C73.0471 21.9988 73.1308 22.2487 73.1308 22.5657C73.1308 22.8281 73.0572 23.0684 72.9101 23.2862C72.768 23.4992 72.5473 23.6701 72.248 23.7988C71.9485 23.9226 71.5807 23.9845 71.1444 23.9845Z"
    fill="#186AB4"
  />
<path
    d="M24.8534 16.5976C24.8534 19.0714 24.8542 21.5449 24.8496 24.0189C24.8496 24.1134 24.884 24.2011 24.8323 24.3123C24.6761 24.6512 24.3475 24.7247 24.0308 24.5034C23.8097 24.3489 23.5883 24.1927 23.3596 24.0471C23.1007 23.8825 22.856 23.696 22.6027 23.523C22.443 23.4138 22.2651 23.3253 22.1193 23.2013C21.909 23.0225 21.6518 22.9142 21.442 22.7349C21.3075 22.6193 21.1391 22.5422 20.9906 22.441C20.7977 22.3096 20.6113 22.1685 20.4188 22.0363C20.2099 21.893 19.9898 21.7642 19.7873 21.6126C19.5702 21.4501 19.2996 21.3392 19.1762 21.0785C19.1084 20.9353 19.0449 20.7938 19.0449 20.6233C19.0502 17.0553 19.0446 13.4875 19.054 9.91943C19.0554 9.45252 18.8494 9.14139 18.4658 8.89828C18.1684 8.70976 17.8926 8.48975 17.5935 8.30459C17.1279 8.01612 16.691 7.68864 16.2353 7.38631C15.8848 7.15371 15.5413 6.91102 15.19 6.67882C14.8542 6.45714 14.5149 6.23837 14.1904 6.00366C13.8731 5.774 13.5486 5.55314 13.2253 5.33313C12.9409 5.13956 12.6621 4.93508 12.3652 4.75705C12.1058 4.6017 11.8649 4.41737 11.6155 4.24607C11.3897 4.09155 11.1645 3.93703 10.9379 3.78377C10.7329 3.64481 10.5287 3.50372 10.3233 3.36517C10.0587 3.18672 9.79415 3.00659 9.53648 2.81765C9.24342 2.60267 9.26112 2.27601 9.53216 2.08244C10.0199 1.73478 10.5205 1.40476 11.0156 1.06676C11.306 0.86816 11.5935 0.664939 11.8874 0.471376C12.139 0.305945 12.6958 0.344574 12.9444 0.521761C13.1589 0.674596 13.3872 0.807697 13.6043 0.957174C13.8593 1.13268 14.1067 1.31911 14.3617 1.49461C14.5784 1.64367 14.8037 1.78139 15.0216 1.92877C15.2357 2.07321 15.4446 2.22521 15.6578 2.37089C15.9254 2.55396 16.1951 2.73368 16.4636 2.9159C16.6726 3.05781 16.8802 3.20141 17.0898 3.3429C17.2526 3.4525 17.4186 3.55746 17.5805 3.66832C17.8533 3.85516 18.1213 4.04873 18.3958 4.23346C18.6086 4.37622 18.8248 4.51646 19.0321 4.66467C19.2478 4.81877 19.4736 4.96028 19.685 5.12066C19.8826 5.27057 20.0997 5.39652 20.3065 5.53593C20.5223 5.6812 20.7355 5.83068 20.951 5.97722C21.1619 6.12081 21.3743 6.26357 21.5858 6.40632C21.7834 6.53985 21.9815 6.67336 22.1788 6.80772C22.4731 7.00801 22.767 7.20871 23.0601 7.41025C23.2556 7.54462 23.4486 7.68274 23.6449 7.81627C23.8543 7.95903 24.0692 8.09338 24.2758 8.23992C24.4823 8.38605 24.7032 8.52461 24.7869 8.77905C24.8275 8.90207 24.8564 9.02929 24.8529 9.16072C24.8516 9.20312 24.8526 9.24511 24.8526 9.28751C24.8534 11.7236 24.8534 14.1606 24.8534 16.5976Z"
    fill="#186AB4"
  />
<path
    d="M15.0159 17.9386C15.0159 20.024 15.0116 22.1094 15.0201 24.1949C15.0214 24.5492 14.6682 24.6762 14.4409 24.6147C14.2245 24.5563 14.0613 24.4074 13.8896 24.2825C13.6771 24.1281 13.4566 23.9869 13.2424 23.8351C12.9143 23.6024 12.5832 23.3738 12.2483 23.1503C12.0052 22.988 11.7681 22.8168 11.522 22.6579C11.2122 22.457 10.9211 22.2282 10.618 22.0167C10.3902 21.8579 10.1548 21.7098 9.9253 21.5533C9.66223 21.3734 9.40765 21.1801 9.32138 20.8569C9.298 20.7696 9.25168 20.6731 9.29461 20.5705C9.3116 20.5297 9.29928 20.4764 9.29928 20.429C9.29928 17.7682 9.29928 15.1071 9.2997 12.4463C9.2997 12.0295 9.09613 11.7384 8.74807 11.5166C8.41317 11.3031 8.094 11.0654 7.76718 10.8393C7.48456 10.6439 7.19939 10.4519 6.91762 10.2552C6.64647 10.0665 6.3851 9.86267 6.10588 9.68612C5.64859 9.39719 5.22658 9.0596 4.77183 8.76732C4.49389 8.58867 4.24017 8.37271 3.95753 8.20245C3.60777 7.99152 3.29965 7.72439 2.9503 7.51304C2.78371 7.41239 2.60182 7.2912 2.59034 7.06349C2.57802 6.81818 2.73611 6.68397 2.92778 6.5565C3.1526 6.40679 3.38124 6.26211 3.58992 6.08682C3.7629 5.94131 3.96604 5.8306 4.15431 5.70228C4.44076 5.50685 4.7272 5.31102 5.01152 5.11224C5.28309 4.9227 5.58569 4.86399 5.89635 4.96254C6.06296 5.01538 6.20746 5.13825 6.3579 5.23596C6.60015 5.39281 6.8492 5.54251 7.07699 5.71822C7.29374 5.88554 7.52153 6.03609 7.74423 6.1946C8.02684 6.39546 8.31287 6.59173 8.59633 6.79133C8.87811 6.98969 9.15988 7.18888 9.44633 7.37801C9.90787 7.68288 10.3507 8.01374 10.8127 8.31777C11.08 8.4939 11.338 8.68848 11.6027 8.86797C11.8165 9.01265 12.0358 9.15522 12.2483 9.30199C12.4383 9.43325 12.6265 9.5708 12.817 9.70248C13.0532 9.86644 13.2997 10.0191 13.5305 10.1885C13.9049 10.4632 14.3104 10.6955 14.6652 10.9945C14.9003 11.1924 15.0193 11.4449 15.0184 11.7611C15.0137 13.8201 15.0159 15.8795 15.0159 17.9386Z"
    fill="#186AB4"
  />
<path
    d="M5.69516 19.3002C5.69516 20.9075 5.69388 22.5152 5.69685 24.1226C5.69728 24.2981 5.66763 24.4618 5.50801 24.5552C5.29844 24.678 5.08418 24.6399 4.88985 24.5059C4.66374 24.3502 4.42199 24.2123 4.20818 24.0449C3.90671 23.8093 3.57815 23.6119 3.27034 23.3862C3.10902 23.268 2.92062 23.1656 2.75972 23.0482C2.55903 22.9024 2.34099 22.78 2.14664 22.623C1.90064 22.4243 1.60807 22.2814 1.35657 22.0888C1.15885 21.9371 0.942066 21.8144 0.743913 21.6631C0.574553 21.5338 0.381061 21.4351 0.228637 21.283C0.069861 21.1248 0.00211699 20.9269 0.00211699 20.7128C-1.21588e-08 17.4507 0.0008468 14.1889 0 10.9271C0 10.737 0.074095 10.5767 0.250229 10.5126C0.402654 10.4573 0.559734 10.4569 0.731212 10.5631C1.06993 10.7725 1.38663 11.0114 1.71349 11.2349C2.09879 11.4981 2.48494 11.7613 2.86897 12.0262C3.19879 12.2534 3.52608 12.4873 3.86733 12.7001C4.13874 12.8695 4.38431 13.0786 4.65612 13.2472C4.889 13.3918 5.10494 13.5591 5.3378 13.7042C5.48177 13.7934 5.56898 13.9517 5.63334 14.1157C5.7159 14.3265 5.69473 14.5426 5.69516 14.7583C5.69601 16.2722 5.69516 17.7861 5.69516 19.3002Z"
    fill="#186AB4"
  />
</svg>
