<svg viewBox="0 0 94 21" fill="none" xmlns="http://www.w3.org/2000/svg">
<path
    d="M9.97406 1.65937C9.97406 1.20139 9.97827 0.7432 9.97258 0.285324C9.97827 0.743306 9.97437 1.2015 9.97374 1.65937C9.97374 1.7789 9.96995 1.89853 9.97437 2.01742C9.96995 1.89842 9.97374 1.77879 9.97406 1.65937Z"
    fill="#464B4E"
  />
<path
    d="M9.07017 1.64928C9.0709 2.00795 9.06395 2.36673 9.07301 2.7252C9.06395 2.36716 9.0708 2.00795 9.07048 1.64928C9.07048 1.20098 9.06543 0.752584 9.07217 0.304291C9.06543 0.752584 9.07017 1.20098 9.07017 1.64928Z"
    fill="#464B4E"
  />
<path
    d="M4.0061 3.13263C4.09096 3.266 4.14412 3.41705 4.1615 3.57417C4.17888 3.7313 4.16001 3.89031 4.10636 4.03901C4.38279 4.31839 4.65596 4.60103 4.94681 4.8643C4.95347 4.87027 4.9605 4.87579 4.96788 4.88083C5.2637 4.72605 5.60025 4.66683 5.93115 4.71134C6.26204 4.75585 6.57098 4.9019 6.81539 5.12936C6.95913 5.10409 7.09098 5.02637 7.22988 4.91264C7.29117 4.86251 7.36583 4.82923 7.42996 4.78248C7.7581 4.54427 8.13984 4.37662 8.43817 4.10314C8.40398 3.88013 8.44366 3.65206 8.55116 3.4537C8.65865 3.25534 8.82807 3.09758 9.03358 3.00447C9.06111 2.91391 9.07437 2.81962 9.07286 2.72498C9.0638 2.36694 9.07065 2.00774 9.07002 1.64906C9.07002 1.20077 9.06538 0.752367 9.07202 0.304073C9.07518 0.0910366 8.99367 -0.0100584 8.77284 0.000788244C8.26579 0.0258514 7.75768 0.0345919 7.25104 0.0712388C7.13457 0.0795581 6.99883 0.146955 6.91469 0.230253C5.94144 1.19339 4.97641 2.16549 4.0061 3.13263Z"
    fill="#464B4E"
  />
<path
    d="M9.99308 3.06196C10.1453 3.15385 10.2712 3.28351 10.3585 3.43836C10.4459 3.59321 10.4918 3.76801 10.4917 3.94581C10.4917 3.96687 10.491 3.98793 10.4897 4.00899C10.5338 4.07365 10.5822 4.13252 10.6423 4.17432C11.1078 4.49814 11.5872 4.80332 12.0759 5.0905C12.1286 5.12114 12.2023 5.1382 12.2769 5.14062C12.5048 4.97272 12.7728 4.86769 13.0542 4.83606C13.3355 4.80444 13.6201 4.84733 13.8797 4.96044C13.9656 4.94222 14.0505 4.90442 14.1042 4.85577C14.3964 4.59081 14.6699 4.30533 14.9477 4.02447C14.8929 3.8811 14.8707 3.72735 14.8828 3.57435C14.8948 3.42135 14.9407 3.27295 15.0172 3.13989C14.0579 2.17517 13.1037 1.20539 12.1402 0.24499C12.0496 0.154637 11.9032 0.0817641 11.7773 0.0720758C11.2718 0.0335333 10.7636 0.02553 10.2567 0.00109866C10.0509 -0.00880023 9.97012 0.0836596 9.97233 0.285428C9.97802 0.74341 9.97412 1.2016 9.9738 1.65948C9.9738 1.779 9.9697 1.89863 9.9738 2.01752C9.98728 2.3643 9.93379 2.72403 9.99308 3.06196Z"
    fill="#464B4E"
  />
<path
    d="M18.6065 3.96034C18.0357 3.96297 17.4603 3.91969 16.8951 3.9715C16.8519 4.10539 16.7819 4.22905 16.6892 4.33491C16.5966 4.44077 16.4833 4.52659 16.3563 4.58713C16.2293 4.64766 16.0913 4.68164 15.9507 4.68696C15.8101 4.69228 15.67 4.66885 15.5388 4.61809C15.2342 4.89526 14.9581 5.2097 14.6776 5.5132C14.6523 5.5422 14.6325 5.57552 14.6191 5.61156C14.7935 5.90367 14.8712 6.24345 14.8409 6.58233C14.8106 6.92122 14.674 7.24186 14.4506 7.49845C14.4555 7.50667 14.4606 7.51499 14.466 7.52341C14.7842 8.0172 15.0912 8.51825 15.4065 9.01404L15.4113 9.02151C15.4595 9.0146 15.5082 9.01108 15.5569 9.01098C15.707 9.01074 15.8554 9.04338 15.9916 9.1066C16.0007 9.09786 16.0101 9.08881 16.0196 9.07943C16.7885 8.3128 17.5545 7.54328 18.3177 6.77089C18.418 6.66884 18.5178 6.53068 18.5419 6.39557C18.6734 5.67127 18.7811 4.94233 18.897 4.21571C18.9086 3.99614 18.7809 3.9595 18.6065 3.96034Z"
    fill="#464B4E"
  />
<path
    d="M1.32999 3.97294C1.45204 3.97294 1.57409 3.97557 1.69603 3.97294C1.57409 3.97515 1.45204 3.97231 1.32999 3.97241C1.05113 3.97241 0.771858 3.98294 0.49353 3.96936C0.771647 3.98379 1.05113 3.97294 1.32999 3.97294Z"
    fill="#464B4E"
  />
<path
    d="M2.99968 9.06228C3.02411 9.08661 3.04781 9.10819 3.07077 9.12715C3.1749 9.09295 3.28382 9.07557 3.39343 9.07565C3.43846 9.07565 3.48345 9.07857 3.52811 9.08439C3.55283 9.05355 3.57586 9.02138 3.59709 8.98804C3.90438 8.511 4.21767 8.0368 4.49831 7.54428C4.51983 7.50448 4.53497 7.46155 4.54317 7.41706C4.30612 7.16577 4.15596 6.84504 4.11478 6.50204C4.07361 6.15905 4.1436 5.81189 4.31445 5.51163L4.3116 5.50805C4.06939 5.23131 3.79317 4.98468 3.53928 4.71825C3.52053 4.69856 3.50158 4.67939 3.48262 4.66043C3.35119 4.70726 3.21164 4.72699 3.07238 4.71843C2.93312 4.70987 2.79703 4.6732 2.67233 4.61063C2.54762 4.54805 2.43688 4.46087 2.34678 4.35434C2.25668 4.24781 2.18908 4.12414 2.14806 3.99079C2.01536 3.97416 1.88156 3.96803 1.74789 3.97246C1.73048 3.97302 1.71293 3.97344 1.69524 3.97373C1.5733 3.97594 1.45124 3.97309 1.32919 3.97373C1.05034 3.97373 0.771064 3.98426 0.492736 3.97057C0.240736 3.95793 0.143537 4.06018 0.179552 4.30576C0.279278 4.98489 0.367842 5.6658 0.482732 6.3424C0.507585 6.48889 0.597517 6.6459 0.702824 6.75384C1.46198 7.52964 2.22999 8.2968 2.99968 9.06228Z"
    fill="#464B4E"
  />
<path
    d="M11.6881 14.3645L11.6912 14.3623C11.6056 14.1338 11.5729 13.8889 11.5954 13.6459C11.618 13.403 11.6953 13.1683 11.8215 12.9594L11.8101 12.948C11.4661 12.6027 11.1191 12.2602 10.7792 11.9108C10.717 11.8467 10.656 11.8067 10.5897 11.792C10.2631 11.9972 9.88554 12.1068 9.49982 12.1085C9.1141 12.1103 8.73561 12.004 8.40719 11.8017C8.33895 11.8227 8.27608 11.868 8.21111 11.936C7.92267 12.2383 7.62929 12.5363 7.32653 12.8236C7.28232 12.8646 7.24069 12.9083 7.20184 12.9545C7.33582 13.1628 7.4201 13.3992 7.44817 13.6454C7.47623 13.8915 7.44733 14.1408 7.3637 14.374C7.36686 14.3765 7.36991 14.3794 7.37318 14.3817C7.69963 14.6239 8.07737 14.801 8.39182 15.0566C8.5358 15.1745 8.69705 15.2695 8.86991 15.3383C9.05267 15.2007 9.27597 15.1278 9.50471 15.1309C9.73345 15.134 9.95467 15.213 10.1336 15.3556C10.6534 15.0277 11.1716 14.6974 11.6881 14.3645Z"
    fill="#464B4E"
  />
<path
    d="M13.8548 12.1329C14.1001 11.7466 14.3427 11.3585 14.5901 10.9734C14.6482 10.8828 14.7111 10.7944 14.7619 10.7021C14.6159 10.526 14.5325 10.3064 14.5249 10.0778C14.5172 9.84917 14.5858 9.6245 14.7197 9.43907C14.7182 9.43612 14.7167 9.43307 14.715 9.43012C14.4377 8.94749 14.1179 8.48951 13.8325 8.01121C13.82 7.99014 13.8074 7.97045 13.7946 7.95213C13.5602 8.03877 13.3088 8.06985 13.0603 8.04291C12.8118 8.01598 12.5729 7.93177 12.3624 7.79691C12.3596 7.79922 12.3566 7.80133 12.354 7.80365C11.9905 8.12757 11.6605 8.48888 11.3121 8.83018C11.2807 8.85988 11.2534 8.89367 11.231 8.93064C11.4422 9.26106 11.5551 9.64477 11.5563 10.0369C11.5576 10.4291 11.4472 10.8135 11.2381 11.1453C11.2496 11.2218 11.2779 11.2973 11.3175 11.342C11.6141 11.6766 11.9502 11.976 12.2542 12.3046C12.2896 12.3435 12.3275 12.3802 12.3675 12.4144C12.5744 12.2896 12.8067 12.2128 13.0473 12.1896C13.2879 12.1664 13.5306 12.1974 13.7576 12.2804C13.7857 12.2417 13.8164 12.1933 13.8548 12.1329Z"
    fill="#464B4E"
  />
<path
    d="M8.87206 4.85419C8.36659 5.15095 7.87585 5.47477 7.38238 5.79259C7.34732 5.81512 7.30488 5.84092 7.26876 5.86904C7.32804 6.07872 7.34435 6.29822 7.31669 6.51436C7.28904 6.7305 7.21801 6.93882 7.10785 7.12683C7.1333 7.15966 7.16096 7.19073 7.19062 7.21982C7.53919 7.57491 7.89544 7.92264 8.24211 8.27952C8.26515 8.3036 8.29044 8.32543 8.31762 8.34471C8.66536 8.10451 9.07843 7.97677 9.50106 7.97875C9.9237 7.98073 10.3355 8.11232 10.681 8.35577C10.7274 8.32716 10.7694 8.29217 10.806 8.25183C11.0997 7.94075 11.4001 7.63494 11.7133 7.34366C11.7533 7.30714 11.7909 7.2681 11.8259 7.22677C11.7101 7.01936 11.6414 6.78896 11.6247 6.55197C11.6081 6.31498 11.6439 6.07724 11.7296 5.85567C11.6839 5.81726 11.6349 5.78294 11.5832 5.7531C11.2329 5.54448 10.8916 5.3206 10.5492 5.09914C10.3823 4.9912 10.2204 4.86915 10.0437 4.79691C9.87995 4.90914 9.68732 4.9718 9.48886 4.97741C9.29041 4.98301 9.09455 4.93131 8.92472 4.8285C8.90652 4.83567 8.88891 4.84426 8.87206 4.85419Z"
    fill="#464B4E"
  />
<path
    d="M7.70114 11.3407C7.73347 11.305 7.7579 11.2484 7.77191 11.1872C7.54712 10.849 7.42699 10.4521 7.42652 10.0461C7.42605 9.64005 7.54527 9.24288 7.76928 8.90422C7.74984 8.87611 7.72758 8.85007 7.70283 8.8265C7.353 8.48699 7.02254 8.12663 6.66134 7.80081C6.62037 7.76385 6.56446 7.73763 6.50338 7.71951C6.1338 7.92552 5.69819 7.97845 5.29003 7.86694C5.24999 7.91338 5.21442 7.96348 5.18377 8.01658C4.93198 8.43381 4.66724 8.84325 4.40229 9.25237C4.3451 9.34061 4.28592 9.42728 4.24011 9.51711C4.35912 9.68718 4.42411 9.88916 4.42661 10.0967C4.4291 10.3043 4.369 10.5078 4.25412 10.6806C4.25633 10.685 4.25854 10.6893 4.26096 10.6934C4.56477 11.2069 4.89576 11.7043 5.20799 12.2128C5.23017 12.2496 5.25588 12.2842 5.28476 12.3161C5.50306 12.2352 5.73625 12.2024 5.96838 12.22C6.20052 12.2376 6.42611 12.3051 6.62975 12.4179C7.0019 12.0745 7.36163 11.716 7.70114 11.3407Z"
    fill="#464B4E"
  />
<path
    d="M12.8053 15.3595C12.5711 15.3002 12.3533 15.1889 12.1681 15.0339C12.1348 15.0447 12.103 15.0595 12.0733 15.0778C11.6754 15.3229 11.2859 15.5814 10.8885 15.8273C10.7605 15.9065 10.6295 15.9812 10.5199 16.0744C10.5224 16.1038 10.5238 16.1333 10.5238 16.1634C10.5239 16.3495 10.4736 16.5322 10.3783 16.6922C10.283 16.8521 10.1462 16.9832 9.98242 17.0717C9.95894 17.1311 9.94562 17.194 9.94303 17.2578C9.92766 18.3119 9.93461 19.3664 9.93598 20.4208C9.93598 20.5162 9.94777 20.6117 9.95767 20.761C10.0619 20.7141 10.1137 20.7039 10.1478 20.6737C10.9952 19.9225 11.845 19.1741 12.6803 18.4096C12.774 18.3237 12.8226 18.1463 12.8248 18.0094C12.8377 17.1741 12.834 16.3384 12.8302 15.5031C12.8298 15.4542 12.8214 15.4057 12.8053 15.3595Z"
    fill="#464B4E"
  />
<path
    d="M8.4583 16.1634C8.45828 16.1282 8.46004 16.0931 8.46356 16.0581C8.44993 16.0458 8.43551 16.0344 8.42039 16.0241C7.96083 15.7095 7.48463 15.4192 7.01548 15.1184C6.97631 15.0934 6.9385 15.0688 6.90049 15.0483C6.70272 15.2196 6.46614 15.3402 6.21125 15.3994C6.19904 15.4499 6.19383 15.5019 6.19577 15.5539C6.21483 16.3496 6.21009 17.1462 6.1983 17.9422C6.19461 18.1927 6.27106 18.3868 6.45388 18.5484C7.22859 19.2331 8.00341 19.9176 8.77833 20.6019C8.84214 20.6581 8.92144 20.6966 9.06266 20.7883C9.07245 20.5901 9.08309 20.4743 9.08372 20.3586C9.08509 19.4032 9.08056 18.4477 9.08667 17.4923C9.08751 17.3597 9.09025 17.229 9.07056 17.106C8.88837 17.0248 8.7336 16.8926 8.62494 16.7253C8.51629 16.558 8.45841 16.3628 8.4583 16.1634Z"
    fill="#464B4E"
  />
<path
    d="M0.378608 3.10411C0.946215 3.0941 1.51593 3.12517 2.08164 3.09358C2.15821 3.08931 2.23447 3.08066 2.31005 3.06767C2.40616 2.93961 2.53078 2.8357 2.67403 2.76418C2.81729 2.69265 2.97523 2.65548 3.13534 2.65561C3.1609 2.65561 3.18621 2.65652 3.21127 2.65834C3.24335 2.63188 3.27463 2.60432 3.3051 2.57568C4.02203 1.89908 4.70442 1.18562 5.39987 0.48659C5.46579 0.41972 5.52403 0.345057 5.6148 0.240908C5.51529 0.221848 5.46906 0.201839 5.42525 0.206367C3.68905 0.384653 1.97117 0.667929 0.282779 1.11643C0.0747965 1.17161 -0.00965992 1.29914 0.000870814 1.50923C0.0219323 1.93678 0.046153 2.36443 0.0525768 2.79229C0.0561572 3.02302 0.149565 3.10779 0.378608 3.10411Z"
    fill="#464B4E"
  />
<path
    d="M18.6243 1.08779C17.1066 0.812095 15.5902 0.529661 14.0721 0.255862C13.872 0.219846 13.6658 0.221637 13.3929 0.20047C13.4619 0.307883 13.4778 0.345478 13.5046 0.372332C14.259 1.13054 14.9922 1.91182 15.7816 2.63128C15.8251 2.62579 15.8688 2.62305 15.9126 2.62306C16.0804 2.62295 16.2457 2.66377 16.3941 2.74199C16.5425 2.8202 16.6696 2.93344 16.7644 3.07188C16.7885 3.07547 16.8125 3.07859 16.8363 3.08126C17.4365 3.14834 18.0498 3.09674 18.6576 3.10232C18.8518 3.10421 18.9548 3.03966 18.9601 2.83073C18.9707 2.41277 18.9838 1.99427 19.0159 1.57757C19.0386 1.27787 18.9047 1.13886 18.6243 1.08779Z"
    fill="#464B4E"
  />
<path
    d="M4.2008 13.4057C4.23274 13.4035 4.26415 13.3964 4.29389 13.3846C4.35617 13.1665 4.46383 12.9641 4.60982 12.7906C4.60431 12.7748 4.59726 12.7596 4.58876 12.7452C4.25967 12.1986 3.91584 11.6605 3.56801 11.1258C3.38601 11.1567 3.19904 11.1386 3.02642 11.0731C2.91784 11.1751 2.81401 11.2826 2.71049 11.3898C2.0737 12.0475 2.11224 11.8158 2.46123 12.6921C2.67901 13.2389 2.95986 13.5902 3.51546 13.4082C3.80379 13.4079 4.00293 13.417 4.2008 13.4057Z"
    fill="#464B4E"
  />
<path
    d="M15.2745 13.4075C15.3204 13.4088 15.3663 13.4102 15.4121 13.4102C15.4514 13.4102 15.4907 13.4092 15.5301 13.408C15.4907 13.4092 15.4513 13.4102 15.4121 13.4102C15.3663 13.4102 15.3204 13.4087 15.2745 13.4075Z"
    fill="#464B4E"
  />
<path
    d="M16.6769 11.7603C16.4532 11.5474 16.2422 11.3213 16.0218 11.105C15.9886 11.072 15.9536 11.0409 15.9171 11.0116C15.802 11.0544 15.6801 11.0763 15.5572 11.0762C15.5307 11.0762 15.5045 11.0752 15.4786 11.0732C15.4568 11.1016 15.4345 11.1338 15.4113 11.1702C15.1165 11.6323 14.8284 12.0981 14.534 12.5603C14.4933 12.6243 14.454 12.6845 14.4276 12.747C14.5889 12.9351 14.7047 13.158 14.7657 13.3983C14.8314 13.4182 14.9063 13.4234 14.9939 13.4132C15.0457 13.4077 15.0978 13.4051 15.15 13.4055C15.1761 13.4055 15.2026 13.4055 15.2285 13.4065L15.2744 13.4078C15.3203 13.4091 15.3663 13.4105 15.4121 13.4105C15.4513 13.4105 15.4906 13.4095 15.53 13.4083L15.5694 13.4071C15.6564 13.4029 15.7436 13.405 15.8302 13.4134C16.0985 13.4449 16.2578 13.3396 16.358 13.0874C16.4757 12.7919 16.6243 12.5082 16.7593 12.22C16.8398 12.0473 16.8222 11.8986 16.6769 11.7603Z"
    fill="#464B4E"
  />
<path
    d="M14.744 14.2702C14.6691 14.5125 14.5383 14.7337 14.3621 14.9161C14.1859 15.0985 13.9693 15.237 13.7297 15.3202C13.6929 15.3839 13.6665 15.4503 13.663 15.5143C13.638 15.9604 13.6519 16.4094 13.6555 16.8566C13.6562 16.9493 13.6765 17.0418 13.6884 17.1344L13.7693 17.1584C14.4935 16.2793 15.1383 15.3466 15.7198 14.2633C15.3387 14.2632 15.0397 14.2536 14.744 14.2702Z"
    fill="#464B4E"
  />
<path
    d="M5.34343 15.3611C5.09299 15.2788 4.86646 15.1366 4.6836 14.9467C4.50073 14.7568 4.36707 14.5251 4.29425 14.2717C4.28736 14.2699 4.28031 14.2687 4.27319 14.2681C3.97949 14.2509 3.6841 14.2608 3.28699 14.2608C3.88956 15.3426 4.52298 16.2815 5.28098 17.2061C5.32637 17.0895 5.35206 17.0541 5.35238 17.0182C5.35649 16.4812 5.36481 15.9441 5.35122 15.4083C5.35066 15.3923 5.34804 15.3765 5.34343 15.3611Z"
    fill="#464B4E"
  />
<path
    d="M17.9334 8.3501C17.4684 8.81345 17.0028 9.27585 16.5465 9.74742C16.6115 9.96544 16.6029 10.1988 16.5222 10.4115C16.6679 10.6713 16.9684 10.8174 17.1505 11.0513L17.2649 11.0416L18.1376 8.3283L18.0533 8.28491C18.0127 8.30629 17.9642 8.31935 17.9334 8.3501Z"
    fill="#464B4E"
  />
<path
    d="M2.42259 10.4599C2.3387 10.2275 2.34068 9.97266 2.42817 9.74153C1.99567 9.25595 1.51747 8.81072 1.05433 8.35242C1.04043 8.33862 1.00346 8.3481 0.905212 8.34283L1.75252 10.9895L1.88278 11.0127C2.06138 10.8276 2.27168 10.6611 2.42259 10.4599Z"
    fill="#464B4E"
  />
<path
    d="M33.8935 4.45723L30.2913 12.7957L26.7391 4.45723H23.8206L28.8571 16.1311H31.5254L36.5785 4.45723H33.8935ZM49.2198 16.1311H52.0549L46.835 4.45723H44.1667L38.9635 16.1311H41.7319L42.7658 13.6296H48.1858L49.2198 16.1311ZM43.633 11.5783L45.4842 7.10887L47.3353 11.5783H43.633ZM61.5437 16.3312C64.8624 16.3312 66.8303 14.4301 66.8303 10.9946V4.45723H64.162V10.8945C64.162 13.1126 63.2114 14.0298 61.5604 14.0298C59.926 14.0298 58.9587 13.1126 58.9587 10.8945V4.45723H56.2571V10.9946C56.2571 14.4301 58.225 16.3312 61.5437 16.3312ZM72.8354 16.1311H81.3907V13.9298H75.5371V4.45723H72.8354V16.1311ZM87.5627 16.1311H90.2644V6.65859H94V4.45723H83.827V6.65859H87.5627V16.1311Z"
    fill="#464B4E"
  />
</svg>
