<?xml version="1.0" standalone="no"?>
<!DOCTYPE svg PUBLIC "-//W3C//DTD SVG 1.1//EN" "http://www.w3.org/Graphics/SVG/1.1/DTD/svg11.dtd" >
<svg xmlns="http://www.w3.org/2000/svg">
<metadata>Generated by IcoMoon</metadata>
<defs>
<font id="icomoon" horiz-adv-x="1024">
<font-face units-per-em="1024" ascent="960" descent="-64" />
<missing-glyph horiz-adv-x="1024" />
<glyph unicode="&#x20;" horiz-adv-x="512" d="" />
<glyph unicode="&#xe900;" glyph-name="broker" horiz-adv-x="829" d="M828.445 650.598c-0.639-6.962-3.092-13.635-7.119-19.352-5.266-7.578-12.883-13.203-21.68-16.003-4.623-1.506-9.396-2.52-14.234-3.024-4.51-0.471-9.045-0.673-13.585-0.605h-312.149c-4.124 0.075-8.24 0.385-12.328 0.93l-5.303 0.558c-0.286-0.002-0.562 0.101-0.777 0.29s-0.352 0.45-0.386 0.734c-0.419 1.814-0.977 3.582-1.349 5.396-0.332 1.529-0.503 3.088-0.512 4.652 0 16.282 0 32.564 0 48.799 0 94.25 0 188.484 0 282.703 0 3.675-0.512 3.117 3.21 3.303s8.094 0.419 12.142 0.558c4.047 0.14 7.629 0 11.397 0h308.942c4.452 0.145 8.909 0.037 13.351-0.326 7.139-0.544 14.043-2.803 20.129-6.585 6.081-3.782 11.162-8.976 14.809-15.14 2.462-4.301 4.174-8.988 5.071-13.863 0.137-0.879 0.229-1.764 0.278-2.652 0.419-0.605 0-1.396 0.419-2v-266.235c-0.468-0.745 0.093-1.536-0.327-2.14zM828.436 211.866c-0.161-2.185-0.644-4.335-1.443-6.373-2.409-6.685-6.334-12.727-11.464-17.642-5.135-4.915-11.337-8.572-18.125-10.689-2.648-0.766-5.383-1.214-8.138-1.351-14.234-0.741-28.472-0.741-42.754-0.741h-239.436c-13.351 0-26.704 0-40.102 0-5.815 0-11.677 0-17.492 0.556-2.326 0-4.652 0-7.025 0.278h-1.674c-0.162 0.010-0.315 0.078-0.434 0.185-0.119 0.112-0.196 0.258-0.217 0.419-0.023 0.405-0.023 0.809 0 1.209 0 4.281-0.418 8.563-0.512 12.839-0.791 30.613-0.977 61.221-1.024 91.785 0 20.334 0 40.663 0 60.991 0 26.951 0.093 53.916 0.279 80.896 0 15.448 0.326 30.939 0.512 46.524 0 6.386 0.108 12.775 0.326 19.164 0 9.304 0.418 18.608 0.93 27.912v0.233c0 3.024 0 2.791 3.024 3.21 1.349 0 2.745 0.326 4.094 0.605 2.151 0.364 4.331 0.535 6.513 0.512h327.268c5.11 0.101 10.211-0.478 15.165-1.721 7.797-2.205 14.843-6.493 20.382-12.402 5.544-5.91 9.367-13.218 11.069-21.139 0-0.93 0.229-1.907 0.371-2.884s0-1.721 0.419-2.465v-267.213c-0.419-0.463 0-1.068-0.234-1.629-0.015-0.371-0.112-0.736-0.278-1.068zM0 955.765c2.426 1.071 4.911 2.003 7.443 2.791 0.726 0.090 1.46 0.090 2.186 0 22.004 0.698 44.055 0.884 66.059 1.117 31.587 0.372 63.174 0.326 94.715 0.326 19.042 0 38.069 0 57.081 0 15.863 0 31.726-0.326 47.59-0.512l15.072-0.233c15.956-0.372 31.913-0.698 47.823-1.117 6.466 0 12.933-0.605 19.399-0.93 1.628 0 3.21-0.326 4.652-0.419 0.358 0 0.708-0.106 1.006-0.305s0.531-0.481 0.669-0.812c1.197-2.298 1.819-4.852 1.814-7.443 0-32.781 0-65.578 0-98.39 0-42.674 0-85.349 0-128.023 0-94.498 0-188.996 0-283.494 0-106.223 0-212.46 0-318.713 0-3.906 0.558-2.74-2.512-5.208l-107.136-87.084c-11.397-9.309-22.934-18.237-34.332-27.448-9.862-8.002-19.632-16.145-29.447-24.191-9.816-8.051-19.213-15.028-29.261-22.050l-2.559-1.677-0.791 0.375c-3.303 1.765-3.675 2.233-3.908 5.998 0 2.745-0.326 5.491-0.372 8.236 0 10.050 0 20.095 0 30.096 0 31.978 0 63.966 0 95.973 0 37.742 0 75.474 0 113.186 0 35.479 0 70.944 0 106.389 0 36.596 0 73.192 0 109.787 0 35.635 0 71.302 0 106.998 0 17.988 0 35.96 0 53.917s0 35.526 0 52.707c0 17.647 0 35.293 0 52.94 0 17.088 0 34.146 0 51.172 0 24.532 0 49.063 0 73.595-0.034 1.56-0.189 3.116-0.465 4.652-0.156 1.034-0.706 1.968-1.536 2.605-1.628 1.349-3.163 2.791-4.652 4.187l-132.443 116.347c-4.931 4.326-9.769 8.746-14.654 13.165-0.419 0.372-1.070 0.698-1.442 1.489z" />
<glyph unicode="&#xe901;" glyph-name="deposit" d="M977.457 443.698v143.923c0 48.803-37.856 88.492-85.682 92.341l-133.659 233.454c-12.385 21.591-32.385 37.023-56.32 43.431-23.816 6.364-48.726 3.022-70.047-9.386l-458.186-266.749h-80.472c-51.34 0-93.091-41.749-93.091-93.092v-558.545c0-51.34 41.749-93.092 93.091-93.092h791.273c51.34 0 93.092 41.752 93.092 93.092v143.926c27.028 9.636 46.543 35.226 46.543 65.531v139.636c0 30.3-19.515 55.89-46.543 65.529zM837.686 680.713h-202.844l152.134 88.573 50.71-88.573zM763.855 809.677l-221.518-128.965h-91.884l290.427 169.090 22.975-40.126zM655.182 907.235c10.52 6.159 22.819 7.796 34.568 4.658 11.889-3.181 21.795-10.863 27.955-21.613l0.049-0.085-359.803-209.482h-91.878l389.11 226.522zM930.908 29.076c0-25.659-20.884-46.543-46.543-46.543h-791.273c-25.658 0-46.544 20.884-46.544 46.543v558.545c0 25.658 20.886 46.545 46.544 46.545h791.273c25.659 0 46.543-20.887 46.543-46.545v-139.636h-139.636c-76.999 0-139.636-62.638-139.636-139.637s62.636-139.636 139.636-139.636h139.636v-139.636zM977.457 238.533c0-12.843-10.434-23.277-23.277-23.277h-162.908c-51.34 0-93.092 41.752-93.092 93.092s41.752 93.092 93.092 93.092h162.908c12.843 0 23.277-10.434 23.277-23.272v-139.636z" />
<glyph unicode="&#xe902;" glyph-name="funds" horiz-adv-x="986" d="M0.222-46.104c1.568 8.513 33.067 186.128 69.994 394.702s72.228 395.478 78.442 415.343c24.178 77.284 90.333 148.425 169.070 181.812l33.621 14.255h634.625v-263.129l-211.536-3.562c-338.161-5.695-332.671-5.434-356.003-16.863-11.351-5.559-33.565-22.972-49.364-38.697-26.342-26.217-39.963-50.748-164.142-295.597-169.402-334.008-208.285-407.776-204.692-388.255zM18.56-46.899c0 2.35 37.547 63.858 83.439 136.682 45.89 72.826 116.316 184.647 156.501 248.501 115.758 183.925 128.379 202.38 155.793 227.824 52.709 48.931 48.174 47.981 237.72 49.819l166.511 1.614-2.81-194.132-159.945-2.767c-87.97-1.522-160.998-3.263-162.283-3.87-2.159-1.018-75.704-73.418-365.285-359.596-60.302-59.594-109.64-106.431-109.64-104.079zM24.016-57.553c4.42 3.457 107.317 87.549 228.655 186.868 121.345 99.321 229.973 187.554 241.404 196.060 20.308 15.134 22.311 15.516 90.053 17.17l69.283 1.692-2.81-194.286-175.424-5.883-225.314-104.119c-123.922-57.265-227.247-104.045-229.594-103.955-2.358 0.090-0.671 2.992 3.749 6.449z" />
<glyph unicode="&#xe903;" glyph-name="logout" horiz-adv-x="791" d="M769.294 585.187h-65.941v83.293c0 160.746-138.040 291.521-307.717 291.521-169.679 0-307.717-130.775-307.717-291.521v-83.293h-65.939c-12.149 0-21.98-9.314-21.98-20.824v-520.573c0-45.936 39.43-83.293 87.92-83.293h615.433c48.491 0 87.92 37.357 87.92 83.293v520.573c0 11.51-9.83 20.824-21.979 20.824zM461.448 150.202c0.686-5.874-1.308-11.771-5.473-16.189-4.164-4.413-10.132-6.935-16.378-6.935h-87.92c-6.245 0-12.213 2.523-16.377 6.935s-6.161 10.31-5.473 16.189l13.866 118.123c-22.516 15.518-35.974 40.062-35.974 66.984 0 45.94 39.43 83.293 87.92 83.293s87.918-37.353 87.918-83.293c0-26.922-13.456-51.465-35.972-66.984l13.864-118.123zM571.476 585.187h-351.677v83.293c0 91.852 78.882 166.583 175.838 166.583 96.954 0 175.839-74.731 175.839-166.583v-83.293z" />
<glyph unicode="&#xe904;" glyph-name="withdraw" d="M994.002 580.001c16.564 0 29.998 13.432 29.998 30v120c0 12.126-7.3 23.062-18.5 27.708l-482.002 200c-7.363 3.054-15.633 3.054-22.996 0l-482-200c-11.202-4.646-18.502-15.582-18.502-27.708v-120c0-16.568 13.432-30 30-30h52v-340h-10c-16.568 0-30-13.434-30-29.998v-90h-12c-16.568 0-30-13.434-30-30.003v-123.997c0-16.569 13.432-30.003 30-30.003h964.002c16.564 0 29.998 13.434 29.998 30.003v123.997c0 16.569-13.434 30.003-29.998 30.003h-12v90c0 16.564-13.434 29.998-30.003 29.998h-9.996v340h52zM963.998 60.002v-64h-903.998v64h903.998zM242 180v-59.997h-140v59.997h140zM142 240.001v340h60v-340h-60zM272 240.001h-10v340h500.002v-340h-10.001c-16.569 0-30.003-13.434-30.003-29.998v-90h-419.998v90c0 16.564-13.432 29.998-30 29.998zM922 180v-59.997h-140v59.997h140zM821.999 240.001v340h60.002v-340h-60.002zM60 640.001v69.968l452 187.552 451.998-187.55v-69.97h-903.998zM692 759.988h-360c-16.568 0-30-13.432-30-30s13.432-30 30-30h360c16.569 0 29.998 13.432 29.998 30s-13.429 30-29.998 30zM512 259.974c-16.54 0-30 13.458-30 30.003 0 16.569-13.432 29.998-30 29.998s-30-13.429-30-29.998c0-39.112 25.082-72.455 60-84.841v-15.16c0-16.569 13.43-29.998 30-29.998s29.998 13.429 29.998 29.998v15.16c34.918 12.386 60.002 45.729 60.002 84.841 0 49.625-40.375 90-90 90-16.54 0-30 13.458-30 29.998 0 16.545 13.46 29.998 30 29.998s29.998-13.453 29.998-29.998c0-16.569 13.434-29.998 30.003-29.998 16.564 0 29.998 13.429 29.998 29.998 0 39.112-25.083 72.457-60.002 84.841v15.16c0 16.568-13.429 30-29.998 30s-30-13.432-30-30v-15.16c-34.918-12.384-60-45.729-60-84.841 0-49.625 40.374-90 90-90 16.54 0 29.998-13.458 29.998-29.998 0-16.545-13.458-30.003-29.998-30.003z" />
</font></defs></svg>