<svg viewBox="0 0 40 39" fill="none" xmlns="http://www.w3.org/2000/svg">
	<path d="M19.8788 0.140961C13.8007 0.140961 8.85572 5.08599 8.85572 11.1641C8.85572 14.9289 10.7534 18.2584 13.642 20.2478C10.9451 21.1785 8.47318 22.7158 6.39649 24.7925C2.79511 28.394 0.811768 33.182 0.811768 38.2751H3.79099C3.79099 29.4042 11.0079 22.1872 19.8788 22.1872C25.957 22.1872 30.9019 17.2422 30.9019 11.1641C30.9019 5.08591 25.957 0.140961 19.8788 0.140961ZM19.8788 19.208C15.4434 19.208 11.8349 15.5995 11.8349 11.1641C11.8349 6.72873 15.4434 3.12018 19.8788 3.12018C24.3142 3.12018 27.9227 6.72866 27.9227 11.1641C27.9227 15.5996 24.3142 19.208 19.8788 19.208Z" fill="#D6D6D6" />
	<path d="M32.764 29.0394V22.783H29.7847V29.0394H23.5283V32.0187H29.7847V38.275H32.764V32.0187H39.0203V29.0394H32.764Z" fill="#D6D6D6" />
</svg>
