<svg viewBox="0 0 29 28" fill="none" xmlns="http://www.w3.org/2000/svg">
	<path d="M14.0022 28C21.7342 28 28.0022 21.732 28.0022 14C28.0022 6.26801 21.7342 0 14.0022 0C6.27019 0 0.00217438 6.26801 0.00217438 14C0.00217438 21.732 6.27019 28 14.0022 28Z" fill="#27273D" />
	<path d="M27.1348 9.13937H0.868935C2.84589 3.80297 7.97885 0 14.0021 0C20.0254 0 25.1584 3.80297 27.1348 9.13937Z" fill="#E88032" />
	<path d="M27.1348 18.8601H0.868917C-0.289537 15.7234 -0.289537 12.2761 0.868917 9.13937H27.1348C27.3296 9.66513 27.4924 10.2022 27.622 10.7477C28.261 13.4409 28.0915 16.2627 27.1348 18.8601Z" fill="white" />
	<path d="M14.0021 28C11.1416 28.0001 8.34966 27.1242 6.00176 25.4902C3.65386 23.8562 1.86262 21.5425 0.868935 18.8601H27.1348C26.9314 19.4108 26.693 19.9481 26.4211 20.4684C25.2379 22.7396 23.4544 24.6427 21.2647 25.9707C19.075 27.2986 16.563 28.0005 14.0021 28Z" fill="#00B564" />
	<path d="M14.0021 18.3673C16.4142 18.3673 18.3695 16.412 18.3695 14C18.3695 11.588 16.4142 9.63263 14.0021 9.63263C11.5901 9.63263 9.6348 11.588 9.6348 14C9.6348 16.412 11.5901 18.3673 14.0021 18.3673Z" fill="#3E436D" />
	<path d="M17.4397 13.6445L17.2358 13.5992C17.2358 13.5827 17.2319 13.5663 17.2297 13.5505L17.4146 13.4531C17.4459 13.437 17.4707 13.4106 17.485 13.3784C17.4992 13.3461 17.502 13.31 17.4928 13.276L17.3872 12.8811C17.3781 12.8471 17.3576 12.8171 17.3292 12.7963C17.3008 12.7754 17.2661 12.7648 17.2308 12.7663L17.0225 12.775C17.0165 12.7597 17.0105 12.7444 17.0039 12.7291L17.157 12.5885C17.1831 12.5648 17.2002 12.5329 17.2056 12.498C17.2109 12.4632 17.2042 12.4276 17.1865 12.3971L16.982 12.0428C16.9644 12.0122 16.937 11.9886 16.9041 11.9759C16.8713 11.9632 16.8351 11.9621 16.8015 11.9727L16.6025 12.0351C16.5926 12.022 16.5822 12.0094 16.5724 11.9968L16.6845 11.8202C16.7034 11.7904 16.7116 11.755 16.7077 11.7199C16.7039 11.6848 16.6882 11.6521 16.6632 11.6271L16.3744 11.3384C16.3495 11.3134 16.3167 11.2977 16.2817 11.2938C16.2466 11.2899 16.2112 11.2981 16.1814 11.317L16.0047 11.4297L15.9665 11.3996L16.0288 11.2006C16.0395 11.167 16.0384 11.1308 16.0257 11.098C16.0129 11.0651 15.9893 11.0377 15.9588 11.0201L15.6044 10.8156C15.574 10.7979 15.5383 10.7912 15.5035 10.7965C15.4687 10.8019 15.4368 10.819 15.413 10.8451L15.2725 10.9982L15.2265 10.9796L15.2353 10.7713C15.2368 10.736 15.2262 10.7013 15.2053 10.6729C15.1844 10.6445 15.1545 10.624 15.1205 10.6149L14.7256 10.5093C14.6917 10.5003 14.6556 10.5031 14.6235 10.5173C14.5914 10.5316 14.5651 10.5563 14.549 10.5875L14.4516 10.7735L14.403 10.7674L14.3576 10.5635C14.3501 10.529 14.331 10.4982 14.3035 10.4761C14.2761 10.454 14.2419 10.442 14.2066 10.442H13.7976C13.7623 10.442 13.7281 10.454 13.7007 10.4761C13.6732 10.4982 13.6541 10.529 13.6466 10.5635L13.6012 10.7674L13.5526 10.7735L13.4552 10.5875C13.4391 10.5562 13.4127 10.5314 13.3804 10.5171C13.3482 10.5029 13.3121 10.5001 13.278 10.5093L12.8832 10.6149C12.8491 10.624 12.8192 10.6445 12.7983 10.6729C12.7775 10.7013 12.7669 10.736 12.7683 10.7713L12.7771 10.9796L12.7312 10.9982L12.5906 10.8451C12.5669 10.819 12.5349 10.8019 12.5001 10.7965C12.4653 10.7912 12.4297 10.7979 12.3992 10.8156L12.0448 11.0201C12.0143 11.0377 11.9907 11.0651 11.978 11.098C11.9653 11.1308 11.9641 11.167 11.9748 11.2006L12.0372 11.3996L11.9989 11.4297L11.8228 11.3203C11.793 11.3014 11.7576 11.2932 11.7225 11.2971C11.6874 11.301 11.6547 11.3167 11.6297 11.3417L11.341 11.6304C11.316 11.6554 11.3003 11.6881 11.2964 11.7232C11.2926 11.7583 11.3008 11.7936 11.3197 11.8235L11.4318 12.0001C11.4219 12.0127 11.4115 12.0253 11.4017 12.0384L11.2026 11.976C11.1691 11.9653 11.1329 11.9665 11.1001 11.9792C11.0672 11.9919 11.0397 12.0155 11.0222 12.046L10.8176 12.4004C10.8 12.4309 10.7932 12.4665 10.7986 12.5013C10.804 12.5361 10.8211 12.5681 10.8472 12.5918L11.0003 12.7324C10.9937 12.7477 10.9877 12.763 10.9817 12.7783L10.7733 12.7695C10.7381 12.7681 10.7034 12.7787 10.675 12.7995C10.6466 12.8204 10.6261 12.8503 10.6169 12.8844L10.5114 13.2792C10.503 13.3128 10.5062 13.3482 10.5204 13.3797C10.5346 13.4113 10.5589 13.4371 10.5896 13.4531L10.7744 13.5499C10.7744 13.5658 10.7706 13.5822 10.7684 13.5986L10.5644 13.644C10.53 13.6515 10.4992 13.6706 10.4771 13.698C10.455 13.7255 10.443 13.7597 10.443 13.7949V14.204C10.443 14.2392 10.455 14.2734 10.4771 14.3009C10.4992 14.3284 10.53 14.3474 10.5644 14.3549L10.7684 14.4003C10.7684 14.4167 10.7723 14.4331 10.7744 14.449L10.5896 14.5469C10.5583 14.563 10.5334 14.5894 10.5192 14.6217C10.505 14.6539 10.5022 14.6901 10.5114 14.7241L10.6169 15.1189C10.6261 15.153 10.6466 15.1829 10.675 15.2038C10.7034 15.2246 10.7381 15.2352 10.7733 15.2338L10.9817 15.225C10.9877 15.2403 10.9937 15.2556 11.0003 15.271L10.8472 15.4115C10.8211 15.4352 10.804 15.4672 10.7986 15.502C10.7932 15.5368 10.8 15.5724 10.8176 15.6029L11.0222 15.9573C11.0397 15.9878 11.0672 16.0114 11.1001 16.0241C11.1329 16.0369 11.1691 16.038 11.2026 16.0273L11.4017 15.9649C11.4115 15.9781 11.4219 15.9906 11.4318 16.0032L11.3224 16.1793C11.3035 16.2091 11.2953 16.2445 11.2992 16.2796C11.303 16.3147 11.3188 16.3474 11.3437 16.3724L11.6325 16.6611C11.6574 16.6861 11.6902 16.7018 11.7253 16.7057C11.7604 16.7095 11.7957 16.7014 11.8255 16.6824L12.0022 16.5703L12.0405 16.6004L11.9781 16.7995C11.9674 16.833 11.9685 16.8692 11.9813 16.9021C11.994 16.9349 12.0176 16.9624 12.0481 16.9799L12.4025 17.1845C12.433 17.2022 12.4686 17.2089 12.5034 17.2035C12.5382 17.1981 12.5702 17.181 12.5939 17.1549L12.7344 17.0018L12.7804 17.0204L12.7716 17.2288C12.7702 17.264 12.7807 17.2987 12.8016 17.3271C12.8225 17.3555 12.8524 17.376 12.8865 17.3852L13.2813 17.4907C13.3149 17.4991 13.3503 17.4959 13.3818 17.4817C13.4133 17.4675 13.4392 17.4432 13.4552 17.4125L13.552 17.2277L13.6007 17.2337L13.6461 17.4377C13.6536 17.4721 13.6726 17.5029 13.7001 17.525C13.7276 17.5471 13.7618 17.5591 13.797 17.5591H14.2061C14.2413 17.5591 14.2755 17.5471 14.303 17.525C14.3304 17.5029 14.3495 17.4721 14.357 17.4377L14.4024 17.2337L14.4511 17.2277L14.549 17.4125C14.5651 17.4438 14.5915 17.4687 14.6238 17.4829C14.656 17.4971 14.6921 17.4999 14.7262 17.4907L15.121 17.3852C15.1551 17.376 15.185 17.3555 15.2059 17.3271C15.2267 17.2987 15.2373 17.264 15.2358 17.2288L15.2271 17.0204L15.273 17.0018L15.4136 17.1549C15.4373 17.181 15.4692 17.1981 15.5041 17.2035C15.5389 17.2089 15.5745 17.2022 15.605 17.1845L15.9594 16.9799C15.9899 16.9624 16.0135 16.9349 16.0262 16.9021C16.0389 16.8692 16.04 16.833 16.0294 16.7995L15.967 16.6004L16.0053 16.5703L16.1819 16.6824C16.2117 16.7014 16.2471 16.7095 16.2822 16.7057C16.3173 16.7018 16.35 16.6861 16.375 16.6611L16.6637 16.3724C16.6887 16.3474 16.7044 16.3147 16.7083 16.2796C16.7122 16.2445 16.704 16.2091 16.6851 16.1793L16.5724 16.0027C16.5822 15.9901 16.5926 15.9775 16.6025 15.9644L16.8015 16.0267C16.8351 16.0374 16.8713 16.0363 16.9041 16.0236C16.937 16.0108 16.9644 15.9873 16.982 15.9567L17.1865 15.6024C17.2042 15.5719 17.2109 15.5363 17.2056 15.5014C17.2002 15.4666 17.1831 15.4347 17.157 15.411L17.0039 15.2704C17.0105 15.2551 17.0165 15.2398 17.0225 15.2245L17.2308 15.2332C17.2661 15.2347 17.3008 15.2241 17.3292 15.2032C17.3576 15.1824 17.3781 15.1524 17.3872 15.1184L17.4928 14.7235C17.5018 14.6896 17.499 14.6536 17.4848 14.6214C17.4706 14.5893 17.4458 14.563 17.4146 14.5469L17.2287 14.4495C17.2287 14.4337 17.2325 14.4173 17.2347 14.4009L17.4387 14.3555C17.4731 14.348 17.5039 14.3289 17.526 14.3015C17.5481 14.274 17.5601 14.2398 17.5601 14.2045V13.7955C17.5602 13.7604 17.5483 13.7263 17.5264 13.6989C17.5046 13.6714 17.474 13.6523 17.4397 13.6445Z" fill="white" />
	<path d="M14.6737 14C14.6748 14.0128 14.6748 14.0256 14.6737 14.0383C14.6727 14.0735 14.6683 14.1084 14.6605 14.1428C14.6498 14.1925 14.6333 14.2407 14.6113 14.2866C14.5933 14.325 14.5717 14.3616 14.5468 14.396C14.5169 14.4363 14.4824 14.473 14.444 14.5053C14.4194 14.5273 14.3928 14.5471 14.3647 14.5644C14.3219 14.5919 14.276 14.6141 14.228 14.6306C14.1803 14.6484 14.1304 14.66 14.0798 14.665C14.0297 14.6716 13.9789 14.6716 13.9288 14.665C13.889 14.661 13.8496 14.6532 13.8112 14.6415C13.7626 14.6274 13.7159 14.6072 13.6723 14.5813C13.6395 14.563 13.6084 14.5418 13.5794 14.5179C13.5398 14.486 13.5043 14.4493 13.4738 14.4085C13.4461 14.3748 13.4223 14.3381 13.4027 14.2992C13.3799 14.2537 13.3628 14.2056 13.3519 14.1559C13.3421 14.1176 13.3364 14.0783 13.3349 14.0388C13.3338 14.0261 13.3338 14.0133 13.3349 14.0006C13.3351 13.9624 13.3384 13.9244 13.3448 13.8868C13.35 13.8527 13.3586 13.8192 13.3705 13.7867C13.3859 13.7384 13.4076 13.6922 13.435 13.6495C13.4534 13.6178 13.475 13.5881 13.4995 13.5609C13.5327 13.5223 13.5704 13.4878 13.6116 13.4581C13.6901 13.4011 13.7798 13.3614 13.8747 13.3416C13.8938 13.3383 13.9119 13.3356 13.9294 13.3334C13.9469 13.3312 13.9791 13.329 14.0048 13.329C14.0305 13.329 14.0557 13.329 14.0803 13.3334C14.1105 13.3361 14.1403 13.3416 14.1694 13.3498C14.219 13.3618 14.2668 13.3801 14.3116 13.4045C14.3483 13.4228 14.383 13.445 14.415 13.4706C14.456 13.5007 14.4928 13.5363 14.5244 13.5762C14.5473 13.6023 14.5674 13.6307 14.5845 13.661C14.6106 13.7044 14.6313 13.7509 14.6463 13.7993C14.6557 13.8281 14.6629 13.8575 14.6676 13.8874C14.6727 13.9247 14.6747 13.9624 14.6737 14Z" fill="#3E436D" />
	<path d="M14.6737 14C14.6748 14.0128 14.6748 14.0256 14.6737 14.0383C14.6727 14.0735 14.6683 14.1084 14.6605 14.1428C14.6498 14.1925 14.6333 14.2407 14.6113 14.2866C14.5933 14.325 14.5717 14.3616 14.5468 14.396C14.5169 14.4363 14.4824 14.473 14.444 14.5053C14.4194 14.5273 14.3928 14.5471 14.3647 14.5644C14.3219 14.5919 14.276 14.6141 14.228 14.6306C14.1803 14.6484 14.1304 14.66 14.0798 14.665C14.0297 14.6716 13.9789 14.6716 13.9288 14.665C13.889 14.661 13.8496 14.6532 13.8112 14.6415C13.7626 14.6274 13.7159 14.6072 13.6723 14.5813C13.6395 14.563 13.6084 14.5418 13.5794 14.5179C13.5398 14.486 13.5043 14.4493 13.4738 14.4085C13.4461 14.3748 13.4223 14.3381 13.4027 14.2992C13.3799 14.2537 13.3628 14.2056 13.3519 14.1559C13.3421 14.1176 13.3364 14.0783 13.3349 14.0388C13.3338 14.0261 13.3338 14.0133 13.3349 14.0006C13.3351 13.9624 13.3384 13.9244 13.3448 13.8868C13.35 13.8527 13.3586 13.8192 13.3705 13.7867C13.3859 13.7384 13.4076 13.6922 13.435 13.6495C13.4534 13.6178 13.475 13.5881 13.4995 13.5609C13.5327 13.5223 13.5704 13.4878 13.6116 13.4581C13.6901 13.4011 13.7798 13.3614 13.8747 13.3416C13.8938 13.3383 13.9119 13.3356 13.9294 13.3334C13.9469 13.3312 13.9791 13.329 14.0048 13.329C14.0305 13.329 14.0557 13.329 14.0803 13.3334C14.1105 13.3361 14.1403 13.3416 14.1694 13.3498C14.219 13.3618 14.2668 13.3801 14.3116 13.4045C14.3483 13.4228 14.383 13.445 14.415 13.4706C14.456 13.5007 14.4928 13.5363 14.5244 13.5762C14.5473 13.6023 14.5674 13.6307 14.5845 13.661C14.6106 13.7044 14.6313 13.7509 14.6463 13.7993C14.6557 13.8281 14.6629 13.8575 14.6676 13.8874C14.6727 13.9247 14.6747 13.9624 14.6737 14Z" fill="#3E436D" />
	<path d="M13.0724 14.0383H11.1972C11.177 14.0383 11.1577 14.0303 11.1434 14.016C11.1292 14.0017 11.1212 13.9824 11.1212 13.9622C11.1212 13.9421 11.1292 13.9228 11.1434 13.9085C11.1577 13.8942 11.177 13.8862 11.1972 13.8862H13.0768C13.0731 13.924 13.0717 13.962 13.0724 14V14.0383Z" fill="#3E436D" />
	<path d="M13.1578 14.3965L11.428 15.0937C11.4191 15.0972 11.4097 15.0991 11.4001 15.0992C11.3824 15.0992 11.3653 15.0931 11.3517 15.0819C11.338 15.0707 11.3287 15.055 11.3254 15.0377C11.322 15.0203 11.3248 15.0024 11.3332 14.9868C11.3417 14.9713 11.3553 14.9592 11.3717 14.9526L13.1053 14.2548C13.119 14.3034 13.1365 14.3507 13.1578 14.3965Z" fill="#3E436D" />
	<path d="M11.3646 12.8975C11.3723 12.8789 11.387 12.8642 11.4055 12.8563C11.424 12.8484 11.4448 12.8481 11.4635 12.8554L13.1862 13.5494C13.1613 13.5936 13.1402 13.6399 13.1233 13.6877L11.4072 12.9965C11.3885 12.9889 11.3735 12.9743 11.3655 12.9557C11.3575 12.9372 11.3572 12.9163 11.3646 12.8975Z" fill="#3E436D" />
	<path d="M13.3918 14.7049L12.0585 16.0371C12.0514 16.0444 12.0429 16.0502 12.0335 16.0542C12.0241 16.0581 12.014 16.0601 12.0039 16.0601C11.9888 16.0601 11.974 16.0556 11.9615 16.0473C11.9489 16.0389 11.9391 16.0271 11.9333 16.0132C11.9274 15.9993 11.9258 15.984 11.9286 15.9692C11.9315 15.9543 11.9386 15.9407 11.9492 15.9299L13.283 14.5961C13.3161 14.6354 13.3525 14.6718 13.3918 14.7049Z" fill="#3E436D" />
	<path d="M11.9787 12.0427C11.9712 12.0357 11.9652 12.0272 11.9611 12.0178C11.9571 12.0084 11.9549 11.9983 11.9549 11.988C11.9549 11.9778 11.9571 11.9676 11.9611 11.9582C11.9652 11.9488 11.9712 11.9403 11.9787 11.9333C11.9929 11.9193 12.012 11.9115 12.032 11.9115C12.0519 11.9115 12.0711 11.9193 12.0853 11.9333L13.4208 13.2688C13.3816 13.3005 13.345 13.3352 13.3114 13.3727L11.9787 12.0427Z" fill="#3E436D" />
	<path d="M13.5717 14.8269C13.6163 14.8509 13.6629 14.8707 13.7112 14.8859L13.0243 16.5911C13.0185 16.6052 13.0086 16.6172 12.996 16.6256C12.9833 16.6341 12.9684 16.6386 12.9532 16.6387C12.9435 16.6384 12.9339 16.6365 12.9248 16.6332C12.9062 16.6253 12.8915 16.6105 12.8837 16.5919C12.8759 16.5733 12.8758 16.5524 12.8832 16.5337L13.5717 14.8269Z" fill="#3E436D" />
	<path d="M12.9187 11.387C12.914 11.3777 12.9113 11.3674 12.9108 11.3569C12.9103 11.3464 12.912 11.336 12.9158 11.3262C12.9195 11.3164 12.9253 11.3075 12.9327 11.3C12.9401 11.2926 12.949 11.2868 12.9588 11.283C12.9685 11.2791 12.979 11.2774 12.9895 11.2779C13 11.2783 13.0102 11.281 13.0196 11.2856C13.0291 11.2902 13.0374 11.2968 13.0441 11.3049C13.0509 11.3129 13.0558 11.3223 13.0587 11.3324L13.7697 13.0982C13.7205 13.1105 13.6726 13.1272 13.6264 13.148L12.9187 11.387Z" fill="#3E436D" />
	<path d="M14.0021 13.0703C13.9764 13.0703 13.9512 13.0703 13.9266 13.0731V11.1951C13.9266 11.1751 13.9346 11.1559 13.9487 11.1417C13.9629 11.1276 13.9821 11.1196 14.0021 11.1196C14.0221 11.1196 14.0413 11.1276 14.0555 11.1417C14.0696 11.1559 14.0776 11.1751 14.0776 11.1951V13.0703C14.053 13.0703 14.0278 13.0703 14.0021 13.0703Z" fill="#3E436D" />
	<path d="M14.0021 14.9324C14.0278 14.9324 14.053 14.9324 14.0776 14.9297V16.8049C14.0776 16.8249 14.0696 16.8441 14.0555 16.8583C14.0413 16.8724 14.0221 16.8804 14.0021 16.8804C13.9821 16.8804 13.9629 16.8724 13.9487 16.8583C13.9346 16.8441 13.9266 16.8249 13.9266 16.8049V14.9297C13.9512 14.9297 13.9764 14.9324 14.0021 14.9324Z" fill="#3E436D" />
	<path d="M14.4068 13.1594C14.3611 13.1375 14.3138 13.1192 14.2652 13.1048L14.9799 11.3307C14.9828 11.3205 14.9878 11.311 14.9945 11.3028C15.0013 11.2946 15.0096 11.288 15.0191 11.2832C15.0286 11.2785 15.039 11.2758 15.0496 11.2753C15.0601 11.2748 15.0707 11.2765 15.0806 11.2803C15.0905 11.2841 15.0995 11.29 15.107 11.2975C15.1144 11.305 15.1203 11.314 15.1241 11.3239C15.1279 11.3338 15.1296 11.3444 15.1291 11.355C15.1285 11.3655 15.1258 11.3759 15.121 11.3854L14.4068 13.1594Z" fill="#3E436D" />
	<path d="M15.156 16.5336C15.1599 16.5429 15.1618 16.5529 15.1618 16.563C15.1617 16.573 15.1597 16.5829 15.1558 16.5922C15.1518 16.6015 15.1461 16.6098 15.1389 16.6169C15.1318 16.6239 15.1233 16.6295 15.1139 16.6332C15.1048 16.6367 15.0952 16.6385 15.0855 16.6386C15.0704 16.6385 15.0557 16.634 15.0433 16.6255C15.0308 16.617 15.0211 16.605 15.0155 16.5911L14.3242 14.875C14.3718 14.8579 14.4177 14.8366 14.4615 14.8115L15.156 16.5336Z" fill="#3E436D" />
	<path d="M14.5987 13.2831L15.9189 11.9629C15.9334 11.9488 15.9529 11.941 15.9732 11.9412C15.9934 11.9415 16.0128 11.9498 16.0269 11.9643C16.0411 11.9788 16.0489 11.9983 16.0486 12.0186C16.0483 12.0388 16.04 12.0581 16.0255 12.0723L14.7065 13.3919C14.6737 13.3526 14.6377 13.3162 14.5987 13.2831Z" fill="#3E436D" />
	<path d="M16.0529 15.9031C16.0674 15.9176 16.0756 15.9373 16.0756 15.9578C16.0756 15.9783 16.0674 15.998 16.0529 16.0125C16.0384 16.027 16.0187 16.0352 15.9982 16.0352C15.9777 16.0352 15.958 16.027 15.9435 16.0125L14.625 14.694C14.6625 14.6604 14.6972 14.6238 14.7289 14.5846L16.0529 15.9031Z" fill="#3E436D" />
	<path d="M14.8224 13.5625L16.5724 12.8565C16.5906 12.8514 16.61 12.8532 16.6269 12.8617C16.6438 12.8701 16.657 12.8846 16.6638 12.9022C16.6706 12.9198 16.6706 12.9393 16.6639 12.957C16.6571 12.9746 16.644 12.9891 16.6271 12.9975L14.8771 13.7019C14.8632 13.6538 14.8449 13.6072 14.8224 13.5625Z" fill="#3E436D" />
	<path d="M16.7097 15.0516C16.7039 15.0655 16.6942 15.0774 16.6818 15.0859C16.6694 15.0943 16.6547 15.099 16.6397 15.0992C16.6298 15.099 16.62 15.0971 16.6107 15.0937L14.8519 14.3828C14.8725 14.3366 14.8895 14.2889 14.9028 14.2401L16.6681 14.951C16.6775 14.9548 16.686 14.9605 16.6932 14.9676C16.7003 14.9748 16.706 14.9833 16.7099 14.9926C16.7138 15.002 16.7157 15.012 16.7157 15.0221C16.7157 15.0323 16.7136 15.0423 16.7097 15.0516Z" fill="#3E436D" />
	<path d="M16.8836 13.9617C16.8836 13.982 16.8755 14.0015 16.8612 14.0159C16.8468 14.0302 16.8273 14.0383 16.807 14.0383H14.9318C14.9318 14.0257 14.9318 14.0126 14.9318 14C14.9316 13.962 14.9293 13.924 14.9247 13.8863H16.8043C16.8145 13.8858 16.8247 13.8874 16.8343 13.891C16.8438 13.8946 16.8526 13.9001 16.86 13.9071C16.8674 13.9142 16.8733 13.9226 16.8773 13.932C16.8814 13.9414 16.8835 13.9515 16.8836 13.9617Z" fill="#3E436D" />
</svg>
