<svg viewBox="0 0 17 17" fill="none" xmlns="http://www.w3.org/2000/svg">
	<path fill-rule="evenodd" clip-rule="evenodd" d="M8.50459 0C9.5814 0 10.6031 0.202617 11.5511 0.561865C10.9805 0.423933 10.3822 0.359252 9.76556 0.359252C5.47646 0.359252 2.00649 3.82938 2.00649 8.11855C2.00649 12.4077 5.47646 15.8778 9.76556 15.8778C12.0205 15.8778 14.0454 14.9201 15.4629 13.3927C13.9257 15.5739 11.3762 17 8.50459 17C3.81052 17 0 13.1994 0 8.50505C0 3.80133 3.81052 0 8.50459 0Z" fill="white" />
	<path fill-rule="evenodd" clip-rule="evenodd" d="M13.1987 3.45221L16.641 1.31699L12.4715 15.7851L9.41571 16.6134L13.1987 3.45221Z" fill="white" />
	<path fill-rule="evenodd" clip-rule="evenodd" d="M2.92691 9.74721L6.36922 7.612L4.49154 14.1198L1.87769 13.42L2.92691 9.74721Z" fill="white" />
	<path fill-rule="evenodd" clip-rule="evenodd" d="M8.06275 6.59973L11.4867 4.52841L8.00752 16.6135L5.39359 15.8864L8.06275 6.59973Z" fill="white" />
</svg>
