<svg viewBox="0 0 147 15" fill="none" xmlns="http://www.w3.org/2000/svg">
<path d="M5.23915 2.96593C5.9226 2.57345 6.60604 2.18096 7.28949 1.78848C7.93414 1.41674 8.57784 1.04352 9.22054 0.668826C9.5688 0.466781 9.91719 0.26498 10.2657 0.0634279C10.3654 0.00525913 10.4472 -0.00474442 10.5621 0.0634279C12.0325 0.917556 13.5056 1.76699 14.9815 2.61173C15.1649 2.71733 15.3449 2.82885 15.5316 2.92814C15.6265 2.97853 15.652 3.043 15.6517 3.14785C15.6476 4.34492 15.6491 5.542 15.6491 6.73913C15.6491 9.4339 15.6485 12.1288 15.6472 14.8238C15.6472 14.8809 15.6873 14.9624 15.6158 14.9939C15.5561 15.0198 15.5046 14.9568 15.4516 14.9272C14.8944 14.6046 14.3365 14.2835 13.7781 13.9639C13.0511 13.544 12.3245 13.1241 11.598 12.7042C11.2248 12.4883 10.8523 12.2715 10.4806 12.054C10.3776 11.9976 10.3965 11.8976 10.3961 11.8079C10.3943 11.1151 10.3961 10.4223 10.3961 9.72977C10.3961 8.59359 10.3961 7.45628 10.3961 6.31785C10.4006 6.24365 10.3975 6.16915 10.3869 6.09556C10.3617 6.00143 10.2813 5.96255 10.2065 5.91958C9.25546 5.37146 8.30516 4.8225 7.35543 4.27269C6.66186 3.86884 5.95826 3.48204 5.27321 3.063C5.25866 3.05194 5.24767 3.03684 5.24158 3.01958C5.23555 3.00233 5.23468 2.98367 5.23915 2.96593Z" fill="#182542"/>
<path d="M5.23929 2.96586L5.27408 3.01662C5.28438 3.09683 5.28872 3.1777 5.28707 3.25855C5.28707 5.08029 5.2889 6.90205 5.28333 8.7238C5.28333 8.90908 5.33929 9.0202 5.50232 9.11138C7.1014 10.0195 8.68862 10.9472 10.2818 11.8638C10.3318 11.8923 10.3859 11.9157 10.4141 11.9713C10.4263 11.9998 10.4352 12.028 10.4007 12.0483C9.8609 12.3562 9.31589 12.6611 8.77532 12.9723C7.82659 13.5177 6.87872 14.0648 5.93172 14.6137C5.75796 14.7141 5.57013 14.796 5.41305 14.9186C5.24815 15.0483 5.11887 14.9805 4.9803 14.9001C4.18111 14.4362 3.38454 13.9675 2.58426 13.5059C1.74655 13.0242 0.905517 12.5463 0.0648507 12.0661C0.0472209 12.0516 0.0319681 12.0345 0.0196494 12.0154C0.00889996 11.9644 0.00590188 11.9122 0.0107572 11.8605C0.0107572 7.96603 0.011622 4.07156 0.013351 0.177099C0.013351 0.119672 -0.0381489 0.0351976 0.0611452 0C0.771764 0.416073 1.4809 0.835109 2.19375 1.24748C3.15927 1.80582 4.12813 2.35898 5.09441 2.91473C5.13711 2.94472 5.1872 2.9624 5.23929 2.96586Z" fill="#182542"/>
<path d="M21.3562 10.7639H22.6389V3.85718H21.3562V10.7639ZM27.3782 5.43585C26.6086 5.43585 25.9673 5.69238 25.5627 6.17585V5.49505H24.3886V10.7639H25.6219V8.09986C25.6219 7.04412 26.2139 6.51132 27.0921 6.51132C27.8814 6.51132 28.3451 6.96519 28.3451 7.90252V10.7639H29.5785V7.74466C29.5785 6.15612 28.6411 5.43585 27.3782 5.43585ZM31.7646 4.62678C32.2284 4.62678 32.554 4.29131 32.554 3.85718C32.554 3.45264 32.2185 3.14677 31.7646 3.14677C31.3108 3.14677 30.9753 3.47238 30.9753 3.88678C30.9753 4.30118 31.3108 4.62678 31.7646 4.62678ZM31.143 10.7639H32.3764V5.49505H31.143V10.7639ZM36.817 9.59959C36.6296 9.7476 36.3829 9.81666 36.1263 9.81666C35.6527 9.81666 35.3962 9.54039 35.3962 9.02733V6.52118H36.8071V5.53452H35.3962V4.33078H34.1629V5.53452H33.2946V6.52118H34.1629V9.05693C34.1629 10.2212 34.8239 10.8329 35.9783 10.8329C36.4223 10.8329 36.8664 10.7145 37.1624 10.4777L36.817 9.59959ZM38.7985 4.62678C39.2622 4.62678 39.5878 4.29131 39.5878 3.85718C39.5878 3.45264 39.2524 3.14677 38.7985 3.14677C38.3446 3.14677 38.0092 3.47238 38.0092 3.88678C38.0092 4.30118 38.3446 4.62678 38.7985 4.62678ZM38.1769 10.7639H39.4102V5.49505H38.1769V10.7639ZM43.0418 5.43585C42.1933 5.43585 41.3744 5.65292 40.812 6.08705L41.2954 6.98492C41.6901 6.65932 42.3018 6.46198 42.8938 6.46198C43.7721 6.46198 44.2062 6.88625 44.2062 7.60652V7.68546H42.8445C41.2461 7.68546 40.6541 8.37612 40.6541 9.25426C40.6541 10.1719 41.4138 10.8329 42.6176 10.8329C43.407 10.8329 43.9793 10.5764 44.2753 10.1225V10.7639H45.4395V7.67559C45.4395 6.15612 44.5614 5.43585 43.0418 5.43585ZM42.8741 9.93506C42.2426 9.93506 41.8677 9.64893 41.8677 9.20493C41.8677 8.82013 42.0946 8.50439 42.9333 8.50439H44.2062V9.11613C43.999 9.6588 43.4761 9.93506 42.8741 9.93506ZM47.0221 10.7639H48.2554V3.44278H47.0221V10.7639ZM54.0021 9.6884V7.78412H57.337V6.72839H54.0021V4.93265H57.7613V3.85718H52.7194V10.7639H57.8994V9.6884H54.0021ZM63.8606 10.7639L61.7985 8.07026L63.7718 5.49505H62.4398L61.1473 7.22172L59.8548 5.49505H58.4833L60.4468 8.08999L58.3945 10.7639H59.7561L61.1177 8.93853L62.4694 10.7639H63.8606ZM67.0146 10.8329C68.0407 10.8329 68.8596 10.3889 69.2642 9.59959L68.317 9.04706C68.0012 9.55026 67.5276 9.7772 67.0047 9.7772C66.097 9.7772 65.4063 9.15559 65.4063 8.12946C65.4063 7.11319 66.097 6.48172 67.0047 6.48172C67.5276 6.48172 68.0012 6.70865 68.317 7.21185L69.2642 6.65932C68.8596 5.86012 68.0407 5.43585 67.0146 5.43585C65.3471 5.43585 64.1631 6.55079 64.1631 8.12946C64.1631 9.70813 65.3471 10.8329 67.0146 10.8329ZM73.2718 5.43585C72.5416 5.43585 71.92 5.67265 71.5155 6.10678V3.44278H70.2822V10.7639H71.5155V8.09986C71.5155 7.04412 72.1075 6.51132 72.9856 6.51132C73.775 6.51132 74.2387 6.96519 74.2387 7.90252V10.7639H75.472V7.74466C75.472 6.15612 74.5347 5.43585 73.2718 5.43585ZM79.0494 5.43585C78.2008 5.43585 77.3819 5.65292 76.8195 6.08705L77.303 6.98492C77.6976 6.65932 78.3094 6.46198 78.9014 6.46198C79.7795 6.46198 80.2136 6.88625 80.2136 7.60652V7.68546H78.852C77.2536 7.68546 76.6616 8.37612 76.6616 9.25426C76.6616 10.1719 77.4214 10.8329 78.6251 10.8329C79.4144 10.8329 79.9867 10.5764 80.2827 10.1225V10.7639H81.447V7.67559C81.447 6.15612 80.5688 5.43585 79.0494 5.43585ZM78.8816 9.93506C78.2502 9.93506 77.8752 9.64893 77.8752 9.20493C77.8752 8.82013 78.1022 8.50439 78.9408 8.50439H80.2136V9.11613C80.0064 9.6588 79.4835 9.93506 78.8816 9.93506ZM86.0195 5.43585C85.2499 5.43585 84.6086 5.69238 84.2041 6.17585V5.49505H83.0299V10.7639H84.2633V8.09986C84.2633 7.04412 84.8553 6.51132 85.7334 6.51132C86.5227 6.51132 86.9865 6.96519 86.9865 7.90252V10.7639H88.2198V7.74466C88.2198 6.15612 87.2825 5.43585 86.0195 5.43585ZM93.8876 5.49505V6.19558C93.4535 5.67265 92.8022 5.43585 92.0622 5.43585C90.5526 5.43585 89.3982 6.44225 89.3982 7.97159C89.3982 9.50093 90.5526 10.5271 92.0622 10.5271C92.7727 10.5271 93.3943 10.3001 93.8284 9.82653V10.1028C93.8284 11.1684 93.3153 11.7012 92.151 11.7012C91.4209 11.7012 90.671 11.4545 90.2073 11.0697L89.6548 11.9972C90.2566 12.4905 91.2334 12.7471 92.2201 12.7471C94.0652 12.7471 95.0617 11.8788 95.0617 9.96466V5.49505H93.8876ZM92.2497 9.48119C91.3124 9.48119 90.6414 8.86946 90.6414 7.97159C90.6414 7.08359 91.3124 6.48172 92.2497 6.48172C93.1772 6.48172 93.8481 7.08359 93.8481 7.97159C93.8481 8.86946 93.1772 9.48119 92.2497 9.48119ZM101.636 8.15906C101.636 6.51132 100.512 5.43585 98.9724 5.43585C97.4036 5.43585 96.2492 6.56065 96.2492 8.12946C96.2492 9.69826 97.3937 10.8329 99.1598 10.8329C100.068 10.8329 100.808 10.5369 101.281 9.97453L100.62 9.21479C100.245 9.5996 99.7814 9.78706 99.1894 9.78706C98.2718 9.78706 97.6305 9.29373 97.4825 8.52412H101.617C101.627 8.40572 101.636 8.25772 101.636 8.15906ZM98.9724 6.42252C99.7814 6.42252 100.364 6.94545 100.462 7.70519H97.4726C97.591 6.93559 98.1732 6.42252 98.9724 6.42252ZM108.893 10.8625C111.034 10.8625 112.612 9.36279 112.612 7.31052C112.612 5.25825 111.034 3.75851 108.893 3.75851C106.752 3.75851 105.173 5.26811 105.173 7.31052C105.173 9.35293 106.752 10.8625 108.893 10.8625ZM108.893 9.73773C107.501 9.73773 106.465 8.72146 106.465 7.31052C106.465 5.89958 107.501 4.88331 108.893 4.88331C110.284 4.88331 111.32 5.89958 111.32 7.31052C111.32 8.72146 110.284 9.73773 108.893 9.73773ZM115.995 4.37024C116.252 4.37024 116.488 4.45905 116.676 4.58731L117.021 3.65984C116.745 3.46251 116.33 3.37371 115.906 3.37371C114.683 3.37371 114.022 4.09398 114.022 5.19905V5.53452H113.153V6.52118H114.022V10.7639H115.255V6.52118H116.666V5.53452H115.216V5.21878C115.216 4.65638 115.482 4.37024 115.995 4.37024ZM119.637 4.37024C119.894 4.37024 120.13 4.45905 120.318 4.58731L120.663 3.65984C120.387 3.46251 119.973 3.37371 119.548 3.37371C118.325 3.37371 117.664 4.09398 117.664 5.19905V5.53452H116.795V6.52118H117.664V10.7639H118.897V6.52118H120.308V5.53452H118.858V5.21878C118.858 4.65638 119.124 4.37024 119.637 4.37024ZM126.014 8.15906C126.014 6.51132 124.889 5.43585 123.35 5.43585C121.781 5.43585 120.627 6.56065 120.627 8.12946C120.627 9.69826 121.771 10.8329 123.537 10.8329C124.445 10.8329 125.185 10.5369 125.659 9.97453L124.998 9.21479C124.623 9.5996 124.159 9.78706 123.567 9.78706C122.649 9.78706 122.008 9.29373 121.86 8.52412H125.994C126.004 8.40572 126.014 8.25772 126.014 8.15906ZM123.35 6.42252C124.159 6.42252 124.741 6.94545 124.84 7.70519H121.85C121.969 6.93559 122.551 6.42252 123.35 6.42252ZM128.373 6.26465V5.49505H127.199V10.7639H128.432V8.20839C128.432 7.13292 129.024 6.58039 129.962 6.58039C130.05 6.58039 130.139 6.59025 130.248 6.60999V5.43585C129.37 5.43585 128.728 5.71212 128.373 6.26465ZM131.916 4.62678C132.379 4.62678 132.705 4.29131 132.705 3.85718C132.705 3.45264 132.369 3.14677 131.916 3.14677C131.462 3.14677 131.126 3.47238 131.126 3.88678C131.126 4.30118 131.462 4.62678 131.916 4.62678ZM131.294 10.7639H132.527V5.49505H131.294V10.7639ZM137.135 5.43585C136.366 5.43585 135.725 5.69238 135.32 6.17585V5.49505H134.146V10.7639H135.379V8.09986C135.379 7.04412 135.971 6.51132 136.849 6.51132C137.639 6.51132 138.102 6.96519 138.102 7.90252V10.7639H139.336V7.74466C139.336 6.15612 138.398 5.43585 137.135 5.43585ZM145.004 5.49505V6.19558C144.57 5.67265 143.919 5.43585 143.179 5.43585C141.669 5.43585 140.515 6.44225 140.515 7.97159C140.515 9.50093 141.669 10.5271 143.179 10.5271C143.889 10.5271 144.511 10.3001 144.945 9.82653V10.1028C144.945 11.1684 144.432 11.7012 143.267 11.7012C142.537 11.7012 141.787 11.4545 141.324 11.0697L140.771 11.9972C141.373 12.4905 142.35 12.7471 143.336 12.7471C145.182 12.7471 146.178 11.8788 146.178 9.96466V5.49505H145.004ZM143.366 9.48119C142.429 9.48119 141.758 8.86946 141.758 7.97159C141.758 7.08359 142.429 6.48172 143.366 6.48172C144.294 6.48172 144.964 7.08359 144.964 7.97159C144.964 8.86946 144.294 9.48119 143.366 9.48119Z" fill="#182542"/>
</svg>
