<svg fill="none" version="1.1" viewBox="0 0 16 16" xmlns="http://www.w3.org/2000/svg">
	<path d="m8 0c-4.4184 0-8 3.5813-8 8 0 4.418 3.5816 8 8 8 4.4182 0 8-3.582 8-8 0-4.4187-3.5818-8-8-8zm1.5312 2.2266c0.24193 0 0.44466 0.083524 0.60352 0.24609 0.1576 0.16162 0.23828 0.3684 0.23828 0.61523 0 0.32119-0.11218 0.60799-0.33398 0.85156-0.22566 0.24793-0.48651 0.37305-0.77539 0.37305-0.2366 0-0.43698-0.085163-0.5957-0.25195-0.15663-0.16431-0.23633-0.37767-0.23633-0.63672 0-0.32787 0.10767-0.6109 0.32031-0.8418 0.2161-0.23476 0.47811-0.35547 0.7793-0.35547zm-0.65234 2.8496c0.24154 0 0.43466 0.058395 0.57227 0.17188 0.14486 0.11968 0.2207 0.2884 0.2207 0.48828 0 0.12947-0.064193 0.51885-0.62695 2.4023-0.66744 2.2417-1.0059 3.6063-1.0059 4.0547 0 0.0547 0.011226 0.096507 0.035156 0.12891 0.0092498 0.0126 0.017034 0.02139 0.021484 0.02539 0.17659-0.0347 1.0764-0.43329 1.8691-0.80859 0.07168-0.033898 0.15647-0.008859 0.20117 0.056641s0.034362 0.15263-0.023438 0.20703c-0.89274 0.8405-1.5282 1.3652-1.9453 1.6035-0.4311 0.2464-0.77969 0.36719-1.0664 0.36719-0.26905-2e-6 -0.48835-0.089772-0.65039-0.26367-0.15902-0.1705-0.24023-0.40326-0.24023-0.69336 0-0.8222 0.47348-2.7516 1.4453-5.9004 0.03964-0.13057 0.058594-0.24744 0.058594-0.3457 0-0.01397-7.931e-4 -0.02486-0.0019531-0.03125-0.00249-1.9e-4 -0.0043625 0-0.0078125 0-0.0963 0-0.21544 0.043576-0.35156 0.12891-0.16624 0.10442-1.3063 0.57145-1.5332 0.66406-0.06969 0.02838-0.15015 0.0051094-0.19336-0.056641-0.04315-0.06173-0.036918-0.14541 0.013672-0.20117 0.64639-0.71194 1.2462-1.2271 1.7852-1.5312 0.55619-0.31381 1.022-0.4668 1.4238-0.4668z" fill="#fff" />
</svg>
