<svg viewBox="0 0 283 32" fill="none" xmlns="http://www.w3.org/2000/svg">
	<path fill-rule="evenodd" clip-rule="evenodd" d="M4.95972 25.7737L14.8796 20.0463L24.7997 25.7737L14.8802 31.5004L4.95972 25.7737Z" fill="#2EB9FF" />
	<path fill-rule="evenodd" clip-rule="evenodd" d="M0 0L14.8803 8.5908L29.76 0V22.909L24.7999 25.7737V8.5908L19.8405 11.4548V17.1823L14.8803 14.3182L9.91994 17.1823V11.4548L4.95987 8.5908V25.7737L0 22.9096V5.72741V0Z" fill="#0070E8" />
	<path d="M49.8964 23.0772L49.8502 14.5156L45.6963 21.4849H43.6655L39.5347 14.7463V23.0772H35.3115V6.92314H39.0731L44.7501 16.2464L50.2887 6.92314H54.0503L54.0964 23.0772H49.8964ZM68.8452 19.9387H62.0143L60.7451 23.0772H56.0835L63.2144 6.92314H67.7144L74.8684 23.0772H70.1145L68.8452 19.9387ZM67.5067 16.5694L65.4298 11.4001L63.3528 16.5694H67.5067ZM83.9177 18.7849H81.4253V23.0772H76.856V6.92314H84.2408C85.7024 6.92314 86.9716 7.1693 88.0485 7.66162C89.1254 8.13854 89.9562 8.83086 90.5409 9.73857C91.1255 10.6309 91.4178 11.6848 91.4178 12.9002C91.4178 14.0694 91.1409 15.0925 90.587 15.9694C90.0485 16.831 89.2716 17.5079 88.2562 18.0002L91.7409 23.0772H86.8485L83.9177 18.7849ZM86.8023 12.9002C86.8023 12.1463 86.5638 11.5617 86.0869 11.1463C85.6101 10.7309 84.9023 10.5232 83.9638 10.5232H81.4253V15.254H83.9638C84.9023 15.254 85.6101 15.0541 86.0869 14.654C86.5638 14.2386 86.8023 13.654 86.8023 12.9002ZM100.862 17.2156L99.1541 19.0387V23.0772H94.631V6.92314H99.1541V13.6386L105.408 6.92314H110.439L103.839 14.0771L110.785 23.0772H105.477L100.862 17.2156ZM125.645 19.5464V23.0772H112.676V6.92314H125.345V10.454H117.199V13.1771H124.376V16.5925H117.199V19.5464H125.645ZM132.312 10.5463H127.351V6.92314H141.82V10.5463H136.882V23.0772H132.312V10.5463ZM167.845 6.92314L162.445 23.0772H160.022L155.614 10.177L151.207 23.0772H148.737L143.337 6.92314H145.714L150.076 20.0541L154.622 6.92314H156.745L161.199 20.1233L165.653 6.92314H167.845ZM181.136 19.0387H172.551L170.774 23.0772H168.397L175.712 6.92314H177.997L185.336 23.0772H182.913L181.136 19.0387ZM180.328 17.1925L176.843 9.27703L173.359 17.1925H180.328ZM190.834 8.93087H185.295V6.92314H198.657V8.93087H193.119V23.0772H190.834V8.93087ZM208.861 23.2619C207.245 23.2619 205.783 22.908 204.476 22.2003C203.184 21.4772 202.168 20.4926 201.43 19.2464C200.691 17.9849 200.322 16.5694 200.322 15.0002C200.322 13.4309 200.691 12.0232 201.43 10.777C202.168 9.51548 203.192 8.53086 204.499 7.82316C205.806 7.10007 207.268 6.73853 208.884 6.73853C210.145 6.73853 211.299 6.95391 212.345 7.38469C213.392 7.80008 214.284 8.42317 215.022 9.25395L213.522 10.7078C212.307 9.43087 210.791 8.7924 208.976 8.7924C207.776 8.7924 206.691 9.06163 205.722 9.60011C204.753 10.1386 203.991 10.8847 203.438 11.8386C202.899 12.777 202.63 13.831 202.63 15.0002C202.63 16.1694 202.899 17.231 203.438 18.1849C203.991 19.1233 204.753 19.8618 205.722 20.4003C206.691 20.9388 207.776 21.208 208.976 21.208C210.776 21.208 212.291 20.5618 213.522 19.2695L215.022 20.7234C214.284 21.5541 213.384 22.185 212.322 22.6157C211.276 23.0464 210.122 23.2619 208.861 23.2619ZM232.899 6.92314V23.0772H230.591V15.8771H221.314V23.0772H219.007V6.92314H221.314V13.8694H230.591V6.92314H232.899ZM250.149 21.0695V23.0772H238.426V6.92314H249.826V8.93087H240.734V13.8925H248.834V15.854H240.734V21.0695H250.149ZM265.379 23.0772L261.895 18.1156C261.464 18.1464 261.125 18.1618 260.879 18.1618H256.887V23.0772H254.579V6.92314H260.879C262.971 6.92314 264.618 7.42315 265.818 8.42317C267.018 9.42317 267.618 10.8001 267.618 12.554C267.618 13.8002 267.31 14.8617 266.695 15.7387C266.08 16.6156 265.203 17.254 264.064 17.6541L267.895 23.0772H265.379ZM260.81 16.2002C262.272 16.2002 263.387 15.8849 264.156 15.254C264.926 14.6232 265.31 13.7232 265.31 12.554C265.31 11.3847 264.926 10.4924 264.156 9.87703C263.387 9.24625 262.272 8.93087 260.81 8.93087H256.887V16.2002H260.81ZM276.746 23.2619C275.531 23.2619 274.354 23.0772 273.215 22.708C272.092 22.3234 271.207 21.8311 270.561 21.2311L271.415 19.431C272.031 19.9849 272.816 20.4387 273.769 20.7926C274.738 21.131 275.731 21.3003 276.746 21.3003C278.084 21.3003 279.085 21.0772 279.746 20.631C280.408 20.1695 280.738 19.5618 280.738 18.8079C280.738 18.2541 280.554 17.8079 280.184 17.4695C279.831 17.1156 279.385 16.8464 278.846 16.6618C278.323 16.4771 277.577 16.2694 276.607 16.0387C275.392 15.7464 274.408 15.454 273.654 15.1617C272.915 14.8695 272.277 14.4233 271.738 13.8232C271.215 13.2079 270.954 12.3847 270.954 11.354C270.954 10.4924 271.177 9.71549 271.623 9.02318C272.084 8.33086 272.777 7.777 273.7 7.36161C274.623 6.94622 275.77 6.73853 277.138 6.73853C278.092 6.73853 279.031 6.8616 279.954 7.10776C280.877 7.35392 281.669 7.70777 282.331 8.16932L281.569 10.0155C280.893 9.58471 280.169 9.26163 279.4 9.04625C278.631 8.81548 277.877 8.70009 277.138 8.70009C275.831 8.70009 274.847 8.93855 274.184 9.41549C273.538 9.89242 273.215 10.5078 273.215 11.2617C273.215 11.8155 273.4 12.2693 273.769 12.6232C274.138 12.9617 274.593 13.231 275.131 13.4309C275.684 13.6156 276.431 13.8155 277.369 14.0309C278.585 14.3232 279.561 14.6156 280.3 14.9079C281.038 15.2002 281.669 15.6464 282.192 16.2464C282.731 16.8464 283 17.6541 283 18.6695C283 19.5156 282.769 20.2926 282.308 21.0003C281.846 21.6926 281.147 22.2465 280.208 22.6618C279.269 23.0619 278.116 23.2619 276.746 23.2619Z" fill="#2E2D2D" />
</svg>
