<svg viewBox="0 0 23 24" fill="none" xmlns="http://www.w3.org/2000/svg">
	<path fill-rule="evenodd" clip-rule="evenodd" d="M3.77905 19.6368L11.3369 15.2731L18.895 19.6368L11.3374 24L3.77905 19.6368Z" fill="#2EB9FF" />
	<path fill-rule="evenodd" clip-rule="evenodd" d="M0 -8.01086e-05L11.3373 6.5452L22.6739 -8.01086e-05V17.4542L18.8949 19.6367V6.5452L15.1163 8.72728V13.091L11.3373 10.9089L7.55794 13.091V8.72728L3.77889 6.5452V19.6367L0 17.4546V4.3636V-8.01086e-05Z" fill="#0070E8" />
</svg>
