<svg viewBox="0 0 266 29" fill="none" xmlns="http://www.w3.org/2000/svg">
	<path d="M19.6259 25.1533L19.5638 13.6325L13.9741 23.0106H11.2414L5.6828 13.943V25.1533H0V3.41583H5.06173L12.7009 15.9615L20.1538 3.41583H25.2155L25.2776 25.1533H19.6259ZM45.124 20.93H35.9321L34.2241 25.1533H27.9513L37.5469 3.41583H43.6023L53.2289 25.1533H46.8319L45.124 20.93ZM43.3228 16.3962L40.528 9.44022L37.7332 16.3962H43.3228ZM65.4061 19.3774H62.0523V25.1533H55.9037V3.41583H65.8409C67.8077 3.41583 69.5156 3.74706 70.9647 4.40954C72.4138 5.05131 73.5318 5.98292 74.3185 7.20437C75.1052 8.4051 75.4985 9.82322 75.4985 11.4587C75.4985 13.0321 75.1259 14.4088 74.3806 15.5888C73.656 16.7482 72.6106 17.659 71.2442 18.3215L75.9333 25.1533H69.3499L65.4061 19.3774ZM69.2878 11.4587C69.2878 10.4443 68.9669 9.6576 68.3252 9.09863C67.6834 8.53967 66.731 8.26019 65.4682 8.26019H62.0523V14.6262H65.4682C66.731 14.6262 67.6834 14.357 68.3252 13.8188C68.9669 13.2598 69.2878 12.4731 69.2878 11.4587ZM88.2067 17.2657L85.9088 19.719V25.1533H79.8223V3.41583H85.9088V12.4524L94.3243 3.41583H101.094L92.2127 13.0424L101.56 25.1533H94.4175L88.2067 17.2657ZM121.557 20.4021V25.1533H104.105V3.41583H121.153V8.16703H110.191V11.8313H119.849V16.4273H110.191V20.4021H121.557ZM130.527 8.29124H123.851V3.41583H143.321V8.29124H136.676V25.1533H130.527V8.29124ZM154.122 25.5881C152.363 25.5881 150.655 25.3707 148.998 24.936C147.342 24.5012 145.997 23.9216 144.962 23.197L146.98 18.6631C147.953 19.3049 149.081 19.8225 150.365 20.2158C151.648 20.6091 152.911 20.8058 154.153 20.8058C156.513 20.8058 157.693 20.2158 157.693 19.0358C157.693 18.4147 157.352 17.9593 156.668 17.6694C156.007 17.3589 154.929 17.0379 153.439 16.7068C151.804 16.3548 150.437 15.9821 149.34 15.5888C148.243 15.1748 147.301 14.5227 146.514 13.6325C145.727 12.7423 145.334 11.5415 145.334 10.0302C145.334 8.70529 145.696 7.5149 146.421 6.45908C147.146 5.38256 148.222 4.53376 149.651 3.91269C151.1 3.29161 152.87 2.98108 154.96 2.98108C156.389 2.98108 157.797 3.1467 159.184 3.47794C160.572 3.78847 161.792 4.25428 162.848 4.87535L160.954 9.44022C158.884 8.32229 156.876 7.76333 154.929 7.76333C153.709 7.76333 152.818 7.94965 152.259 8.32229C151.7 8.67424 151.421 9.14004 151.421 9.7197C151.421 10.2994 151.752 10.7341 152.414 11.024C153.077 11.3138 154.144 11.614 155.613 11.9245C157.269 12.2765 158.636 12.6594 159.712 13.0735C160.809 13.4668 161.752 14.1086 162.538 14.9988C163.345 15.8683 163.749 17.0588 163.749 18.57C163.749 19.8742 163.387 21.0543 162.662 22.1101C161.938 23.1659 160.851 24.0148 159.401 24.6565C157.952 25.2775 156.193 25.5881 154.122 25.5881ZM218.108 3.41583V25.1533H211.959V16.6757H203.575V25.1533H197.426V3.41583H203.575V11.5829H211.959V3.41583H218.108ZM237.942 20.93H228.75L227.042 25.1533H220.769L230.365 3.41583H236.42L246.047 25.1533H239.65L237.942 20.93ZM236.141 16.3962L233.346 9.44022L230.551 16.3962H236.141ZM252.256 8.29124H245.579V3.41583H265.05V8.29124H258.405V25.1533H252.256V8.29124Z" fill="#002A51" />
	<path d="M185.874 25.9603C185.879 25.9625 185.884 25.9628 185.89 25.9614C185.894 25.9599 185.899 25.9564 185.902 25.9519C186.003 25.8585 186.107 25.7664 186.207 25.6729L186.852 25.0296L187.286 24.5972L187.741 24.1465L188.172 23.7195L188.621 23.2729L189.495 22.4038L189.958 21.942L190.377 21.5234L190.834 21.0671L191.273 20.629L191.663 20.2398C191.7 20.1999 191.742 20.1643 191.787 20.1337C191.802 20.1233 191.818 20.1145 191.835 20.1072C191.854 20.0985 191.874 20.0959 191.896 20.0993C191.916 20.1028 191.934 20.1123 191.948 20.1268C191.972 20.1465 191.99 20.1695 192.004 20.1951C192.029 20.2368 192.051 20.2788 192.071 20.3221C192.237 20.6626 192.411 20.9987 192.604 21.3253C192.743 21.568 192.894 21.808 193.052 22.0397C193.192 22.2446 193.332 22.4513 193.49 22.648C193.647 22.8447 193.782 23.0247 193.939 23.2062C194.094 23.3874 194.217 23.5326 194.371 23.6874C194.524 23.8423 194.659 23.9889 194.812 24.1327L195.071 24.374C195.108 24.4072 195.142 24.4452 195.169 24.487C195.184 24.5095 195.195 24.5353 195.198 24.5623C195.203 24.5988 195.193 24.6356 195.172 24.6655C195.147 24.7006 195.117 24.7325 195.085 24.7604C194.975 24.8581 194.855 24.9474 194.742 25.0394C194.506 25.2278 194.26 25.4063 194.013 25.5795C193.722 25.783 193.422 25.9757 193.116 26.157C192.827 26.3272 192.535 26.4868 192.237 26.6356C191.383 27.0632 190.486 27.3998 189.562 27.6402C189.282 27.7136 189 27.7779 188.713 27.8329C188.515 27.8709 188.317 27.9054 188.116 27.936C187.928 27.9639 187.739 27.9891 187.55 28.0114C187.442 28.024 187.334 28.0338 187.225 28.0436C187.073 28.056 186.922 28.0686 186.77 28.0783C186.657 28.0859 186.543 28.0914 186.429 28.0951C186.078 28.1063 185.731 28.1063 185.374 28.0951C185.179 28.0951 184.983 28.0797 184.791 28.0617C184.666 28.0504 184.542 28.042 184.418 28.0296C184.294 28.017 184.146 27.9987 184.011 27.9807C183.876 27.9625 183.75 27.9431 183.621 27.9235C183.399 27.89 183.179 27.8481 182.958 27.8021C182.556 27.7194 182.159 27.6184 181.764 27.4993C181.269 27.3506 180.783 27.1745 180.306 26.9719C180.008 26.8444 179.715 26.7073 179.424 26.5603C179.136 26.4134 178.839 26.2491 178.533 26.0678C178.235 25.8883 177.946 25.6981 177.662 25.4972C177.355 25.2776 177.054 25.0452 176.763 24.7995C176.623 24.6781 176.484 24.5527 176.344 24.4271C176.204 24.3013 176.023 24.1381 175.873 23.9873C175.726 23.8367 175.574 23.6776 175.428 23.5201C175.28 23.3624 175.128 23.1796 174.979 23.0065C174.832 22.8335 174.693 22.648 174.554 22.4665C174.395 22.2586 174.248 22.048 174.102 21.8276C173.956 21.6071 173.802 21.3574 173.658 21.1174C173.498 20.8509 173.355 20.5745 173.215 20.2983C173.054 19.9858 172.914 19.6636 172.776 19.3399C172.6 18.9213 172.458 18.5027 172.321 18.0729C172.17 17.5833 172.049 17.0852 171.958 16.5814C171.923 16.4056 171.902 16.227 171.869 16.0511C171.841 15.8991 171.826 15.7456 171.809 15.5934C171.795 15.4805 171.785 15.3675 171.776 15.2544C171.764 15.08 171.753 14.9056 171.74 14.7312C171.74 14.7201 171.74 14.7089 171.74 14.6978C171.74 14.448 171.722 14.1982 171.728 13.9485C171.732 13.6987 171.737 13.4671 171.754 13.2271C171.771 12.9871 171.787 12.7653 171.816 12.5295C171.83 12.4165 171.843 12.3035 171.858 12.1919C171.95 11.5204 172.09 10.8565 172.277 10.205C172.406 9.76827 172.555 9.33435 172.722 8.91297C172.861 8.58787 172.992 8.26416 173.149 7.94885C173.288 7.65862 173.44 7.36841 173.605 7.08936C173.745 6.85076 173.885 6.61216 174.04 6.38196C174.193 6.15174 174.327 5.95221 174.482 5.74431C174.636 5.53642 174.76 5.36201 174.92 5.18621C175.079 5.0104 175.209 4.84158 175.358 4.67414C175.507 4.50673 175.637 4.363 175.791 4.21232C176.071 3.92303 176.366 3.64723 176.678 3.38492C176.965 3.14029 177.26 2.90773 177.566 2.68728C177.852 2.47985 178.147 2.28312 178.448 2.09709C178.735 1.92128 179.027 1.75617 179.327 1.60176C179.76 1.37753 180.204 1.17633 180.659 0.999012C181.1 0.825604 181.55 0.674721 182.008 0.546945C182.402 0.437183 182.803 0.344165 183.207 0.267891C183.441 0.224173 183.676 0.18557 183.91 0.152083C184.114 0.122783 184.315 0.0990645 184.519 0.0767401C184.64 0.0627874 184.763 0.053019 184.885 0.0446474C185.075 0.0306948 185.266 0.0181373 185.455 0.00976576C185.644 0.00139416 185.804 0 185.98 0C186.155 0 186.334 0 186.511 0C186.716 0.00651124 186.919 0.0181386 187.123 0.0348816C187.287 0.0488344 187.453 0.0627865 187.616 0.0823202C187.779 0.101854 187.958 0.125574 188.129 0.150689C188.324 0.17999 188.519 0.214871 188.713 0.253938C188.98 0.306958 189.244 0.36835 189.508 0.438113C190.105 0.596755 190.692 0.796282 191.264 1.03529C191.557 1.15807 191.846 1.29016 192.13 1.43154C192.437 1.5841 192.739 1.74734 193.034 1.92128C193.329 2.09523 193.617 2.27846 193.902 2.47101C194.208 2.67891 194.507 2.8896 194.798 3.12401L195.001 3.28446C195.037 3.31269 195.069 3.345 195.097 3.38074C195.117 3.4042 195.128 3.43362 195.13 3.46441C195.131 3.4952 195.122 3.52564 195.105 3.55095C195.083 3.58566 195.057 3.61793 195.029 3.64723C194.975 3.70305 194.92 3.75885 194.866 3.81048C194.784 3.88581 194.706 3.96536 194.628 4.04488C194.406 4.26998 194.192 4.50254 193.985 4.74252C193.838 4.91413 193.697 5.09274 193.555 5.26993C193.395 5.47085 193.248 5.68152 193.102 5.89082C192.955 6.10012 192.802 6.34567 192.661 6.57868C192.5 6.83961 192.358 7.11028 192.215 7.38237C192.146 7.52189 192.076 7.66141 192.015 7.79117C191.995 7.83163 191.973 7.87211 191.95 7.91116C191.937 7.9351 191.919 7.95639 191.899 7.97395C191.885 7.98701 191.868 7.99589 191.847 7.99959C191.829 8.00328 191.809 8.00165 191.792 7.99488C191.759 7.98406 191.729 7.96804 191.701 7.94745C191.658 7.91396 191.618 7.88047 191.576 7.8442C191.361 7.66002 191.141 7.4856 190.914 7.31958C190.627 7.10843 190.327 6.91326 190.02 6.73496C189.748 6.5771 189.469 6.43411 189.181 6.30661C188.66 6.07484 188.113 5.90035 187.553 5.78617C187.337 5.74246 187.12 5.70804 186.901 5.68291C186.491 5.63641 186.076 5.62289 185.663 5.64245C185.343 5.65751 185.025 5.69151 184.708 5.74431C184.269 5.81741 183.833 5.92185 183.407 6.05686C182.944 6.20179 182.491 6.37993 182.053 6.58985C181.78 6.72131 181.513 6.86661 181.254 7.02517C180.913 7.23374 180.591 7.46691 180.286 7.72281C180.167 7.82187 180.053 7.92511 179.94 8.03115C179.751 8.21039 179.57 8.3995 179.4 8.59765C179.246 8.77484 179.106 8.9604 178.97 9.15574C178.805 9.38723 178.654 9.62757 178.516 9.87569C178.352 10.1736 178.206 10.4816 178.08 10.798C177.881 11.2952 177.726 11.8087 177.616 12.3328C177.577 12.5123 177.543 12.6928 177.513 12.8741C177.487 13.0416 177.468 13.2118 177.453 13.3806C177.422 13.6968 177.411 14.0146 177.417 14.3322C177.417 14.5205 177.432 14.7089 177.451 14.8903C177.47 15.0716 177.494 15.2782 177.524 15.4707C177.555 15.6633 177.592 15.832 177.634 16.0108C177.813 16.7584 178.094 17.4776 178.473 18.1468C178.611 18.3868 178.751 18.6239 178.914 18.8446C179.052 19.0383 179.192 19.231 179.345 19.4124C179.499 19.5937 179.625 19.7333 179.764 19.8839C180.049 20.1775 180.353 20.4508 180.676 20.7016C180.949 20.9129 181.235 21.107 181.53 21.2833C182.362 21.7791 183.272 22.13 184.222 22.3215C184.433 22.3646 184.64 22.3982 184.859 22.4261C185.037 22.4485 185.216 22.4638 185.396 22.4722C185.457 22.4722 185.519 22.4722 185.579 22.4722C185.626 22.471 185.674 22.4761 185.719 22.4876C185.753 22.4965 185.783 22.514 185.808 22.5385C185.832 22.5629 185.849 22.5937 185.859 22.627C185.874 22.6842 185.88 22.7435 185.877 22.8028C185.87 23.082 185.871 23.3526 185.871 23.6262C185.871 24.3777 185.871 25.1292 185.871 25.8808C185.868 25.9072 185.87 25.9342 185.874 25.9603Z" fill="#002A51" />
	<path d="M186.057 18.1805C186.014 18.1811 185.972 18.1779 185.929 18.1707C185.893 18.1672 185.856 18.1672 185.82 18.1707C185.714 18.1707 185.609 18.1568 185.502 18.1457C185.453 18.1457 185.402 18.136 185.354 18.1288C185.306 18.122 185.255 18.119 185.207 18.1107C185.11 18.0954 185.016 18.0787 184.919 18.0591C184.755 18.0257 184.592 17.9866 184.432 17.9392C184.259 17.8889 184.09 17.8295 183.926 17.7605C183.778 17.6978 183.631 17.6321 183.489 17.5568C183.303 17.4571 183.123 17.3477 182.949 17.229C182.842 17.1564 182.739 17.0769 182.638 16.996L182.433 16.8272C182.407 16.805 182.382 16.7813 182.361 16.7559C182.302 16.6974 182.25 16.633 182.207 16.5634C182.146 16.4664 182.115 16.3549 182.114 16.2411C182.112 16.1687 182.125 16.0965 182.151 16.029C182.179 15.9593 182.224 15.8976 182.281 15.8489C182.339 15.8004 182.407 15.7664 182.48 15.75C182.556 15.7307 182.635 15.727 182.713 15.7388C182.789 15.7509 182.864 15.7784 182.93 15.8198C182.975 15.8464 183.016 15.8782 183.053 15.9145C183.131 15.9886 183.205 16.0639 183.286 16.1336C183.446 16.2746 183.617 16.4033 183.795 16.5188C183.929 16.6033 184.07 16.678 184.214 16.742C184.34 16.7969 184.471 16.8437 184.604 16.8816C184.725 16.9165 184.848 16.9513 184.971 16.9792C185.087 17.0069 185.205 17.0281 185.323 17.0433C185.376 17.0433 185.427 17.0589 185.477 17.0671H185.491C185.579 17.0671 185.666 17.0895 185.755 17.0823C185.809 17.0823 185.862 17.095 185.916 17.0937C186.022 17.0937 186.13 17.0867 186.234 17.0783C186.416 17.0634 186.598 17.035 186.776 16.9932C186.978 16.9452 187.177 16.8808 187.369 16.8007C187.486 16.7518 187.599 16.6946 187.711 16.6347C187.852 16.5572 187.989 16.4721 188.121 16.3793C188.236 16.2991 188.348 16.2142 188.456 16.124C188.562 16.0361 188.666 15.9453 188.775 15.8602C188.876 15.7764 189.003 15.7313 189.133 15.7332C189.228 15.734 189.318 15.7647 189.393 15.8211C189.484 15.8886 189.56 15.9759 189.613 16.0765C189.644 16.138 189.66 16.2072 189.657 16.2768C189.652 16.3462 189.63 16.4134 189.591 16.4713C189.548 16.5406 189.497 16.6047 189.439 16.6625C189.374 16.7322 189.299 16.8019 189.237 16.8648C189.191 16.9079 189.141 16.9486 189.098 16.989C189.054 17.0294 188.976 17.0909 188.914 17.1396C188.764 17.2557 188.607 17.3626 188.444 17.4592C188.312 17.5366 188.178 17.6074 188.04 17.6712C187.927 17.7242 187.812 17.7703 187.696 17.8107C187.481 17.892 187.262 17.9586 187.04 18.0104C186.888 18.0465 186.734 18.0745 186.581 18.0996C186.505 18.1107 186.43 18.1302 186.354 18.1442C186.256 18.1662 186.157 18.1785 186.057 18.1805Z" fill="#002A51" />
</svg>
