<svg viewBox="0 0 21 24" fill="none" xmlns="http://www.w3.org/2000/svg">
	<path d="M12.3393 22.1698C12.3434 22.1717 12.3481 22.1719 12.3525 22.1707C12.3569 22.1694 12.3606 22.1664 12.3631 22.1626C12.4501 22.0828 12.5382 22.0042 12.6228 21.9244L13.1745 21.375L13.545 21.0057L13.9336 20.6207L14.3017 20.2562L14.6854 19.8748L15.4313 19.1325L15.8269 18.7382L16.1844 18.3807L16.5751 17.991L16.9493 17.617L17.2829 17.2845C17.3149 17.2505 17.3504 17.2201 17.389 17.1939C17.4017 17.1851 17.4153 17.1775 17.4296 17.1713C17.4456 17.1639 17.4635 17.1616 17.481 17.1645C17.4983 17.1676 17.5145 17.1757 17.5272 17.188C17.5462 17.2048 17.5622 17.2244 17.5749 17.2464C17.5952 17.282 17.6141 17.3178 17.6321 17.3548C17.7738 17.6456 17.9216 17.9326 18.0861 18.2115C18.2052 18.4188 18.3339 18.6238 18.4697 18.8216C18.5889 18.9967 18.7081 19.173 18.8427 19.3411C18.9773 19.5091 19.0929 19.6628 19.2264 19.8177C19.3598 19.9726 19.4646 20.0965 19.5957 20.2287C19.7268 20.361 19.8424 20.4862 19.9723 20.6089L20.1938 20.8151C20.2257 20.8434 20.2538 20.8759 20.2774 20.9115C20.2904 20.9308 20.299 20.9528 20.3024 20.9759C20.306 21.0071 20.2979 21.0385 20.2797 21.064C20.2581 21.0941 20.2328 21.1213 20.2046 21.1451C20.1105 21.2285 20.0091 21.3047 19.9115 21.3833C19.7101 21.5442 19.5016 21.6967 19.2907 21.8445C19.0413 22.0184 18.7855 22.1828 18.5233 22.3378C18.2778 22.4831 18.0281 22.6194 17.7738 22.7465C17.0441 23.1115 16.2782 23.399 15.4885 23.6044C15.2502 23.6671 15.0086 23.722 14.764 23.7688C14.5948 23.8014 14.4249 23.8308 14.254 23.8569C14.0932 23.8808 13.9323 23.9022 13.7703 23.9213C13.6786 23.9321 13.5856 23.9404 13.4927 23.9488C13.3628 23.9594 13.2341 23.9702 13.1042 23.9785C13.0073 23.985 12.9104 23.9897 12.8135 23.9928C12.5132 24.0024 12.2177 24.0024 11.9127 23.9928C11.7459 23.9928 11.5791 23.9797 11.4134 23.9643C11.3074 23.9547 11.2013 23.9475 11.0953 23.9369C10.9892 23.9261 10.8641 23.9106 10.7486 23.8952C10.633 23.8796 10.5257 23.863 10.4149 23.8463C10.2255 23.8177 10.0372 23.7819 9.84894 23.7426C9.50578 23.672 9.16619 23.5858 8.83018 23.4841C8.40712 23.3571 7.99142 23.2067 7.58501 23.0337C7.33002 22.9248 7.07901 22.8077 6.83196 22.6821C6.58491 22.5566 6.33111 22.4164 6.07056 22.2615C5.81638 22.1082 5.56853 21.9458 5.32704 21.7742C5.06332 21.5868 4.80713 21.3882 4.5585 21.1785C4.43935 21.0748 4.3202 20.9676 4.20104 20.8603C4.08189 20.753 3.92579 20.6137 3.79949 20.4849C3.67318 20.3562 3.54331 20.2204 3.4182 20.0858C3.29308 19.9511 3.16201 19.795 3.03572 19.6473C2.90942 19.4995 2.79144 19.3411 2.67229 19.1861C2.53646 19.0086 2.41134 18.8287 2.28624 18.6404C2.16112 18.4521 2.03005 18.2389 1.90733 18.034C1.7703 17.8064 1.64876 17.5704 1.52842 17.3345C1.39139 17.0676 1.27104 16.7924 1.15427 16.516C1.00414 16.1585 0.881411 15.801 0.765831 15.434C0.637074 15.0159 0.533228 14.5906 0.45484 14.1602C0.426242 14.0102 0.407177 13.8576 0.379772 13.7074C0.355941 13.5776 0.342834 13.4465 0.327344 13.3166C0.315429 13.2201 0.307088 13.1237 0.299939 13.0271C0.289215 12.8781 0.279683 12.7292 0.268959 12.5803C0.268959 12.5707 0.268959 12.5612 0.268959 12.5517C0.268959 12.3384 0.253469 12.1251 0.258235 11.9118C0.263001 11.6985 0.266576 11.5007 0.280874 11.2958C0.295173 11.0908 0.309472 10.9014 0.334494 10.7C0.346409 10.6035 0.357133 10.507 0.37024 10.4117C0.448792 9.83829 0.56825 9.27126 0.727702 8.71493C0.838515 8.34197 0.96601 7.9714 1.1078 7.61156C1.22696 7.33392 1.33777 7.05749 1.47241 6.78821C1.59157 6.54036 1.72145 6.29252 1.86205 6.05421C1.9812 5.85046 2.10036 5.6467 2.23262 5.45011C2.36488 5.2535 2.47807 5.08311 2.61033 4.90556C2.7426 4.72803 2.84864 4.57908 2.98448 4.42895C3.12031 4.27882 3.23113 4.13464 3.35862 3.99165C3.48612 3.84868 3.59692 3.72595 3.72919 3.59726C3.96749 3.35021 4.21971 3.11469 4.48582 2.89067C4.73048 2.68176 4.98309 2.48317 5.24364 2.2949C5.48831 2.11776 5.73972 1.94976 5.99788 1.79089C6.24254 1.64075 6.49237 1.49975 6.74736 1.36788C7.11734 1.17639 7.49718 1.00457 7.88529 0.853143C8.26258 0.705055 8.64714 0.576203 9.0375 0.467083C9.37511 0.373349 9.71628 0.293913 10.061 0.228776C10.2612 0.19144 10.4618 0.158474 10.6628 0.129877C10.8355 0.104855 11.0083 0.0845997 11.1823 0.065535C11.2859 0.0536196 11.3908 0.0452776 11.4945 0.0381283C11.6565 0.0262129 11.8197 0.015489 11.9818 0.00833983C12.1438 0.00119059 12.2797 0 12.4298 0C12.5799 0 12.7325 0 12.8838 0C13.0577 0.00556051 13.2317 0.01549 13.4057 0.0297884C13.5463 0.0417039 13.6881 0.0536188 13.8275 0.0703004C13.9669 0.086982 14.1195 0.107239 14.2648 0.128687C14.4315 0.153709 14.5973 0.183496 14.7629 0.216859C14.9908 0.262138 15.2172 0.314566 15.4421 0.374143C15.9531 0.50962 16.4544 0.680014 16.9421 0.884122C17.1924 0.988978 17.439 1.10178 17.6821 1.22252C17.9443 1.3528 18.2012 1.49221 18.453 1.64075C18.7048 1.7893 18.9519 1.94578 19.1942 2.11021C19.4563 2.28776 19.7113 2.46767 19.9604 2.66786L20.1332 2.80488C20.1636 2.82899 20.1913 2.85659 20.2154 2.8871C20.2325 2.90714 20.2423 2.93227 20.2437 2.95856C20.245 2.98486 20.2375 3.01085 20.2225 3.03246C20.2036 3.06211 20.1817 3.08966 20.1569 3.11469C20.1105 3.16235 20.0652 3.21001 20.0176 3.25409C19.9485 3.31843 19.8818 3.38636 19.8149 3.45428C19.626 3.64651 19.4432 3.8451 19.2668 4.05004C19.1406 4.19661 19.0203 4.34912 18.8987 4.50045C18.7628 4.67203 18.6366 4.85194 18.5114 5.03068C18.3863 5.20942 18.2564 5.41912 18.1349 5.61811C17.9979 5.84093 17.8763 6.07208 17.7549 6.30444C17.6952 6.42359 17.6357 6.54274 17.5832 6.65356C17.5666 6.68811 17.5474 6.72267 17.5285 6.75602C17.5172 6.77647 17.5022 6.79465 17.4843 6.80965C17.4721 6.8208 17.4571 6.82838 17.441 6.83154C17.4248 6.83469 17.408 6.83331 17.3926 6.82752C17.3652 6.81829 17.3394 6.8046 17.3163 6.78701C17.2793 6.75841 17.2437 6.72982 17.2079 6.69884C17.0256 6.54155 16.8373 6.39261 16.6431 6.25082C16.3979 6.0705 16.1428 5.90382 15.8794 5.75156C15.6478 5.61676 15.4091 5.49465 15.1644 5.38575C14.7179 5.18783 14.2513 5.03881 13.7727 4.94131C13.5884 4.90399 13.4029 4.87458 13.2163 4.85314C12.8654 4.81342 12.512 4.80187 12.1593 4.81858C11.8862 4.83143 11.614 4.86047 11.3443 4.90556C10.9679 4.96798 10.5964 5.05718 10.2326 5.17247C9.83692 5.29624 9.45066 5.44836 9.07682 5.62764C8.84271 5.73992 8.61443 5.864 8.39288 5.9994C8.10343 6.17752 7.82744 6.37664 7.56714 6.59517C7.46586 6.67976 7.36815 6.76794 7.27164 6.8585C7.10957 7.01157 6.95565 7.17305 6.81051 7.34227C6.67944 7.4936 6.55909 7.65206 6.44233 7.81888C6.30242 8.01657 6.17354 8.22182 6.05626 8.43371C5.91537 8.68808 5.7908 8.95114 5.68332 9.22132C5.51346 9.64595 5.3807 10.0845 5.28653 10.532C5.25317 10.6853 5.22418 10.8394 5.19955 10.9943C5.17691 11.1373 5.16023 11.2827 5.14712 11.4269C5.12097 11.6969 5.11103 11.9683 5.11734 12.2395C5.11734 12.4004 5.13045 12.5612 5.14593 12.7161C5.16143 12.871 5.18287 13.0473 5.20908 13.2118C5.2353 13.3762 5.26628 13.5204 5.30322 13.6729C5.45484 14.3115 5.69551 14.9256 6.01814 15.4971C6.13729 15.7021 6.25644 15.9046 6.39466 16.0929C6.51381 16.2585 6.63297 16.423 6.76404 16.5779C6.89511 16.7328 7.00236 16.8519 7.12151 16.9806C7.36455 17.2314 7.62496 17.4647 7.90077 17.6789C8.13347 17.8593 8.377 18.0251 8.62999 18.1757C9.34054 18.599 10.1177 18.8988 10.9285 19.0622C11.1084 19.0992 11.2859 19.1278 11.473 19.1516C11.6247 19.1707 11.7772 19.1838 11.9306 19.191C11.983 19.191 12.0354 19.191 12.0878 19.191C12.128 19.19 12.168 19.1943 12.207 19.2041C12.2356 19.2116 12.2617 19.2267 12.2826 19.2476C12.3035 19.2685 12.3185 19.2946 12.3262 19.3232C12.3397 19.372 12.3453 19.4227 12.3428 19.4733C12.3357 19.7117 12.3369 19.9428 12.3369 20.1764C12.3369 20.8181 12.3369 21.46 12.3369 22.1019C12.3344 22.1245 12.3352 22.1474 12.3393 22.1698Z" fill="#166AB3" />
	<path d="M12.496 15.5261C12.4592 15.5266 12.4225 15.5237 12.3863 15.5177C12.3554 15.5146 12.3243 15.5146 12.2934 15.5177C12.2028 15.5177 12.1123 15.5058 12.0217 15.4963C11.98 15.4963 11.9371 15.488 11.8954 15.4819C11.8537 15.476 11.8108 15.4736 11.7691 15.4664C11.6869 15.4533 11.6059 15.4391 11.5237 15.4224C11.3831 15.3938 11.2448 15.3605 11.1078 15.3199C10.9609 15.2771 10.8165 15.2263 10.6753 15.1674C10.549 15.1138 10.4239 15.0577 10.3023 14.9935C10.1438 14.9083 9.98985 14.8148 9.84121 14.7134C9.74946 14.6515 9.66247 14.5835 9.57668 14.5145L9.40153 14.3703C9.37922 14.3513 9.35813 14.3311 9.33838 14.3095C9.28893 14.2595 9.24499 14.2045 9.20731 14.1451C9.15641 14.0622 9.1292 13.967 9.12866 13.8698C9.12664 13.808 9.13718 13.7464 9.15964 13.6887C9.18374 13.6291 9.22192 13.5764 9.27089 13.5349C9.31987 13.4934 9.37819 13.4644 9.44084 13.4503C9.5057 13.4339 9.57322 13.4307 9.63936 13.4408C9.7055 13.4511 9.76888 13.4746 9.82571 13.51C9.86373 13.5327 9.89893 13.5599 9.93056 13.5909C9.9961 13.6542 10.0604 13.7184 10.1296 13.7781C10.2661 13.8984 10.4115 14.0083 10.5645 14.107C10.6788 14.1792 10.7983 14.2429 10.9219 14.2976C11.03 14.3445 11.1411 14.3844 11.2544 14.4167C11.358 14.4465 11.4629 14.4763 11.5677 14.5001C11.6672 14.5237 11.7678 14.5419 11.8692 14.5549C11.9133 14.5549 11.9574 14.5681 12.0003 14.5752H12.0122C12.0873 14.5752 12.1623 14.5943 12.2374 14.5882C12.2839 14.5882 12.3291 14.599 12.3756 14.5979C12.4662 14.5979 12.5579 14.5918 12.6473 14.5848C12.803 14.572 12.9575 14.5477 13.1096 14.5121C13.2826 14.4711 13.4519 14.4161 13.616 14.3476C13.7161 14.3059 13.8126 14.257 13.908 14.2059C14.0288 14.1398 14.1456 14.0671 14.2583 13.9878C14.3568 13.9194 14.4521 13.8468 14.5442 13.7697C14.6348 13.6947 14.7242 13.6172 14.817 13.5445C14.9028 13.4729 15.0115 13.4344 15.1233 13.4361C15.2033 13.4367 15.281 13.463 15.3449 13.5111C15.423 13.5687 15.487 13.6433 15.532 13.7292C15.5595 13.7818 15.5724 13.8409 15.5692 13.9003C15.5661 13.9596 15.547 14.0169 15.5141 14.0664C15.4771 14.1256 15.4336 14.1803 15.3843 14.2296C15.3282 14.2892 15.2651 14.3488 15.2115 14.4024C15.1721 14.4393 15.1292 14.474 15.0923 14.5085C15.0554 14.543 14.9887 14.5954 14.9362 14.6371C14.8078 14.7363 14.6732 14.8275 14.5335 14.91C14.4218 14.9761 14.3069 15.0366 14.1891 15.0911C14.0927 15.1364 13.9938 15.1757 13.8949 15.2102C13.7122 15.2796 13.5251 15.3366 13.3348 15.3807C13.2049 15.4116 13.0739 15.4355 12.9428 15.4569C12.8784 15.4664 12.8141 15.4831 12.7497 15.495C12.6664 15.5139 12.5814 15.5243 12.496 15.5261Z" fill="#A6C7E3" />
</svg>
