<svg viewBox="0 0 24 24" fill="none" xmlns="http://www.w3.org/2000/svg">
	<path d="M23.6735 5.31147C21.2804 5.31147 18.8826 5.31147 16.4896 5.31147C16.145 5.31147 16.0176 5.24086 16.0176 4.87839C16.0176 3.38144 16.0176 1.87978 16.0176 0.382833C16.0176 -0.0549544 16.0176 -0.0549542 15.6164 0.0768526C13.8369 0.669983 12.0716 1.3149 10.2733 1.84212C8.59298 2.3364 7.83306 3.20726 7.97938 4.96312C7.97938 5.24086 7.90386 5.31147 7.6301 5.31147C6.51618 5.31147 5.40697 5.31147 4.29305 5.31147C3.80593 5.30932 3.33057 5.46063 2.93475 5.7438C2.53894 6.02698 2.24288 6.42757 2.0888 6.88844C1.39967 8.92674 0.72471 10.9697 0.0355871 13.008C-0.0446532 13.2528 0.00254676 13.3187 0.262148 13.314C1.32415 13.314 2.38616 13.314 3.45288 13.314H15.791C15.7634 13.3553 15.7272 13.3902 15.6848 13.4162C15.6425 13.4422 15.595 13.4587 15.5456 13.4647L9.68331 15.4229C9.18886 15.5722 8.75717 15.8791 8.45449 16.2966C8.15181 16.7142 7.99485 17.2192 8.0077 17.7343C8.0077 19.0382 8.0077 20.3422 8.0077 21.6461C8.0077 22.2703 8.25634 22.869 8.69893 23.3104C9.14152 23.7518 9.7418 23.9998 10.3677 23.9998C11.4816 23.9998 12.5908 23.9998 13.7048 23.9998C14.0312 24.0044 14.3544 23.9335 14.6488 23.7927C15.0969 23.5906 15.4725 23.2571 15.7256 22.8365C15.9786 22.4159 16.0969 21.9284 16.0648 21.439C16.0648 18.8687 16.0648 16.2938 16.0648 13.7236C16.0648 13.3893 16.1639 13.3187 16.4801 13.3234C17.5327 13.3234 18.5805 13.3234 19.6331 13.3234C20.1577 13.3508 20.6762 13.2006 21.1046 12.8973C21.5329 12.594 21.846 12.1553 21.9931 11.6523C22.6398 9.66109 23.2817 7.66987 23.9567 5.67393C24.0558 5.36796 23.9944 5.31147 23.6735 5.31147Z" fill="#292929" />
</svg>
