<svg viewBox="0 0 32 29" fill="none" xmlns="http://www.w3.org/2000/svg">
<path d="M18.1383 0H13.5563C6.06963 0 0.000488281 6.06914 0.000488281 13.5558L5.55052 15.0418L18.1383 0Z" fill="url(#paint0_radial)"/>
<path d="M4.58196 13.5557H0C0 21.0424 6.06914 27.1115 13.5558 27.1115H18.1378L4.58196 13.5557Z" fill="url(#paint1_radial)"/>
<path d="M18.1379 27.1117C25.6245 27.1117 31.6937 21.0425 31.6937 13.5558C31.6937 6.06915 25.6245 0 18.1379 0C10.6512 0 4.58203 6.06915 4.58203 13.5558C4.58203 21.0425 10.6512 27.1117 18.1379 27.1117Z" fill="url(#paint2_radial)"/>
<path d="M30.4635 7.90557C27.3261 7.45994 23.6917 7.42651 20.8929 7.65276C20.051 7.72079 19.3182 8.12377 18.8114 8.74124C18.5583 9.0492 18.1929 9.24153 17.7974 9.26127C17.4018 9.24159 17.0362 9.04926 16.783 8.74124C16.7817 8.73957 16.7803 8.73796 16.779 8.73629C16.2564 8.10334 15.5194 7.71875 14.7016 7.6527C12.1548 7.44688 8.8233 7.44935 5.85624 7.81005C5.2504 9.10281 4.84266 10.507 4.67212 11.9833C4.75915 12.1013 4.81678 12.2418 4.83529 12.3938L5.09218 14.4983C5.26854 15.9431 6.44678 17.089 7.89385 17.2229C9.91426 17.4099 12.3906 17.3925 14.223 17.2229C15.6701 17.0889 16.8484 15.9431 17.0247 14.4983L17.2846 12.3693C17.2849 12.3661 17.2854 12.363 17.2857 12.3599C17.3636 11.7745 18.2309 11.7745 18.3087 12.3599C18.3092 12.363 18.3095 12.3662 18.3099 12.3693L18.5698 14.4983C18.7461 15.9431 19.9244 17.089 21.3714 17.2229C23.2042 17.3925 25.7466 17.4038 27.7006 17.2229C29.1477 17.0889 30.3259 15.9431 30.5023 14.4983L30.7638 12.356C30.8056 12.013 31.0631 11.7488 31.3969 11.6595C31.4547 11.644 31.5068 11.6163 31.5505 11.5796C31.3617 10.2867 30.9903 9.05304 30.4635 7.90557Z" fill="url(#paint3_radial)"/>
<path d="M15.9878 28.8357C23.7609 28.8357 30.0622 28.0636 30.0622 27.1113H1.91333C1.91333 28.0637 8.21467 28.8357 15.9878 28.8357Z" fill="url(#paint4_radial)"/>
<path d="M26.3583 17.0785C24.8254 19.1146 22.718 20.6304 20.1914 21.3074C19.2118 21.5698 18.2238 21.6912 17.2445 21.6838C16.9272 21.6814 16.6486 21.8933 16.5665 22.1998C16.4579 22.605 16.7293 23.0136 17.1448 23.071C18.2836 23.2283 19.4528 23.1676 20.607 22.8583C23.4354 22.1005 25.5956 20.0053 26.7333 17.295C26.8322 17.0595 26.512 16.8744 26.3583 17.0785Z" fill="url(#paint5_radial)"/>
<path d="M17.7974 8.33272C18.1929 8.31304 18.5584 8.12065 18.8116 7.81269C18.8129 7.81102 18.8143 7.80941 18.8156 7.80774C19.3383 7.17479 20.0753 6.7902 20.8931 6.72415C21.984 6.636 23.092 6.59131 24.1865 6.59131C24.3027 6.59131 24.536 6.59286 24.536 6.59286L19.4393 9.1593L17.8648 8.3344C17.8422 8.3344 17.8197 8.33384 17.7974 8.33272ZM19.0353 9.93585L17.7974 10.7505C18.0704 10.8708 18.2718 11.1278 18.31 11.4407L18.5699 13.5698C18.7463 15.0145 19.9245 16.1604 21.3716 16.2943C22.3035 16.3806 23.2505 16.4243 24.1864 16.4243C24.3029 16.4243 24.4195 16.4236 24.5362 16.4223L19.0353 9.93585Z" fill="url(#paint6_radial)"/>
<path d="M11.0586 6.59286C10.9418 6.59187 10.8251 6.59131 10.7086 6.59131C8.56399 6.59131 6.31863 6.76333 4.23205 7.11679C4.04041 7.14923 3.90088 7.31655 3.90088 7.51092V10.3421C3.90088 10.5211 4.01732 10.6842 4.19058 10.7292C4.53648 10.8189 4.79195 11.1111 4.83522 11.4653L5.09211 13.5698C5.26847 15.0146 6.44671 16.1605 7.89378 16.2944C8.82565 16.3807 9.77274 16.4244 10.7086 16.4244C10.825 16.4244 10.9416 16.4237 11.0583 16.4223L11.0586 6.59286Z" fill="url(#paint7_radial)"/>
<path d="M31.3623 7.11679C29.2758 6.76333 27.0304 6.59131 24.8857 6.59131C23.7913 6.59131 22.6832 6.636 21.5923 6.72415C20.7746 6.7902 20.0375 7.17479 19.5149 7.80774C19.5136 7.80935 19.5122 7.81102 19.5109 7.81263C19.2434 8.13798 18.8505 8.3344 18.4293 8.3344H17.8645C17.4433 8.3344 17.0504 8.13804 16.7829 7.81263C16.7816 7.81096 16.7802 7.80935 16.7789 7.80774C16.2563 7.17479 15.5193 6.7902 14.7015 6.72415C13.6106 6.636 12.5026 6.59131 11.4081 6.59131C9.26345 6.59131 7.01809 6.76333 4.93152 7.11679C4.73987 7.14923 4.60034 7.31655 4.60034 7.51092V10.3421C4.60034 10.5211 4.71678 10.6842 4.89004 10.7292C5.23595 10.8189 5.49142 11.1111 5.53468 11.4653L5.79158 13.5698C5.96793 15.0146 7.14617 16.1605 8.59324 16.2944C9.52511 16.3807 10.4722 16.4244 11.408 16.4244C12.3439 16.4244 13.291 16.3807 14.2229 16.2944C15.6699 16.1604 16.8482 15.0146 17.0246 13.5698L17.2844 11.4408C17.3376 11.0049 17.7077 10.6772 18.1469 10.6772C18.586 10.6772 18.9561 11.0049 19.0093 11.4408L19.2692 13.5698C19.4455 15.0146 20.6238 16.1605 22.0708 16.2944C23.0028 16.3807 23.9498 16.4244 24.8857 16.4244C25.8216 16.4244 26.7686 16.3807 27.7005 16.2944C29.1475 16.1604 30.3258 15.0146 30.5021 13.5698L30.7629 11.4335C30.8051 11.0883 31.0633 10.822 31.3988 10.7305C31.5726 10.683 31.6934 10.5251 31.6934 10.3447V7.51098C31.6934 7.31655 31.554 7.14929 31.3623 7.11679Z" fill="url(#paint8_radial)"/>
<path d="M14.1307 15.2954C12.3197 15.463 10.497 15.463 8.68599 15.2954C7.69792 15.2039 6.90824 14.4335 6.78803 13.4485L6.36419 9.97603C6.22578 8.84205 7.05711 7.81684 8.19579 7.72479C10.334 7.55202 12.4827 7.55202 14.6209 7.72479C15.7596 7.81684 16.5909 8.84205 16.4525 9.97603L16.0286 13.4485C15.9084 14.4334 15.1187 15.2039 14.1307 15.2954Z" fill="url(#paint9_radial)"/>
<path d="M27.6282 15.2954C25.8172 15.463 23.9945 15.463 22.1836 15.2954C21.1955 15.2039 20.4058 14.4335 20.2856 13.4485L19.8617 9.97603C19.7233 8.84205 20.5547 7.81684 21.6934 7.72479C23.8316 7.55202 25.9802 7.55202 28.1184 7.72479C29.2571 7.81684 30.0884 8.84205 29.95 9.97603L29.5262 13.4485C29.406 14.4334 28.6163 15.2039 27.6282 15.2954Z" fill="url(#paint10_radial)"/>
<defs>
<radialGradient id="paint0_radial" cx="0" cy="0" r="1" gradientUnits="userSpaceOnUse" gradientTransform="translate(4.49527 2.50445) rotate(-45) scale(13.9891 10.942)">
<stop offset="0.0132" stop-color="#FFFBE4"/>
<stop offset="0.6064" stop-color="#F9EFAF"/>
<stop offset="0.7207" stop-color="#F9EEAB"/>
<stop offset="0.8394" stop-color="#F8EC9E"/>
<stop offset="0.9597" stop-color="#F7E98A"/>
<stop offset="1" stop-color="#F6E781"/>
</radialGradient>
<radialGradient id="paint1_radial" cx="0" cy="0" r="1" gradientUnits="userSpaceOnUse" gradientTransform="translate(-1.13323 14.4113) scale(25.1052 16.5694)">
<stop stop-color="#F6E266"/>
<stop offset="0.1349" stop-color="#F5DC60"/>
<stop offset="0.3156" stop-color="#F0CB51"/>
<stop offset="0.5216" stop-color="#E9AF37"/>
<stop offset="0.5854" stop-color="#E7A52E"/>
<stop offset="1" stop-color="#E7A52E"/>
</radialGradient>
<radialGradient id="paint2_radial" cx="0" cy="0" r="1" gradientUnits="userSpaceOnUse" gradientTransform="translate(20.7058 15.1518) scale(23.1105)">
<stop stop-color="#F6E266"/>
<stop offset="0.377" stop-color="#F4DD45"/>
<stop offset="0.4963" stop-color="#F2D340"/>
<stop offset="0.6976" stop-color="#ECB934"/>
<stop offset="0.8996" stop-color="#E49824"/>
</radialGradient>
<radialGradient id="paint3_radial" cx="0" cy="0" r="1" gradientUnits="userSpaceOnUse" gradientTransform="translate(24.3668 19.6734) scale(16.6867 10.4125)">
<stop stop-color="#F6E266"/>
<stop offset="0.4319" stop-color="#F4DD45"/>
<stop offset="0.5386" stop-color="#F2D340"/>
<stop offset="0.7188" stop-color="#ECB934"/>
<stop offset="0.8996" stop-color="#E49824"/>
</radialGradient>
<radialGradient id="paint4_radial" cx="0" cy="0" r="1" gradientUnits="userSpaceOnUse" gradientTransform="translate(15.8042 27.1518) scale(13.5056 1.62473)">
<stop stop-color="#ECB780"/>
<stop offset="0.3347" stop-color="#FADDB9"/>
<stop offset="0.4962" stop-color="#FFECD0"/>
<stop offset="0.888" stop-color="white"/>
</radialGradient>
<radialGradient id="paint5_radial" cx="0" cy="0" r="1" gradientUnits="userSpaceOnUse" gradientTransform="translate(24.3732 22.662) rotate(-15.0089) scale(9.70026 4.24659)">
<stop stop-color="#D8AA8B"/>
<stop offset="0.2127" stop-color="#CC9772"/>
<stop offset="0.5905" stop-color="#B16E3D"/>
<stop offset="0.6258" stop-color="#AD6B3B"/>
<stop offset="1" stop-color="#804F2B"/>
</radialGradient>
<radialGradient id="paint6_radial" cx="0" cy="0" r="1" gradientUnits="userSpaceOnUse" gradientTransform="translate(16.9093 6.21767) scale(9.97643 5.56685)">
<stop stop-color="#DFDDE2"/>
<stop offset="0.0999" stop-color="#CDCAD0"/>
<stop offset="0.3019" stop-color="#9F9AA0"/>
<stop offset="0.5225" stop-color="#665E66"/>
<stop offset="0.6964" stop-color="#5E565E"/>
<stop offset="0.972" stop-color="#474247"/>
<stop offset="0.9894" stop-color="#454045"/>
</radialGradient>
<radialGradient id="paint7_radial" cx="0" cy="0" r="1" gradientUnits="userSpaceOnUse" gradientTransform="translate(2.7695 6.52582) scale(10.1377 10.604)">
<stop stop-color="#DFDDE2"/>
<stop offset="0.1026" stop-color="#CDCAD0"/>
<stop offset="0.3089" stop-color="#9F9AA2"/>
<stop offset="0.478" stop-color="#756E78"/>
<stop offset="0.692" stop-color="#665F69"/>
<stop offset="0.9894" stop-color="#544F57"/>
</radialGradient>
<radialGradient id="paint8_radial" cx="0" cy="0" r="1" gradientUnits="userSpaceOnUse" gradientTransform="translate(8.30956 7.96142) rotate(16.2052) scale(27.3662 24.8281)">
<stop offset="0.1044" stop-color="#544F57"/>
<stop offset="0.6862" stop-color="#665E66"/>
<stop offset="0.7956" stop-color="#6F6770"/>
<stop offset="0.9815" stop-color="#887E8B"/>
<stop offset="1" stop-color="#8B818E"/>
</radialGradient>
<radialGradient id="paint9_radial" cx="0" cy="0" r="1" gradientUnits="userSpaceOnUse" gradientTransform="translate(8.886 6.43914) scale(12.4694 9.01538)">
<stop stop-color="#DFDDE2"/>
<stop offset="0.3811" stop-color="#7A767D"/>
<stop offset="0.5191" stop-color="#544F57"/>
<stop offset="0.6816" stop-color="#5A545D"/>
<stop offset="0.8909" stop-color="#6A636D"/>
<stop offset="1" stop-color="#756E78"/>
</radialGradient>
<radialGradient id="paint10_radial" cx="0" cy="0" r="1" gradientUnits="userSpaceOnUse" gradientTransform="translate(22.3836 6.43914) scale(12.4694 9.01538)">
<stop stop-color="#DFDDE2"/>
<stop offset="0.3811" stop-color="#7A767D"/>
<stop offset="0.5191" stop-color="#544F57"/>
<stop offset="0.6816" stop-color="#5A545D"/>
<stop offset="0.8909" stop-color="#6A636D"/>
<stop offset="1" stop-color="#756E78"/>
</radialGradient>
</defs>
</svg>
 
