<svg viewBox="0 0 36 36" fill="none" xmlns="http://www.w3.org/2000/svg">
<path d="M6.60706 22.7552L17.8877 34.0359H10.5616L6.47119 30.0814L6.60706 22.7552Z" fill="#464B4E"/>
<path d="M0.0446777 18.157L4.04409 22.1564L4.09026 29.3928L0.0446777 25.5266V18.157Z" fill="#464B4E"/>
<path d="M0 14.606L21.4375 35.9987L25.5279 35.9538L36 25.6176V18.2018L23.5058 30.7409L5.34882 12.5391L17.7982 0.0448483L10.4272 0L0.134545 10.4259L0 14.606Z" fill="#464B4E"/>
<path d="M8.94278 12.5391L21.4818 0.0449219H25.5723L27.2356 1.84281L16.2689 12.584L17.9771 14.2909L28.9425 3.50484L32.5383 7.10062L21.7971 17.9763L23.4604 19.6845L34.3362 8.94335L35.9546 10.517L35.9995 14.5164L23.4604 27.1003L8.94278 12.5391Z" fill="#464B4E"/>
</svg>
