<svg viewBox="0 0 36 34" fill="none" xmlns="http://www.w3.org/2000/svg">
<path d="M35.2362 22.6673C35.2362 26.0827 35.2374 29.4976 35.2309 32.9132C35.2309 33.0437 35.2785 33.1648 35.207 33.3183C34.9914 33.7861 34.5378 33.8876 34.1005 33.5821C33.7953 33.3688 33.4896 33.1532 33.1738 32.9521C32.8164 32.7248 32.4786 32.4675 32.1288 32.2286C31.9083 32.0778 31.6628 31.9556 31.4614 31.7844C31.1711 31.5375 30.816 31.3881 30.5264 31.1405C30.3406 30.981 30.1082 30.8744 29.9031 30.7347C29.6369 30.5533 29.3795 30.3585 29.1137 30.1759C28.8253 29.9782 28.5214 29.8004 28.2419 29.591C27.9422 29.3667 27.5685 29.2136 27.3981 28.8537C27.3047 28.6559 27.2169 28.4607 27.2169 28.2252C27.2243 23.2992 27.2165 18.3735 27.2296 13.4473C27.2314 12.8027 26.9471 12.3732 26.4175 12.0375C26.0068 11.7773 25.626 11.4735 25.2131 11.2179C24.5702 10.8196 23.9671 10.3675 23.3379 9.95009C22.8541 9.62895 22.3798 9.2939 21.8948 8.97332C21.4312 8.66726 20.9628 8.36523 20.5147 8.04119C20.0768 7.72412 19.6287 7.4192 19.1824 7.11545C18.7897 6.8482 18.4048 6.5659 17.9948 6.3201C17.6367 6.10563 17.3042 5.85114 16.9598 5.61464C16.6481 5.40131 16.3371 5.18798 16.0243 4.97639C15.7412 4.78453 15.4594 4.58974 15.1758 4.39846C14.8105 4.15209 14.4452 3.90341 14.0895 3.64255C13.6849 3.34575 13.7093 2.89475 14.0835 2.62751C14.7569 2.14753 15.4481 1.6919 16.1315 1.22525C16.5326 0.951065 16.9294 0.670496 17.3352 0.403262C17.6826 0.174866 18.4512 0.228197 18.7945 0.472824C19.0906 0.683829 19.4058 0.867589 19.7055 1.07396C20.0577 1.31627 20.3991 1.57365 20.7513 1.81595C21.0504 2.02174 21.3614 2.21188 21.6624 2.41535C21.9579 2.61477 22.2463 2.82462 22.5407 3.02575C22.9101 3.27849 23.2825 3.52661 23.6532 3.7782C23.9416 3.97412 24.2283 4.17237 24.5176 4.36772C24.7425 4.51903 24.9717 4.66394 25.1952 4.81699C25.5718 5.07494 25.9418 5.34219 26.3208 5.59724C26.6145 5.79432 26.9131 5.98795 27.1992 6.19257C27.4971 6.40532 27.8088 6.60069 28.1007 6.8221C28.3735 7.02907 28.6732 7.20296 28.9587 7.39543C29.2566 7.596 29.551 7.80236 29.8484 8.00468C30.1397 8.20293 30.433 8.40002 30.7249 8.59711C30.9977 8.78146 31.2712 8.96579 31.5436 9.15128C31.9499 9.4278 32.3557 9.7049 32.7604 9.98313C33.0303 10.1686 33.2967 10.3593 33.5677 10.5437C33.8568 10.7408 34.1536 10.9263 34.4388 11.1286C34.7238 11.3303 35.0288 11.5216 35.1443 11.8729C35.2004 12.0428 35.2403 12.2184 35.2355 12.3998C35.2337 12.4584 35.2351 12.5164 35.2351 12.5749C35.2362 15.9383 35.2362 19.3027 35.2362 22.6673Z" fill="#186AB4"/>
<path d="M21.6548 24.5187C21.6548 27.3978 21.6489 30.2769 21.6606 33.1562C21.6624 33.6454 21.1748 33.8208 20.8609 33.7357C20.5622 33.6552 20.3369 33.4497 20.0999 33.2772C19.8065 33.064 19.502 32.869 19.2062 32.6595C18.7533 32.3381 18.2962 32.0226 17.8339 31.714C17.4982 31.4899 17.1708 31.2536 16.8311 31.0343C16.4033 30.7569 16.0014 30.4409 15.5831 30.149C15.2686 29.9297 14.9435 29.7253 14.6267 29.5092C14.2635 29.2609 13.912 28.994 13.7929 28.5477C13.7606 28.4272 13.6967 28.294 13.7559 28.1523C13.7794 28.096 13.7624 28.0224 13.7624 27.957C13.7624 24.2835 13.7624 20.6095 13.763 16.9359C13.763 16.3605 13.4819 15.9587 13.0014 15.6524C12.539 15.3577 12.0984 15.0294 11.6472 14.7174C11.257 14.4476 10.8633 14.1824 10.4743 13.9109C10.0999 13.6504 9.73905 13.369 9.35355 13.1252C8.72222 12.7263 8.13958 12.2603 7.51175 11.8567C7.12802 11.6101 6.77773 11.3119 6.38752 11.0769C5.90464 10.7856 5.47924 10.4168 4.99693 10.1251C4.76693 9.9861 4.51581 9.81878 4.49995 9.5044C4.48295 9.16573 4.70121 8.98044 4.96583 8.80444C5.27623 8.59776 5.59189 8.39802 5.87999 8.15601C6.11881 7.95511 6.39926 7.80227 6.6592 7.62511C7.05468 7.3553 7.45013 7.08493 7.84266 6.8105C8.2176 6.54881 8.63538 6.46776 9.06428 6.60381C9.2943 6.67676 9.49379 6.8464 9.70149 6.9813C10.0359 7.19784 10.3798 7.40452 10.6943 7.64711C10.9935 7.87812 11.308 8.08596 11.6155 8.30481C12.0057 8.58212 12.4005 8.85309 12.7919 9.12866C13.1809 9.40251 13.5699 9.67752 13.9654 9.93863C14.6026 10.3595 15.214 10.8163 15.8518 11.2361C16.2209 11.4792 16.577 11.7479 16.9426 11.9957C17.2377 12.1954 17.5405 12.3923 17.8339 12.5949C18.0961 12.7761 18.356 12.966 18.6189 13.1478C18.9452 13.3742 19.2855 13.5849 19.6041 13.8188C20.121 14.198 20.6808 14.5188 21.1707 14.9316C21.4952 15.2049 21.6594 15.5534 21.6583 15.9899C21.6518 18.8326 21.6548 21.6759 21.6548 24.5187Z" fill="#186AB4"/>
<path d="M8.78613 26.3986C8.78613 28.6176 8.78437 30.8372 8.78847 33.0565C8.78906 33.2988 8.74812 33.5248 8.52775 33.6536C8.23841 33.8232 7.94261 33.7706 7.67431 33.5857C7.36215 33.3707 7.02838 33.1802 6.73319 32.9492C6.31698 32.624 5.86337 32.3513 5.4384 32.0397C5.21569 31.8766 4.95557 31.7352 4.73344 31.5732C4.45636 31.3718 4.15533 31.2029 3.88701 30.9861C3.54739 30.7117 3.14346 30.5145 2.79624 30.2486C2.52325 30.0391 2.22396 29.8698 1.95039 29.6609C1.71657 29.4824 1.44944 29.346 1.239 29.1361C1.01979 28.9177 0.926263 28.6444 0.926263 28.3489C0.92334 23.8452 0.924509 19.3418 0.92334 14.8386C0.92334 14.5762 1.02564 14.3548 1.26881 14.2664C1.47925 14.19 1.69611 14.1894 1.93286 14.336C2.4005 14.6252 2.83774 14.955 3.28901 15.2636C3.82095 15.627 4.35407 15.9903 4.88426 16.356C5.33963 16.6698 5.79148 16.9926 6.26261 17.2864C6.63732 17.5203 6.97636 17.809 7.35163 18.0417C7.67314 18.2414 7.97127 18.4724 8.29276 18.6727C8.49152 18.7959 8.61192 19.0144 8.70078 19.2409C8.81477 19.5318 8.78554 19.8301 8.78613 20.1279C8.7873 22.2181 8.78613 24.3082 8.78613 26.3986Z" fill="#186AB4"/>
</svg>
 
