<svg viewBox="0 0 23 25" fill="none" xmlns="http://www.w3.org/2000/svg">
	<path d="M3.06732 0.279919L12.0998 5.5201L21.1473 10.7685C21.4669 10.9537 21.7211 11.2103 21.897 11.5159C22.0718 11.8192 22.1653 12.1681 22.1647 12.5374C22.1647 12.9085 22.0706 13.2562 21.8959 13.5595V13.5618C21.7217 13.8634 21.4669 14.1176 21.1443 14.304L21.1449 14.3052L12.1267 19.512H12.1238L3.10525 24.7189C2.7808 24.9059 2.43291 25 2.08596 25C1.7396 25 1.39137 24.9065 1.06691 24.7195C0.74375 24.5337 0.487786 24.2789 0.313172 23.9762C0.138616 23.6746 0.0440672 23.3257 0.0434244 22.9523L0.0218581 12.493L6.84843e-07 2.05002C-0.000291508 1.67952 0.0929216 1.33064 0.268179 1.02618C0.444429 0.719963 0.699393 0.463417 1.01999 0.278168H1.02256C1.34444 0.0923328 1.69396 -0.000581741 2.04412 1.90735e-06C2.39721 1.90735e-06 2.74673 0.0935001 3.06732 0.279919ZM11.4196 6.69472L2.38692 1.45453C2.27373 1.38908 2.15603 1.35578 2.04412 1.35578C1.92999 1.35578 1.81166 1.38792 1.69975 1.4522L1.70039 1.45278C1.58655 1.51882 1.49907 1.60414 1.44314 1.70173C1.38622 1.8005 1.35566 1.91971 1.35566 2.05002L1.37757 12.493L1.39908 22.9523C1.39943 23.0791 1.43058 23.1966 1.48814 23.2959C1.5457 23.3959 1.63254 23.4818 1.74217 23.5443C1.85057 23.6068 1.96885 23.6384 2.08596 23.6384C2.20331 23.6384 2.3213 23.6068 2.42999 23.5437L11.4465 18.338L11.4459 18.3374L20.4647 13.1305H20.4676C20.5769 13.0674 20.6634 12.9815 20.7212 12.8816L20.7218 12.8822C20.7779 12.7834 20.8089 12.6654 20.8089 12.5374C20.8089 12.4082 20.7785 12.2896 20.7224 12.1909C20.6663 12.0939 20.5798 12.0085 20.467 11.9437L11.4196 6.69472Z" fill="#0DABD1" />
	<path fill-rule="evenodd" clip-rule="evenodd" d="M7.26813 20.7503V11.2845H4.13757V22.5578L7.26813 20.7503ZM12.2307 17.8845V8.44787H9.10017V19.692L12.2307 17.8845ZM17.1939 15.0187V5.04557H14.0634V16.8268L17.1939 15.0187Z" fill="#1A2663" />
</svg>
