<svg viewBox="0 0 24 24" fill="none" xmlns="http://www.w3.org/2000/svg">
	<path d="M21.7571 12C21.7571 17.3887 17.3888 21.7571 12 21.7571C6.61138 21.7571 2.24292 17.3887 2.24292 12C2.24292 6.6112 6.61138 2.24271 12 2.24271C17.3888 2.24271 21.7571 6.6112 21.7571 12Z" fill="#F2A900" />
	<path d="M11.9999 0.265058C5.52941 0.265058 0.265259 5.52928 0.265259 11.9999C0.265259 18.4704 5.52941 23.7346 11.9999 23.7346C18.4704 23.7346 23.7347 18.4704 23.7347 11.9999C23.7347 5.52928 18.4704 0.265058 11.9999 0.265058ZM11.9999 2.24266C17.3887 2.24266 21.7571 6.61114 21.7571 11.9999C21.7571 17.3886 17.3887 21.757 11.9999 21.757C6.6113 21.757 2.24284 17.3886 2.24284 11.9999C2.24284 6.61114 6.6113 2.24266 11.9999 2.24266" fill="#D29300" />
	<path d="M11.9999 0.788804C5.8182 0.788804 0.788947 5.81815 0.788947 12C0.788947 18.1818 5.8182 23.211 11.9999 23.211C18.1818 23.211 23.2112 18.1818 23.2112 12C23.2112 5.81815 18.1818 0.788804 11.9999 0.788804ZM11.9999 24C5.38317 24 0 18.6167 0 12C0 5.38305 5.38317 -8.81621e-08 11.9999 -8.81621e-08C18.6168 -8.81621e-08 24 5.38305 24 12C24 18.6167 18.6168 24 11.9999 24" fill="#5F6163" />
	<path d="M13.0042 5.38888C13.0042 6.01443 12.4971 6.52152 11.8715 6.52152C11.246 6.52152 10.7389 6.01443 10.7389 5.38888C10.7389 4.76333 11.246 4.25623 11.8715 4.25623C12.4971 4.25623 13.0042 4.76333 13.0042 5.38888Z" fill="white" />
	<path d="M9.11646 14.3877C9.11646 14.7061 9.22447 15.015 9.4229 15.2639L15.5677 20.1188L11.4948 15.1396L9.97268 13.2979C9.47168 13.4213 9.11646 13.8692 9.11646 14.3877Z" fill="white" />
	<path d="M14.0416 11.044L16.3923 9.85153H14.0342C14.0342 9.85153 14.1194 10.3075 14.0416 11.044Z" fill="white" />
	<path d="M16.4248 6.91147V6.89206H7.10632L9.38622 8.39525C9.75997 8.40657 10.082 8.43893 10.3506 8.49395C10.6806 8.56191 10.9703 8.67842 11.2178 8.84342C11.501 9.03271 11.7114 9.27549 11.8457 9.57323C11.8861 9.66216 11.9201 9.75446 11.9476 9.85153H10.2227C9.87066 10.3535 10.2297 11.044 10.8429 11.044H12.0269C12.001 11.3207 11.9492 11.5731 11.8683 11.7997C11.747 12.1411 11.5609 12.4372 11.3068 12.6847C11.0237 12.9614 10.6806 13.1443 10.2794 13.2332L10.2712 13.2351C10.262 13.237 10.2537 13.2411 10.2447 13.2433L11.1467 14.3304C11.9913 14.0181 12.658 13.5358 13.1466 12.887C13.535 12.3725 13.7696 11.7592 13.8488 11.044C13.933 10.3075 13.8408 9.85153 13.8408 9.85153C13.7841 9.42436 13.6628 9.04893 13.4783 8.72856C13.4104 8.61206 13.3375 8.50043 13.2583 8.39525H15.3779L16.4248 6.91147Z" fill="white" />
</svg>
