<svg viewBox="0 0 21 22" fill="none" xmlns="http://www.w3.org/2000/svg">
<path
    d="M12.3694 15.2018L12.3726 15.1994C12.282 14.9576 12.2474 14.6984 12.2713 14.4413C12.2951 14.1841 12.3769 13.9357 12.5105 13.7147L12.4984 13.7027C12.1344 13.3373 11.7671 12.9747 11.4075 12.605C11.3416 12.5372 11.2771 12.4949 11.2069 12.4792C10.8613 12.6964 10.4617 12.8125 10.0535 12.8143C9.64531 12.8161 9.24475 12.7036 8.89719 12.4895C8.82497 12.5118 8.75844 12.5597 8.68968 12.6317C8.38443 12.9516 8.07394 13.2669 7.75353 13.571C7.70676 13.6144 7.66269 13.6607 7.62158 13.7095C7.76337 13.93 7.85256 14.1802 7.88226 14.4407C7.91197 14.7012 7.88138 14.965 7.79287 15.2118C7.79622 15.2145 7.79945 15.2175 7.8029 15.2199C8.14839 15.4762 8.54814 15.6637 8.88092 15.9342C9.0333 16.0589 9.20395 16.1594 9.38688 16.2323C9.5803 16.0867 9.81661 16.0095 10.0587 16.0128C10.3008 16.0161 10.5349 16.0997 10.7242 16.2506C11.2743 15.9036 11.8227 15.554 12.3694 15.2018Z"
    fill="#050505"
  />
<path
    d="M14.6623 12.8401C14.922 12.4312 15.1787 12.0205 15.4405 11.613C15.502 11.5171 15.5686 11.4235 15.6223 11.3259C15.4678 11.1396 15.3795 10.9071 15.3715 10.6652C15.3634 10.4232 15.4359 10.1855 15.5777 9.98923C15.576 9.98611 15.5745 9.98288 15.5727 9.97975C15.2793 9.469 14.9408 8.98432 14.6388 8.47813C14.6256 8.45585 14.6122 8.43501 14.5987 8.41561C14.3505 8.50731 14.0845 8.5402 13.8215 8.51169C13.5585 8.48319 13.3057 8.39407 13.083 8.25134C13.08 8.25379 13.0769 8.25602 13.0741 8.25848C12.6894 8.60128 12.3401 8.98365 11.9714 9.34485C11.9382 9.37628 11.9093 9.41204 11.8856 9.45117C12.1091 9.80085 12.2285 10.2069 12.2299 10.6219C12.2312 11.037 12.1144 11.4438 11.8931 11.7949C11.9052 11.8759 11.9352 11.9558 11.9771 12.0031C12.2911 12.3572 12.6467 12.6741 12.9684 13.0218C13.0059 13.063 13.046 13.1018 13.0883 13.138C13.3074 13.0059 13.5532 12.9246 13.8078 12.9001C14.0624 12.8755 14.3192 12.9083 14.5594 12.9961C14.5892 12.9552 14.6217 12.904 14.6623 12.8401Z"
    fill="#050505"
  />
<path
    d="M9.38927 5.13716C8.85433 5.45122 8.33499 5.79391 7.81276 6.13026C7.77564 6.15411 7.73073 6.18141 7.69251 6.21117C7.75524 6.43307 7.7725 6.66536 7.74324 6.8941C7.71397 7.12284 7.6388 7.34331 7.52222 7.54228C7.54916 7.57702 7.57842 7.6099 7.60981 7.64068C7.9787 8.01648 8.35572 8.38447 8.7226 8.76216C8.74698 8.78764 8.77374 8.81074 8.80251 8.83115C9.17052 8.57694 9.60766 8.44176 10.0549 8.44386C10.5022 8.44595 10.9381 8.58521 11.3037 8.84285C11.3527 8.81257 11.3973 8.77554 11.436 8.73285C11.7468 8.40364 12.0646 8.08 12.3961 7.77174C12.4384 7.7331 12.4783 7.69178 12.5153 7.64804C12.3927 7.42854 12.32 7.18471 12.3024 6.93391C12.2848 6.68311 12.3227 6.4315 12.4133 6.19701C12.365 6.15637 12.3132 6.12004 12.2584 6.08847C11.8878 5.86769 11.5266 5.63076 11.1642 5.39639C10.9875 5.28216 10.8162 5.15299 10.6292 5.07654C10.4559 5.19531 10.252 5.26163 10.042 5.26756C9.832 5.27349 9.62472 5.21878 9.44499 5.10997C9.42573 5.11756 9.4071 5.12666 9.38927 5.13716Z"
    fill="#050505"
  />
<path
    d="M8.15008 12.0017C8.1843 11.9639 8.21015 11.904 8.22497 11.8392C7.98709 11.4814 7.85995 11.0613 7.85945 10.6316C7.85896 10.2019 7.98513 9.7816 8.22219 9.4232C8.20162 9.39345 8.17806 9.36589 8.15187 9.34095C7.78164 8.98165 7.43193 8.60028 7.04967 8.25547C7.00631 8.21635 6.94714 8.1886 6.8825 8.16943C6.49137 8.38745 6.03037 8.44347 5.59842 8.32546C5.55605 8.3746 5.5184 8.42762 5.48597 8.48382C5.2195 8.92537 4.93933 9.35867 4.65893 9.79164C4.59842 9.88503 4.53578 9.97675 4.4873 10.0718C4.61325 10.2518 4.68203 10.4656 4.68467 10.6852C4.68731 10.9049 4.6237 11.1202 4.50213 11.3032C4.50447 11.3077 4.50681 11.3123 4.50937 11.3167C4.83089 11.8601 5.18117 12.3865 5.5116 12.9246C5.53507 12.9636 5.56228 13.0002 5.59285 13.0339C5.82387 12.9483 6.07065 12.9137 6.31632 12.9323C6.56198 12.9509 6.80073 13.0223 7.01623 13.1417C7.41008 12.7783 7.79078 12.3989 8.15008 12.0017Z"
    fill="#050505"
  />
<path
    d="M10.5555 1.75615C10.5555 1.27147 10.56 0.786568 10.554 0.302002C10.56 0.78668 10.5559 1.27158 10.5552 1.75615C10.5552 1.88264 10.5512 2.00924 10.5559 2.13506C10.5512 2.00913 10.5552 1.88253 10.5555 1.75615Z"
    fill="#050505"
  />
<path
    d="M9.5989 1.74541C9.59968 2.12499 9.59233 2.50469 9.60191 2.88405C9.59233 2.50513 9.59957 2.12499 9.59923 1.74541C9.59923 1.27098 9.59389 0.796446 9.60102 0.322021C9.59389 0.796446 9.5989 1.27098 9.5989 1.74541Z"
    fill="#050505"
  />
<path
    d="M4.23962 3.31523C4.32943 3.45638 4.38568 3.61623 4.40407 3.78252C4.42247 3.9488 4.4025 4.11708 4.34572 4.27444C4.63827 4.57011 4.92736 4.86923 5.23517 5.14784C5.24221 5.15416 5.24966 5.16 5.25746 5.16534C5.57053 5.00153 5.9267 4.93886 6.27688 4.98597C6.62706 5.03308 6.95401 5.18764 7.21266 5.42835C7.36479 5.40161 7.50432 5.31936 7.65131 5.199C7.71617 5.14595 7.79519 5.11073 7.86306 5.06125C8.21033 4.80916 8.61432 4.63174 8.93004 4.34231C8.89386 4.10631 8.93585 3.86494 9.04961 3.65502C9.16338 3.44509 9.34267 3.27814 9.56016 3.1796C9.58929 3.08377 9.60332 2.98398 9.60173 2.88382C9.59214 2.50491 9.59939 2.12477 9.59872 1.74518C9.59872 1.27076 9.59381 0.796223 9.60083 0.321798C9.60418 0.0963432 9.51792 -0.0106447 9.28422 0.000834192C8.74761 0.0273583 8.20988 0.0366083 7.67371 0.0753914C7.55046 0.0841956 7.4068 0.155521 7.31776 0.243674C6.28777 1.26296 5.26649 2.29171 4.23962 3.31523Z"
    fill="#050505"
  />
<path
    d="M10.5756 3.24053C10.7366 3.33778 10.8699 3.47499 10.9623 3.63887C11.0548 3.80275 11.1033 3.98773 11.1032 4.17589C11.1032 4.19818 11.1025 4.22047 11.1011 4.24276C11.1478 4.31119 11.199 4.37349 11.2626 4.41773C11.7552 4.76043 12.2626 5.0834 12.7798 5.38731C12.8356 5.41974 12.9136 5.43779 12.9925 5.44036C13.2337 5.26267 13.5174 5.15151 13.8151 5.11804C14.1128 5.08458 14.414 5.12997 14.6887 5.24967C14.7796 5.23039 14.8694 5.19038 14.9263 5.1389C15.2355 4.8585 15.525 4.55637 15.819 4.25914C15.761 4.10742 15.7375 3.9447 15.7503 3.78278C15.763 3.62087 15.8116 3.46381 15.8925 3.323C14.8774 2.30205 13.8675 1.27574 12.8478 0.259356C12.752 0.163735 12.5971 0.0866147 12.4638 0.0763617C11.9288 0.0355726 11.391 0.0271027 10.8545 0.00124728C10.6367 -0.00922862 10.5513 0.0886207 10.5536 0.302151C10.5596 0.786828 10.5555 1.27173 10.5552 1.7563C10.5552 1.88279 10.5508 2.00939 10.5552 2.13521C10.5694 2.5022 10.5128 2.8829 10.5756 3.24053Z"
    fill="#050505"
  />
<path
    d="M19.6911 4.19119C19.087 4.19398 18.4781 4.14817 17.88 4.203C17.8343 4.3447 17.7601 4.47557 17.6621 4.5876C17.564 4.69962 17.4441 4.79045 17.3097 4.85452C17.1753 4.91858 17.0293 4.95453 16.8805 4.96017C16.7317 4.9658 16.5834 4.941 16.4445 4.88728C16.1222 5.18061 15.83 5.51338 15.5331 5.83457C15.5064 5.86526 15.4855 5.90052 15.4713 5.93866C15.6559 6.24781 15.738 6.60739 15.706 6.96602C15.674 7.32466 15.5294 7.664 15.293 7.93555C15.2981 7.94424 15.3036 7.95304 15.3092 7.96196C15.646 8.48453 15.9709 9.01479 16.3046 9.53947L16.3097 9.54739C16.3607 9.54007 16.4122 9.53635 16.4637 9.53624C16.6226 9.53599 16.7796 9.57053 16.9238 9.63743C16.9335 9.62818 16.9434 9.6186 16.9534 9.60868C17.7671 8.79736 18.5778 7.98299 19.3855 7.16557C19.4916 7.05758 19.5972 6.91136 19.6227 6.76837C19.7619 6.00185 19.8758 5.23042 19.9985 4.46145C20.0108 4.22908 19.8756 4.1903 19.6911 4.19119Z"
    fill="#050505"
  />
<path
    d="M1.40743 4.20459C1.5366 4.20459 1.66576 4.20738 1.79482 4.20459C1.66576 4.20694 1.5366 4.20393 1.40743 4.20404C1.11232 4.20404 0.816768 4.21518 0.522217 4.20081C0.816545 4.21607 1.11232 4.20459 1.40743 4.20459Z"
    fill="#050505"
  />
<path
    d="M3.17456 9.59054C3.20042 9.61628 3.22549 9.63913 3.24979 9.65919C3.35999 9.623 3.47526 9.6046 3.59126 9.60469C3.63892 9.60469 3.68654 9.60778 3.7338 9.61394C3.75996 9.5813 3.78432 9.54726 3.8068 9.51197C4.13199 9.00712 4.46354 8.50528 4.76055 7.98405C4.78332 7.94193 4.79934 7.89651 4.80802 7.84942C4.55715 7.58348 4.39824 7.24406 4.35466 6.88107C4.31109 6.51807 4.38516 6.15068 4.56596 5.83292L4.56295 5.82913C4.30663 5.53626 4.01431 5.27525 3.74561 4.99329C3.72577 4.97245 3.70571 4.95217 3.68565 4.93211C3.54656 4.98167 3.39888 5.00255 3.2515 4.99349C3.10412 4.98443 2.9601 4.94562 2.82813 4.87939C2.69615 4.81317 2.57896 4.72091 2.4836 4.60817C2.38825 4.49544 2.31671 4.36456 2.2733 4.22342C2.13287 4.20583 1.99126 4.19935 1.84981 4.20403C1.83138 4.20463 1.81281 4.20507 1.79409 4.20537C1.66503 4.20771 1.53586 4.2047 1.4067 4.20537C1.11159 4.20537 0.816037 4.21651 0.521486 4.20203C0.254796 4.18865 0.151931 4.29687 0.190046 4.55676C0.295585 5.27547 0.389311 5.99608 0.510898 6.71212C0.537199 6.86714 0.632374 7.03331 0.74382 7.14754C1.54723 7.96856 2.36001 8.78044 3.17456 9.59054Z"
    fill="#050505"
  />
<path
    d="M13.5518 16.2549C13.304 16.1921 13.0735 16.0743 12.8774 15.9103C12.8423 15.9217 12.8086 15.9373 12.7771 15.9568C12.3561 16.2161 11.9439 16.4897 11.5233 16.7499C11.3879 16.8337 11.2492 16.9127 11.1332 17.0114C11.1359 17.0425 11.1373 17.0738 11.1373 17.1055C11.1374 17.3026 11.0842 17.4959 10.9833 17.6652C10.8825 17.8344 10.7377 17.9732 10.5644 18.0669C10.5395 18.1297 10.5254 18.1963 10.5227 18.2638C10.5064 19.3794 10.5138 20.4953 10.5152 21.6112C10.5152 21.7121 10.5277 21.8132 10.5382 21.9711C10.6485 21.9216 10.7034 21.9107 10.7394 21.8788C11.6362 21.0838 12.5355 20.2918 13.4195 19.4827C13.5187 19.3918 13.5701 19.2041 13.5724 19.0592C13.5861 18.1752 13.5822 17.2908 13.5782 16.4068C13.5778 16.355 13.5688 16.3037 13.5518 16.2549Z"
    fill="#050505"
  />
<path
    d="M8.95135 17.1055C8.95133 17.0683 8.95319 17.0311 8.95692 16.9941C8.9425 16.9811 8.92723 16.9691 8.91123 16.9581C8.42488 16.6252 7.92092 16.3179 7.42443 15.9996C7.38297 15.9731 7.34297 15.9471 7.30273 15.9254C7.09344 16.1068 6.84306 16.2343 6.57332 16.297C6.56039 16.3505 6.55488 16.4055 6.55694 16.4605C6.57711 17.3026 6.5721 18.1456 6.55961 18.9881C6.55571 19.2531 6.63662 19.4586 6.83009 19.6295C7.64996 20.3542 8.46994 21.0786 9.29003 21.8027C9.35757 21.8622 9.44149 21.903 9.59094 22C9.6013 21.7902 9.61256 21.6678 9.61323 21.5453C9.61468 20.5341 9.60988 19.523 9.61635 18.5118C9.61724 18.3715 9.62014 18.2332 9.5993 18.1031C9.40649 18.0171 9.2427 17.8772 9.12771 17.7002C9.01273 17.5231 8.95147 17.3166 8.95135 17.1055Z"
    fill="#050505"
  />
<path
    d="M0.400678 3.28499C1.00137 3.2744 1.60429 3.30728 2.20298 3.27385C2.28401 3.26933 2.36472 3.26017 2.4447 3.24643C2.54642 3.11091 2.6783 3.00094 2.8299 2.92524C2.98151 2.84955 3.14866 2.81021 3.3181 2.81034C3.34515 2.81034 3.37193 2.81131 3.39846 2.81324C3.43241 2.78523 3.46551 2.75607 3.49776 2.72576C4.25648 2.00972 4.97865 1.25467 5.71463 0.514895C5.7844 0.444127 5.84603 0.365112 5.94209 0.254892C5.83678 0.23472 5.78785 0.213545 5.74149 0.218338C3.90409 0.407015 2.08607 0.706804 0.299262 1.18145C0.0791565 1.23985 -0.010223 1.37481 0.000921575 1.59714C0.0232107 2.04961 0.0488433 2.5022 0.0556415 2.955C0.0594306 3.19918 0.158283 3.28889 0.400678 3.28499Z"
    fill="#050505"
  />
<path
    d="M19.7099 1.1512C18.1037 0.859435 16.4989 0.560538 14.8923 0.270779C14.6806 0.232664 14.4623 0.234559 14.1736 0.212158C14.2466 0.325833 14.2634 0.365619 14.2917 0.394038C15.0901 1.19645 15.8661 2.02326 16.7015 2.78466C16.7475 2.77885 16.7938 2.77595 16.8401 2.77597C17.0177 2.77585 17.1926 2.81905 17.3497 2.90182C17.5067 2.98459 17.6412 3.10443 17.7415 3.25095C17.7671 3.25474 17.7925 3.25805 17.8176 3.26087C18.4529 3.33186 19.1019 3.27725 19.7451 3.28316C19.9506 3.28516 20.0596 3.21685 20.0653 2.99574C20.0764 2.55341 20.0904 2.11053 20.1243 1.66953C20.1483 1.35236 20.0067 1.20525 19.7099 1.1512Z"
    fill="#050505"
  />
<path
    d="M4.44577 14.187C4.47956 14.1848 4.5128 14.1772 4.54428 14.1647C4.61019 13.934 4.72412 13.7197 4.87862 13.5361C4.8728 13.5194 4.86533 13.5033 4.85633 13.488C4.50806 12.9096 4.14419 12.3402 3.77609 11.7742C3.58348 11.807 3.38561 11.7878 3.20292 11.7185C3.08802 11.8265 2.97814 11.9402 2.86858 12.0536C2.19467 12.7497 2.23546 12.5045 2.60479 13.4319C2.83526 14.0105 3.13249 14.3823 3.72048 14.1897C4.02561 14.1894 4.23636 14.1991 4.44577 14.187Z"
    fill="#050505"
  />
<path
    d="M16.1648 14.189C16.2134 14.1904 16.262 14.1919 16.3105 14.1919C16.352 14.1919 16.3936 14.1907 16.4353 14.1895C16.3936 14.1907 16.3519 14.1919 16.3105 14.1919C16.262 14.1919 16.2134 14.1903 16.1648 14.189Z"
    fill="#050505"
  />
<path
    d="M17.649 12.4458C17.4123 12.2205 17.189 11.9812 16.9557 11.7523C16.9206 11.7174 16.8836 11.6844 16.845 11.6534C16.7231 11.6987 16.5941 11.7219 16.464 11.7218C16.436 11.7218 16.4083 11.7207 16.3809 11.7186C16.3578 11.7487 16.3342 11.7827 16.3097 11.8213C15.9976 12.3103 15.6927 12.8032 15.3812 13.2924C15.3381 13.3601 15.2965 13.4239 15.2686 13.49C15.4394 13.6891 15.5618 13.925 15.6264 14.1792C15.6959 14.2003 15.7752 14.2058 15.8679 14.1951C15.9228 14.1892 15.9779 14.1864 16.0331 14.1868C16.0607 14.1868 16.0888 14.1868 16.1162 14.1879L16.1648 14.1893C16.2134 14.1907 16.262 14.1922 16.3105 14.1922C16.352 14.1922 16.3936 14.1911 16.4353 14.1898L16.477 14.1886C16.569 14.1841 16.6613 14.1863 16.753 14.1952C17.0369 14.2286 17.2055 14.1172 17.3116 13.8503C17.4361 13.5375 17.5933 13.2373 17.7362 12.9323C17.8214 12.7495 17.8028 12.5921 17.649 12.4458Z"
    fill="#050505"
  />
<path
    d="M15.6035 15.1019C15.5242 15.3584 15.3858 15.5926 15.1993 15.7856C15.0128 15.9786 14.7836 16.1251 14.53 16.2132C14.4911 16.2806 14.4632 16.3509 14.4595 16.4186C14.433 16.8908 14.4477 17.3659 14.4515 17.8392C14.4522 17.9372 14.4737 18.0352 14.4863 18.1332L14.5719 18.1586C15.3383 17.2282 16.0207 16.2411 16.6361 15.0947C16.2328 15.0946 15.9164 15.0844 15.6035 15.1019Z"
    fill="#050505"
  />
<path
    d="M5.65483 16.2565C5.38979 16.1694 5.15006 16.0188 4.95654 15.8179C4.76301 15.6169 4.62155 15.3717 4.54449 15.1036C4.5372 15.1016 4.52974 15.1003 4.52221 15.0998C4.21138 15.0815 3.89878 15.092 3.47852 15.092C4.11621 16.2369 4.78655 17.2305 5.58874 18.209C5.63677 18.0856 5.66397 18.0481 5.6643 18.0102C5.66865 17.4418 5.67745 16.8734 5.66308 16.3064C5.66248 16.2895 5.65971 16.2727 5.65483 16.2565Z"
    fill="#050505"
  />
<path
    d="M18.9786 8.83681C18.4866 9.32717 17.9937 9.81653 17.5109 10.3156C17.5797 10.5463 17.5706 10.7933 17.4851 11.0184C17.6393 11.2933 17.9574 11.448 18.1501 11.6955L18.2711 11.6852L19.1947 8.81374L19.1055 8.76782C19.0625 8.79045 19.0112 8.80427 18.9786 8.83681Z"
    fill="#050505"
  />
<path
    d="M2.56371 11.0697C2.47493 10.8237 2.47703 10.5541 2.56961 10.3094C2.11191 9.79557 1.60583 9.32438 1.11569 8.83937C1.10098 8.82477 1.06186 8.8348 0.957886 8.82922L1.85458 11.6302L1.99244 11.6547C2.18145 11.4588 2.40401 11.2826 2.56371 11.0697Z"
    fill="#050505"
  />
</svg>
