<svg viewBox="0 0 150 27" fill="none" xmlns="http://www.w3.org/2000/svg">
	<path d="M30.5005 6.30057H33.8144V20.62H30.5005V6.30057ZM50.3458 6.30057V20.62H47.6251L40.4858 11.9261V20.62H37.2128V6.30057H39.954L47.0728 14.9945V6.30057H50.3458ZM62.8573 20.62L60.0956 16.631H59.932H57.0476V20.62H53.7337V6.30057H59.932C61.2003 6.30057 62.2981 6.51196 63.2255 6.93472C64.1665 7.35748 64.8891 7.95754 65.3938 8.73488C65.8984 9.51222 66.1507 10.4328 66.1507 11.4965C66.1507 12.5602 65.8915 13.4808 65.3734 14.2581C64.8687 15.0218 64.146 15.6082 63.205 16.0174L66.4167 20.62H62.8573ZM62.7959 11.4965C62.7959 10.6919 62.5367 10.0782 62.0185 9.65542C61.5003 9.21901 60.7434 9.00081 59.7479 9.00081H57.0476V13.9922H59.7479C60.7434 13.9922 61.5003 13.774 62.0185 13.3376C62.5367 12.9012 62.7959 12.2875 62.7959 11.4965ZM69.4105 20.7428C69.0285 20.7428 68.7012 20.6132 68.4286 20.3541C68.1558 20.0813 68.0195 19.7404 68.0195 19.3313C68.0195 18.9357 68.1558 18.6084 68.4286 18.3494C68.7012 18.0766 69.0285 17.9403 69.4105 17.9403C69.7923 17.9403 70.1127 18.0699 70.372 18.3289C70.631 18.588 70.7606 18.9222 70.7606 19.3313C70.7606 19.7404 70.6241 20.0813 70.3515 20.3541C70.0923 20.6132 69.7787 20.7428 69.4105 20.7428Z" fill="#5F6163" />
	<path d="M83.0529 13.2353H86.0804V19.0449C85.3031 19.6313 84.403 20.0813 83.3802 20.395C82.3574 20.7087 81.3277 20.8655 80.2913 20.8655C78.8048 20.8655 77.4683 20.5518 76.2818 19.9245C75.0953 19.2835 74.1612 18.4039 73.4793 17.2856C72.8111 16.1537 72.4769 14.8786 72.4769 13.4603C72.4769 12.042 72.8111 10.7737 73.4793 9.65541C74.1612 8.52348 75.1022 7.64386 76.3023 7.01653C77.5023 6.37556 78.8524 6.05508 80.3526 6.05508C81.6074 6.05508 82.746 6.26647 83.7689 6.68923C84.7917 7.11199 85.6508 7.72568 86.3464 8.53031L84.2189 10.4941C83.1961 9.41676 81.9618 8.87807 80.5163 8.87807C79.6026 8.87807 78.7911 9.069 78.082 9.45084C77.3729 9.83269 76.8206 10.3714 76.425 11.0669C76.0295 11.7624 75.8318 12.5602 75.8318 13.4603C75.8318 14.3467 76.0295 15.1377 76.425 15.8332C76.8206 16.5288 77.366 17.0742 78.0615 17.4697C78.7706 17.8515 79.5753 18.0425 80.4754 18.0425C81.43 18.0425 82.2891 17.838 83.0529 17.4288V13.2353ZM98.2824 20.62L95.5208 16.631H95.3571H92.4728V20.62H89.1589V6.30056H95.3571C96.6254 6.30056 97.7232 6.51195 98.6506 6.93471C99.5916 7.35747 100.314 7.95753 100.819 8.73487C101.324 9.51221 101.576 10.4328 101.576 11.4965C101.576 12.5602 101.317 13.4808 100.799 14.2581C100.294 15.0218 99.5712 15.6082 98.6302 16.0173L101.842 20.62H98.2824ZM98.221 11.4965C98.221 10.6919 97.9618 10.0782 97.4437 9.65541C96.9254 9.219 96.1685 9.0008 95.173 9.0008H92.4728V13.9922H95.173C96.1685 13.9922 96.9254 13.774 97.4437 13.3376C97.9618 12.9012 98.221 12.2875 98.221 11.4965ZM111.136 20.8655C109.65 20.8655 108.306 20.5451 107.106 19.9041C105.92 19.263 104.986 18.3834 104.304 17.2652C103.635 16.1333 103.301 14.865 103.301 13.4603C103.301 12.0556 103.635 10.7941 104.304 9.67587C104.986 8.54394 105.92 7.65751 107.106 7.01653C108.306 6.37556 109.65 6.05508 111.136 6.05508C112.623 6.05508 113.959 6.37556 115.146 7.01653C116.332 7.65751 117.266 8.54394 117.948 9.67587C118.63 10.7941 118.971 12.0556 118.971 13.4603C118.971 14.865 118.63 16.1333 117.948 17.2652C117.266 18.3834 116.332 19.263 115.146 19.9041C113.959 20.5451 112.623 20.8655 111.136 20.8655ZM111.136 18.0425C111.982 18.0425 112.745 17.8515 113.427 17.4697C114.109 17.0742 114.641 16.5288 115.023 15.8332C115.418 15.1377 115.616 14.3467 115.616 13.4603C115.616 12.5738 115.418 11.7829 115.023 11.0874C114.641 10.3918 114.109 9.85315 113.427 9.4713C112.745 9.07581 111.982 8.87807 111.136 8.87807C110.291 8.87807 109.527 9.07581 108.845 9.4713C108.163 9.85315 107.624 10.3918 107.229 11.0874C106.847 11.7829 106.656 12.5738 106.656 13.4603C106.656 14.3467 106.847 15.1377 107.229 15.8332C107.624 16.5288 108.163 17.0742 108.845 17.4697C109.527 17.8515 110.291 18.0425 111.136 18.0425ZM127.823 20.8655C125.778 20.8655 124.182 20.2996 123.037 19.1676C121.905 18.0357 121.339 16.4196 121.339 14.3195V6.30056H124.653V14.1967C124.653 16.7606 125.716 18.0425 127.844 18.0425C128.88 18.0425 129.671 17.7357 130.217 17.122C130.762 16.4947 131.035 15.5196 131.035 14.1967V6.30056H134.308V14.3195C134.308 16.4196 133.735 18.0357 132.59 19.1676C131.458 20.2996 129.869 20.8655 127.823 20.8655ZM143.781 6.30056C145.049 6.30056 146.147 6.51195 147.075 6.93471C148.016 7.35747 148.739 7.95753 149.243 8.73487C149.748 9.51221 150 10.4328 150 11.4965C150 12.5466 149.748 13.4671 149.243 14.2581C148.739 15.0354 148.016 15.6355 147.075 16.0583C146.147 16.4674 145.049 16.6719 143.781 16.6719H140.897V20.62H137.583V6.30056H143.781ZM143.597 13.9717C144.593 13.9717 145.349 13.7603 145.868 13.3376C146.386 12.9012 146.645 12.2875 146.645 11.4965C146.645 10.6919 146.386 10.0782 145.868 9.65541C145.349 9.219 144.593 9.0008 143.597 9.0008H140.897V13.9717H143.597Z" fill="#4CAF50" />
	<path d="M24.3304 13.4194C24.3304 19.4455 19.4454 24.3305 13.4192 24.3305C7.39322 24.3305 2.50806 19.4455 2.50806 13.4194C2.50806 7.39319 7.39322 2.508 13.4192 2.508C19.4454 2.508 24.3304 7.39319 24.3304 13.4194Z" fill="#4CAF50" />
	<path d="M13.4193 0.296448C6.18344 0.296448 0.296631 6.18333 0.296631 13.4194C0.296631 20.6552 6.18344 26.5421 13.4193 26.5421C20.6551 26.5421 26.5421 20.6552 26.5421 13.4194C26.5421 6.18333 20.6551 0.296448 13.4193 0.296448ZM13.4193 2.50796C19.4455 2.50796 24.3305 7.39316 24.3305 13.4194C24.3305 19.4455 19.4455 24.3305 13.4193 24.3305C7.39329 24.3305 2.50811 19.4455 2.50811 13.4194C2.50811 7.39316 7.39329 2.50796 13.4193 2.50796Z" fill="#93D996" />
	<path d="M13.4193 0.882107C6.50639 0.882107 0.882266 6.50634 0.882266 13.4194C0.882266 20.3323 6.50639 25.9564 13.4193 25.9564C20.3323 25.9564 25.9567 20.3323 25.9567 13.4194C25.9567 6.50634 20.3323 0.882107 13.4193 0.882107ZM13.4193 26.8388C6.01991 26.8388 0 20.8187 0 13.4194C0 6.01978 6.01991 0 13.4193 0C20.8189 0 26.8388 6.01978 26.8388 13.4194C26.8388 20.8187 20.8189 26.8388 13.4193 26.8388Z" fill="#5F6163" />
	<path d="M16.5514 18.878V17.2904C16.5514 16.1929 16.4378 15.4305 16.2097 15.0026C15.982 14.5747 15.5101 14.2397 14.7941 13.9982C16.1404 13.3841 16.8138 12.2735 16.8138 10.6662C16.8138 9.26183 16.326 8.20383 15.3504 7.49173C14.9655 7.19763 14.5191 6.99809 14.0106 6.89355C13.4871 6.80253 12.7026 6.75677 11.656 6.75677H7.70215V8.5599H11.6156C12.636 8.5599 13.4143 8.70666 13.9503 9.00045C14.4869 9.30775 14.7549 9.9384 14.7549 10.892C14.7549 11.826 14.4674 12.4465 13.8918 12.7535C13.3162 13.0608 12.5116 13.2142 11.4782 13.2142H7.70215V15.0171H11.5377C12.5976 15.0171 13.3626 15.1512 13.8337 15.4191C14.2981 15.6999 14.5306 16.3238 14.5306 17.2904V19.0935C14.5306 19.5769 14.6442 20.2533 14.8721 21.122H17.2352C16.7794 20.4947 16.5514 19.7468 16.5514 18.878Z" fill="#FFFCFC" />
	<path d="M19.1356 10.4756H7.70215V9.59323H19.1356V10.4756Z" fill="#FFFCFC" />
	<path d="M19.1356 7.63057H7.70215V6.74844H19.1356V7.63057Z" fill="#FFFCFC" />
</svg>
