<svg viewBox="0 0 192 38" fill="none" xmlns="http://www.w3.org/2000/svg">
<path d="M41.6376 26.7485L38.2012 21.8936C40.193 21.0521 41.353 19.3907 41.353 17.1251C41.353 13.7374 38.7922 11.6444 34.6993 11.6444H28.0674V26.7485H31.6131V22.541H34.6993H34.8744L37.8292 26.7485H41.6376ZM37.7635 17.1251C37.7635 18.7649 36.6691 19.7575 34.5023 19.7575H31.6131V14.4926H34.5023C36.6691 14.4926 37.7635 15.4636 37.7635 17.1251ZM55.6094 26.7485H59.3302L52.4795 11.6444H48.9775L42.1486 26.7485H45.7819L47.139 23.5119H54.2524L55.6094 26.7485ZM48.2771 20.8579L50.7066 15.0752L53.1361 20.8579H48.2771ZM60.9198 26.7485H67.88C72.8922 26.7485 76.3285 23.7709 76.3285 19.1965C76.3285 14.6221 72.8922 11.6444 67.88 11.6444H60.9198V26.7485ZM64.4656 23.8788V14.5142H67.7049C70.7473 14.5142 72.739 16.3051 72.739 19.1965C72.739 22.0878 70.7473 23.8788 67.7049 23.8788H64.4656ZM82.5265 23.9435V20.448H89.6399V17.7292H82.5265V14.4495H90.5811V11.6444H79.0026V26.7485H90.8656V23.9435H82.5265ZM104.92 27.0075C109.297 27.0075 111.42 24.8497 111.42 22.3252C111.42 16.7798 102.512 18.7002 102.512 15.9167C102.512 14.9673 103.322 14.1905 105.423 14.1905C106.78 14.1905 108.246 14.5789 109.669 15.3773L110.763 12.7233C109.341 11.8386 107.371 11.3855 105.445 11.3855C101.089 11.3855 98.988 13.5217 98.988 16.0894C98.988 21.6995 107.896 19.7575 107.896 22.5841C107.896 23.5119 107.043 24.2024 104.941 24.2024C103.103 24.2024 101.177 23.5551 99.8854 22.6273L98.6816 25.2597C100.039 26.2954 102.49 27.0075 104.92 27.0075ZM116.803 26.7485H120.349V14.4926H125.251V11.6444H111.9V14.4926H116.803V26.7485ZM140.729 26.7485L137.293 21.8936C139.285 21.0521 140.445 19.3907 140.445 17.1251C140.445 13.7374 137.884 11.6444 133.791 11.6444H127.159V26.7485H130.705V22.541H133.791H133.966L136.921 26.7485H140.729ZM136.855 17.1251C136.855 18.7649 135.761 19.7575 133.594 19.7575H130.705V14.4926H133.594C135.761 14.4926 136.855 15.4636 136.855 17.1251ZM146.778 23.9435V20.448H153.891V17.7292H146.778V14.4495H154.832V11.6444H143.254V26.7485H155.117V23.9435H146.778ZM169.385 26.7485H173.106L166.255 11.6444H162.753L155.925 26.7485H159.558L160.915 23.5119H168.028L169.385 26.7485ZM162.053 20.8579L164.483 15.0752L166.912 20.8579H162.053ZM191.966 26.7485L191.922 11.6444H189.011L183.364 21.0306L177.629 11.6444H174.696V26.7485H178.023V17.8803L182.51 25.1518H184.108L188.617 17.6861L188.639 26.7485H191.966Z" fill="white"/>
<path d="M3.66002 14.3096L24.6543 2.15933L27.6094 3.95675L6.67225 16.1138L3.66002 14.3096ZM24.6778 0L0 14.2824L6.65772 18.2698L31.2439 3.99379L24.6778 0Z" fill="white"/>
<path d="M16.7796 31.43L12.9807 29.094V18.6675L11.1206 19.814V30.1258L18.666 34.7747V17.4181L21.6788 15.5343V36.6959L23.5652 37.8635V12.1799L16.7796 16.3893V31.43Z" fill="white"/>
</svg>
